-1.05003E+1	-5.00421E-1
-1.00183E+1	-5.00334E-1
-9.56089E+0	-5.00278E-1
-9.08488E+0	-5.00204E-1
-8.56326E+0	-5.00128E-1
-8.05829E+0	-5.00047E-1
-7.43741E+0	-4.99955E-1
-7.04001E+0	-4.99871E-1
-6.52886E+0	-4.99789E-1
-5.99729E+0	-4.99700E-1
-5.52038E+0	-4.99648E-1
-5.02176E+0	-4.99530E-1
-4.51073E+0	-4.99440E-1
-4.02982E+0	-4.99353E-1
-3.50692E+0	-4.99257E-1
-3.02246E+0	-4.99154E-1
-2.48327E+0	-4.99049E-1
-2.01182E+0	-4.98923E-1
-1.52652E+0	-4.98783E-1
-1.05722E+0	-4.98613E-1
-7.75330E-1	-4.98195E-1
-5.07295E-1	-4.98283E-1
-2.40103E-1	-4.98020E-1
-6.31119E-2	-4.97796E-1
-4.13131E-3	-4.97701E-1
+6.57499E-2	-4.97596E-1
+1.06590E-1	-4.97470E-1
+1.52331E-1	-4.97391E-1
+2.12907E-1	-4.97285E-1
+2.56681E-1	-4.97120E-1
+3.05291E-1	-4.96926E-1
+3.24718E-1	-4.96762E-1
+3.31857E-1	-4.96613E-1
+3.50251E-1	-4.96623E-1
+3.79337E-1	-4.96470E-1
+3.79529E-1	-4.95935E-1
+3.82513E-1	-4.95668E-1
+3.91225E-1	-4.95737E-1
+3.92738E-1	-4.95709E-1
+3.93117E-1	-4.95382E-1
+4.00408E-1	-4.95176E-1
+4.01910E-1	-4.94561E-1
+4.05264E-1	-4.94007E-1
+4.07902E-1	-4.93746E-1
+4.09750E-1	-4.94565E-1
+4.10380E-1	-4.93404E-1
+4.10840E-1	-4.94012E-1
+4.12481E-1	-4.93032E-1
+4.12783E-1	-4.92678E-1
+4.13789E-1	-4.93006E-1
+4.15473E-1	-4.93654E-1
+4.15623E-1	-4.93753E-1
+4.17930E-1	-4.92830E-1
+4.19520E-1	-4.92015E-1
+4.20397E-1	-4.92944E-1
+4.24246E-1	-4.91490E-1
+4.25812E-1	-4.90576E-1
+4.26926E-1	-4.91162E-1
+4.28871E-1	-4.90529E-1
+4.31309E-1	-4.89007E-1
+4.32123E-1	-4.89539E-1
+4.32359E-1	-4.88708E-1
+4.33237E-1	-4.88338E-1
+4.33265E-1	-4.88912E-1
+4.33997E-1	-4.88972E-1
+4.34356E-1	-4.88607E-1
+4.34420E-1	-4.90290E-1
