+6.79057E-2	-6.54739E-1
+1.07581E-1	-6.54715E-1
+1.37166E-1	-6.54699E-1
+1.64491E-1	-6.54684E-1
+1.82442E-1	-6.54667E-1
+1.97478E-1	-6.54654E-1
+2.13683E-1	-6.54627E-1
+2.35404E-1	-6.54624E-1
+2.51242E-1	-6.54604E-1
+2.65442E-1	-6.54584E-1
+2.70642E-1	-6.54573E-1
+2.82636E-1	-6.54528E-1
+3.00910E-1	-6.54492E-1
+3.12477E-1	-6.54365E-1
+3.33724E-1	-6.54135E-1
+3.49484E-1	-6.54086E-1
+3.55712E-1	-6.53902E-1
+3.67718E-1	-6.53580E-1
+3.82826E-1	-6.52858E-1
+3.91644E-1	-6.51099E-1
+4.15769E-1	-6.44422E-1
+4.35035E-1	-6.34041E-1
+4.52307E-1	-6.18481E-1
+4.63452E-1	-6.08843E-1
+4.76244E-1	-5.93205E-1
+4.83368E-1	-5.72810E-1
+4.91601E-1	-5.49517E-1
+4.96314E-1	-5.33577E-1
+4.99710E-1	-5.22002E-1
+5.02334E-1	-5.15691E-1
+5.05304E-1	-4.98987E-1
+5.07362E-1	-4.83847E-1
+5.09444E-1	-4.63362E-1
+5.12577E-1	-4.39737E-1
+5.15195E-1	-4.30407E-1
+5.17086E-1	-4.05189E-1
+5.20170E-1	-3.78685E-1
+5.21995E-1	-3.69579E-1
+5.23294E-1	-3.53440E-1
+5.24853E-1	-3.41160E-1
+5.25817E-1	-3.30245E-1
+5.26435E-1	-3.20003E-1
+5.27092E-1	-3.14644E-1
+5.27944E-1	-3.06063E-1
+5.28420E-1	-2.99539E-1
+5.28889E-1	-2.94932E-1
+5.29641E-1	-2.82656E-1
+5.30310E-1	-2.74703E-1
+5.31035E-1	-2.60448E-1
+5.31789E-1	-2.52381E-1
+5.32279E-1	-2.40447E-1
+5.33154E-1	-2.36223E-1
+5.33796E-1	-2.27679E-1
+5.34119E-1	-2.18207E-1
+5.34639E-1	-2.10887E-1
+5.34963E-1	-2.02059E-1
+5.35553E-1	-1.97488E-1
+5.35972E-1	-1.92591E-1
+5.36176E-1	-1.85032E-1
+5.36577E-1	-1.82139E-1
+5.36917E-1	-1.74676E-1
+5.37206E-1	-1.71806E-1
+5.37432E-1	-1.68410E-1
+5.37652E-1	-1.63028E-1
+5.37917E-1	-1.58371E-1
+5.38183E-1	-1.53107E-1
+5.38446E-1	-1.48322E-1
+5.38692E-1	-1.45664E-1
+5.38903E-1	-1.42030E-1
+5.39085E-1	-1.37771E-1
+5.39276E-1	-1.35181E-1
+5.39379E-1	-1.32119E-1
+5.39525E-1	-1.30338E-1
+5.39673E-1	-1.27301E-1
+5.39774E-1	-1.25151E-1
+5.39911E-1	-1.23159E-1
+5.40006E-1	-1.22208E-1
+5.40106E-1	-1.19477E-1
+5.40243E-1	-1.18375E-1
