28191004,0.25
28161004,0
28201012,1.875
28181009,0
28191022,0.75
28201117,1
28181012,0
28191011,2.375
28191118,0
28191155,0
28201018,1.375
28191119,0
70087063,0.625
28201105,2.375
28201022,1.375
28191018,0.375
28201024,0
28201025,2.375
28201026,1.875
28181117,0
28031333,0
28201032,1.625
28201035,0
28171037,0
28201106,0
28191036,1.375
28191037,1
28201037,0.5
28201039,2.625
28191046,1
28201041,0
28201045,0.625
28201046,2.625
28191041,0
28201047,1.875
28201135,0
28201050,2
28191045,0
28201053,2.125
28201136,1.625
28201055,1.5
28181063,0
28201056,0
28201057,2
28161048,0
28191031,1
28191055,0
28201059,1
28201060,1.75
28191057,0
28191040,0
28201062,3.25
28201063,0.875
28191043,0
28201068,0
28201070,0.75
28201110,1.625
70087065,0.625
28191069,0.75
28201141,1.5
28201074,0
28171139,0
28191082,0.375
70087067,0.75
70087068,0.375
28191084,1.25
28191095,0.625
28191086,0
28191030,1.25
28201079,0.375
28201082,1.375
28201083,1.25
28201084,1.375
28181091,0
28201086,3.875
28201087,2.125
28201088,1.5
28201090,0
28191107,0
28201091,1.875
28161085,0
28201092,0.875
28191091,0
28201100,0.5
28201101,1.375
28192005,0
