+3.67415E-1	+1.26489E-6
+4.43810E-1	+2.05145E-6
+5.22640E-1	+5.40625E-6
+5.70420E-1	+1.02650E-5
+6.22151E-1	+1.90562E-5
+6.61846E-1	+2.99231E-5
+7.08107E-1	+4.80111E-5
+7.21246E-1	+5.51195E-5
+7.42343E-1	+6.49460E-5
+7.58849E-1	+7.31581E-5
+7.83611E-1	+8.24140E-5
+8.09353E-1	+9.09346E-5
+8.26174E-1	+9.39252E-5
+8.41101E-1	+9.08337E-5
