+0.00000E+0	+0.00000E+0	-7.26910E-3	-3.63455E-7
+1.47000E-2	+1.40930E-2	+8.33681E-2	+7.00581E-4
+2.95000E-2	+2.82790E-2	+1.29907E-1	+2.28168E-3
+4.42000E-2	+4.23635E-2	+1.74005E-1	+4.58525E-3
+5.90000E-2	+5.65354E-2	+2.20850E-1	+7.56933E-3
+7.37000E-2	+7.06002E-2	+2.37940E-1	+1.09773E-2
+8.85000E-2	+8.47465E-2	+2.54648E-1	+1.46634E-2
+1.03200E-1	+9.87804E-2	+2.67999E-1	+1.84921E-2
+1.18000E-1	+1.12890E-1	+2.66550E-1	+2.23971E-2
+1.32700E-1	+1.26882E-1	+2.56861E-1	+2.62778E-2
+1.47500E-1	+1.40943E-1	+2.58539E-1	+3.01422E-2
+1.62200E-1	+1.54881E-1	+2.57623E-1	+3.39333E-2
+1.76900E-1	+1.68789E-1	+2.45111E-1	+3.76405E-2
+1.91700E-1	+1.82757E-1	+2.42670E-1	+4.12701E-2
+2.06400E-1	+1.96595E-1	+2.37253E-1	+4.47586E-2
+2.21200E-1	+2.10487E-1	+2.21384E-1	+4.81083E-2
+2.35900E-1	+2.24243E-1	+2.09253E-1	+5.12968E-2
+2.50700E-1	+2.38048E-1	+2.07880E-1	+5.43812E-2
+2.65400E-1	+2.51712E-1	+1.93537E-1	+5.73088E-2
+2.80200E-1	+2.65419E-1	+1.83389E-1	+6.00914E-2
+2.94900E-1	+2.78980E-1	+1.70191E-1	+6.27033E-2
+3.09700E-1	+2.92577E-1	+1.65155E-1	+6.51860E-2
+3.24400E-1	+3.06025E-1	+1.58594E-1	+6.75111E-2
+3.39100E-1	+3.19411E-1	+1.44327E-1	+6.97117E-2
+3.53900E-1	+3.32825E-1	+1.33570E-1	+7.17822E-2
+3.68600E-1	+3.46081E-1	+1.22278E-1	+7.36999E-2
+3.83400E-1	+3.59358E-1	+1.17777E-1	+7.54913E-2
+3.98100E-1	+3.72474E-1	+1.10605E-1	+7.71465E-2
+4.12900E-1	+3.85605E-1	+9.98476E-2	+7.86885E-2
+4.27600E-1	+3.98569E-1	+9.17604E-2	+8.01099E-2
+4.42400E-1	+4.11542E-1	+8.59621E-2	+8.14331E-2
+4.57100E-1	+4.24346E-1	+7.97060E-2	+8.26500E-2
+4.71900E-1	+4.37151E-1	+7.49758E-2	+8.37831E-2
+4.86600E-1	+4.49783E-1	+6.49050E-2	+8.48228E-2
+5.01400E-1	+4.62410E-1	+6.26925E-2	+8.57863E-2
+5.16100E-1	+4.74860E-1	+5.75808E-2	+8.66683E-2
+5.30800E-1	+4.87215E-1	+5.36135E-2	+8.74845E-2
+5.45600E-1	+4.99557E-1	+4.93410E-2	+8.82361E-2
+5.60300E-1	+5.11716E-1	+4.61367E-2	+8.89285E-2
+5.75100E-1	+5.23855E-1	+4.21694E-2	+8.95711E-2
+5.89800E-1	+5.35807E-1	+3.88887E-2	+9.01626E-2
+6.04600E-1	+5.47734E-1	+3.53029E-2	+9.07166E-2
+6.19300E-1	+5.59470E-1	+3.39296E-2	+9.12275E-2
+6.34100E-1	+5.71174E-1	+2.98098E-2	+9.17084E-2
+6.48800E-1	+5.82685E-1	+3.14882E-2	+9.21564E-2
+6.63600E-1	+5.94158E-1	+2.79787E-2	+9.25753E-2
+6.78300E-1	+6.05435E-1	+2.42403E-2	+9.29662E-2
+6.93000E-1	+6.16591E-1	+2.37825E-2	+9.33343E-2
+7.07800E-1	+6.27700E-1	+2.52321E-2	+9.36839E-2
+7.22500E-1	+6.38608E-1	+2.11123E-2	+9.40156E-2
+7.37300E-1	+6.49463E-1	+2.10360E-2	+9.43305E-2
+7.52000E-1	+6.60114E-1	+2.09597E-2	+9.46295E-2
+7.66800E-1	+6.70706E-1	+2.08071E-2	+9.49128E-2
+7.81500E-1	+6.81093E-1	+1.56954E-2	+9.51832E-2
+7.96300E-1	+6.91413E-1	+1.72976E-2	+9.54431E-2
+8.11000E-1	+7.01526E-1	+1.62294E-2	+9.56885E-2
+8.25800E-1	+7.11567E-1	+1.40169E-2	+9.59261E-2
+8.40500E-1	+7.21398E-1	+1.50087E-2	+9.61523E-2
+8.55200E-1	+7.31086E-1	+1.50087E-2	+9.63677E-2
+8.70000E-1	+7.40694E-1	+1.44747E-2	+9.65795E-2
+8.84700E-1	+7.50088E-1	+1.43984E-2	+9.67793E-2
+8.99500E-1	+7.59396E-1	+1.37117E-2	+9.69750E-2
+9.14200E-1	+7.68490E-1	+1.29488E-2	+9.71598E-2
+9.29000E-1	+7.77492E-1	+1.25673E-2	+9.73409E-2
+9.43700E-1	+7.86278E-1	+1.24147E-2	+9.75117E-2
+9.58500E-1	+7.94965E-1	+1.13466E-2	+9.76766E-2
+9.73200E-1	+8.03436E-1	+9.51557E-3	+9.78297E-2
+9.88000E-1	+8.11803E-1	+9.66816E-3	+9.79834E-2
+1.00270E+0	+8.19952E-1	+1.01259E-2	+9.81284E-2
+1.01740E+0	+8.27938E-1	+1.03548E-2	+9.82654E-2
+1.03220E+0	+8.35812E-1	+7.68452E-3	+9.84020E-2
+1.04690E+0	+8.43466E-1	+7.07417E-3	+9.85304E-2
+1.06170E+0	+8.51003E-1	+7.91340E-3	+9.86545E-2
+1.07640E+0	+8.58320E-1	+9.13410E-3	+9.87709E-2
+1.09120E+0	+8.65514E-1	+5.39570E-3	+9.88868E-2
+1.10590E+0	+8.72487E-1	+7.60822E-3	+9.89961E-2
+1.12070E+0	+8.79332E-1	+5.62458E-3	+9.91016E-2
+1.13540E+0	+8.85956E-1	+7.91340E-3	+9.92004E-2
+1.15020E+0	+8.92447E-1	+7.76081E-3	+9.92966E-2
+1.16490E+0	+8.98717E-1	+5.70087E-3	+9.93871E-2
+1.17960E+0	+9.04807E-1	+5.09052E-3	+9.94751E-2
+1.19440E+0	+9.10758E-1	+4.25129E-3	+9.95585E-2
+1.20910E+0	+9.16487E-1	+7.07417E-3	+9.96399E-2
+1.22390E+0	+9.22072E-1	+5.85346E-3	+9.97148E-2
+1.23860E+0	+9.27434E-1	+2.19135E-3	+9.97880E-2
+1.25340E+0	+9.32647E-1	+5.24311E-3	+9.98576E-2
+1.26810E+0	+9.37639E-1	+8.14228E-3	+9.99234E-2
+1.28290E+0	+9.42477E-1	+3.48835E-3	+9.99878E-2
+1.29760E+0	+9.47094E-1	+1.88618E-3	+1.00046E-1
+1.31240E+0	+9.51553E-1	+5.77717E-3	+1.00104E-1
+1.32710E+0	+9.55792E-1	+5.31940E-3	+1.00156E-1
+1.34180E+0	+9.59841E-1	+6.15864E-3	+1.00206E-1
+1.35660E+0	+9.63725E-1	+3.56464E-3	+1.00255E-1
+1.37130E+0	+9.67391E-1	+5.39570E-3	+1.00299E-1
+1.38610E+0	+9.70887E-1	-5.55229E-4	+1.00340E-1
+1.40080E+0	+9.74166E-1	+8.60004E-3	+1.00381E-1
+1.41560E+0	+9.77273E-1	+4.48017E-3	+1.00424E-1
+1.43030E+0	+9.80163E-1	+7.37934E-3	+1.00453E-1
+1.44510E+0	+9.82877E-1	+3.60298E-4	+1.00481E-1
+1.45980E+0	+9.85376E-1	+2.80170E-3	+1.00510E-1
+1.47460E+0	+9.87694E-1	+3.79353E-3	+1.00533E-1
+1.48930E+0	+9.89800E-1	+1.96247E-3	+1.00558E-1
+1.50410E+0	+9.91722E-1	+1.35212E-3	+1.00581E-1
+1.51880E+0	+9.93433E-1	+8.18062E-4	+1.00597E-1
+1.53350E+0	+9.94947E-1	+3.79353E-3	+1.00613E-1
+1.54830E+0	+9.96271E-1	-2.50054E-4	+1.00628E-1
+1.56300E+0	+9.97388E-1	+6.65474E-4	+1.00638E-1
+1.57780E+0	+9.98313E-1	-9.74656E-5	+1.00643E-1
+1.59250E+0	+9.99032E-1	+6.65474E-4	+1.00650E-1
+1.60730E+0	+9.99556E-1	-5.55229E-4	+1.00655E-1
+1.62200E+0	+9.99876E-1	-3.07293E-3	+1.00661E-1
+1.63680E+0	+9.99999E-1	-1.73760E-4	+1.00660E-1
+1.65150E+0	+9.99921E-1	-2.11717E-5	+1.00657E-1
+1.66630E+0	+9.99642E-1	-1.39446E-3	+1.00649E-1
+1.68100E+0	+9.99166E-1	-5.55229E-4	+1.00645E-1
+1.69570E+0	+9.98491E-1	-2.30999E-3	+1.00635E-1
+1.71050E+0	+9.97612E-1	-4.02641E-4	+1.00626E-1
+1.72520E+0	+9.96539E-1	+1.42841E-3	+1.00615E-1
+1.74000E+0	+9.95260E-1	-2.50054E-4	+1.00604E-1
+1.75470E+0	+9.93790E-1	-5.55229E-4	+1.00591E-1
+1.76950E+0	+9.92111E-1	-5.74322E-3	+1.00575E-1
+1.78420E+0	+9.90246E-1	+1.27583E-3	+1.00560E-1
+1.79900E+0	+9.88170E-1	-3.45440E-3	+1.00541E-1
+1.81370E+0	+9.85910E-1	-4.82769E-3	+1.00521E-1
+1.82850E+0	+9.83437E-1	+8.94356E-4	+1.00502E-1
+1.84320E+0	+9.80785E-1	-2.38628E-3	+1.00483E-1
+1.85790E+0	+9.77938E-1	+1.19953E-3	+1.00461E-1
+1.87270E+0	+9.74876E-1	+3.56464E-3	+1.00436E-1
+1.88740E+0	+9.71640E-1	+2.19135E-3	+1.00414E-1
+1.90220E+0	+9.68187E-1	-7.49798E-3	+1.00382E-1
+1.91690E+0	+9.64565E-1	-1.47076E-3	+1.00359E-1
+1.93170E+0	+9.60724E-1	-1.77593E-3	+1.00328E-1
+1.94640E+0	+9.56717E-1	-3.75957E-3	+1.00295E-1
+1.96120E+0	+9.52492E-1	+3.60298E-4	+1.00265E-1
+1.97590E+0	+9.48105E-1	-2.84405E-3	+1.00230E-1
+1.99070E+0	+9.43498E-1	-2.61517E-3	+1.00193E-1
+2.00540E+0	+9.38734E-1	-8.60405E-4	+1.00158E-1
+2.02010E+0	+9.33784E-1	-4.06475E-3	+1.00119E-1
+2.03490E+0	+9.28613E-1	-1.77593E-3	+1.00080E-1
+2.04960E+0	+9.23291E-1	-4.52251E-3	+1.00037E-1
+2.06440E+0	+9.17749E-1	-2.99664E-3	+9.99930E-2
+2.07910E+0	+9.12060E-1	-1.73760E-4	+9.99451E-2
+2.09390E+0	+9.06150E-1	-4.67510E-3	+9.98977E-2
+2.10860E+0	+9.00099E-1	-4.75140E-3	+9.98478E-2
+2.12340E+0	+8.93827E-1	-4.06475E-3	+9.97958E-2
+2.13810E+0	+8.87419E-1	-1.85223E-3	+9.97435E-2
+2.15290E+0	+8.80789E-1	-1.69964E-3	+9.96912E-2
+2.16760E+0	+8.74028E-1	-5.89581E-3	+9.96315E-2
+2.18230E+0	+8.67094E-1	-1.31817E-3	+9.95728E-2
+2.19710E+0	+8.59939E-1	-5.05657E-3	+9.95094E-2
+2.21180E+0	+8.52660E-1	-5.51434E-3	+9.94445E-2
+2.22660E+0	+8.45161E-1	-4.67510E-3	+9.93766E-2
+2.24130E+0	+8.37544E-1	-6.81133E-3	+9.93087E-2
+2.25610E+0	+8.29708E-1	-4.21734E-3	+9.92380E-2
+2.27080E+0	+8.21759E-1	-4.36993E-3	+9.91612E-2
+2.28560E+0	+8.13591E-1	-3.75957E-3	+9.90842E-2
+2.30030E+0	+8.05316E-1	-4.14104E-3	+9.90055E-2
+2.31510E+0	+7.96823E-1	-4.52251E-3	+9.89191E-2
+2.32980E+0	+7.88228E-1	-6.35357E-3	+9.88348E-2
+2.34460E+0	+7.79418E-1	-6.81133E-3	+9.87452E-2
+2.35930E+0	+7.70511E-1	-6.88763E-3	+9.86544E-2
+2.37400E+0	+7.61451E-1	-9.10015E-3	+9.85588E-2
+2.38880E+0	+7.52177E-1	-7.49798E-3	+9.84587E-2
+2.40350E+0	+7.42815E-1	-9.10015E-3	+9.83545E-2
+2.41830E+0	+7.33241E-1	-8.79498E-3	+9.82508E-2
+2.43300E+0	+7.23586E-1	-5.59063E-3	+9.81371E-2
+2.44780E+0	+7.13719E-1	-7.65057E-3	+9.80231E-2
+2.46250E+0	+7.03777E-1	-6.50616E-3	+9.79055E-2
+2.47730E+0	+6.93626E-1	-9.48162E-3	+9.77823E-2
+2.49200E+0	+6.83406E-1	-9.40533E-3	+9.76567E-2
+2.50680E+0	+6.72978E-1	-7.87945E-3	+9.75243E-2
+2.52150E+0	+6.62488E-1	-9.10015E-3	+9.73849E-2
+2.53620E+0	+6.51865E-1	-9.10015E-3	+9.72432E-2
+2.55100E+0	+6.41040E-1	-1.16179E-2	+9.70960E-2
+2.56570E+0	+6.30159E-1	-9.25274E-3	+9.69437E-2
+2.58050E+0	+6.19079E-1	-1.16179E-2	+9.67817E-2
+2.59520E+0	+6.07950E-1	-1.30674E-2	+9.66172E-2
+2.61000E+0	+5.96623E-1	-1.22282E-2	+9.64469E-2
+2.62470E+0	+5.85254E-1	-1.23045E-2	+9.62720E-2
+2.63950E+0	+5.73690E-1	-1.45933E-2	+9.60822E-2
+2.65420E+0	+5.62090E-1	-1.40593E-2	+9.58902E-2
+2.66900E+0	+5.50298E-1	-1.42118E-2	+9.56870E-2
+2.68370E+0	+5.38476E-1	-1.29148E-2	+9.54783E-2
+2.69840E+0	+5.26547E-1	-1.39067E-2	+9.52585E-2
+2.71320E+0	+5.14432E-1	-1.29148E-2	+9.50300E-2
+2.72790E+0	+5.02295E-1	-1.31437E-2	+9.47937E-2
+2.74270E+0	+4.89976E-1	-1.48985E-2	+9.45495E-2
+2.75740E+0	+4.77642E-1	-1.62718E-2	+9.42929E-2
+2.77220E+0	+4.65128E-1	-1.70347E-2	+9.40252E-2
+2.78690E+0	+4.52606E-1	-1.80265E-2	+9.37452E-2
+2.80170E+0	+4.39908E-1	-1.90947E-2	+9.34567E-2
+2.81640E+0	+4.27208E-1	-2.10783E-2	+9.31496E-2
+2.83120E+0	+4.14336E-1	-2.36723E-2	+9.28310E-2
+2.84590E+0	+4.01469E-1	-2.48930E-2	+9.24959E-2
+2.86060E+0	+3.88522E-1	-2.75633E-2	+9.21499E-2
+2.87540E+0	+3.75408E-1	-2.65715E-2	+9.17747E-2
+2.89010E+0	+3.62309E-1	-2.57322E-2	+9.13867E-2
+2.90490E+0	+3.49048E-1	-2.61900E-2	+9.09817E-2
+2.91960E+0	+3.35806E-1	-3.03862E-2	+9.05566E-2
+2.93440E+0	+3.22408E-1	-3.09965E-2	+9.01013E-2
+2.94910E+0	+3.09035E-1	-3.54979E-2	+8.96257E-2
+2.96390E+0	+2.95510E-1	-3.41246E-2	+8.91273E-2
+2.97860E+0	+2.82017E-1	-3.55742E-2	+8.86020E-2
+2.99340E+0	+2.68376E-1	-4.05333E-2	+8.80453E-2
+3.00810E+0	+2.54773E-1	-4.42717E-2	+8.74489E-2
+3.02280E+0	+2.41120E-1	-4.77812E-2	+8.68173E-2
+3.03760E+0	+2.27325E-1	-4.40428E-2	+8.61412E-2
+3.05230E+0	+2.13579E-1	-4.83152E-2	+8.54365E-2
+3.06710E+0	+1.99696E-1	-5.63261E-2	+8.46735E-2
+3.08180E+0	+1.85867E-1	-6.22007E-2	+8.38530E-2
+3.09660E+0	+1.71906E-1	-5.79283E-2	+8.29727E-2
+3.11130E+0	+1.58006E-1	-6.57103E-2	+8.20247E-2
+3.12610E+0	+1.43980E-1	-8.17320E-2	+8.09855E-2
+3.14080E+0	+1.30019E-1	-8.23423E-2	+7.98350E-2
+3.15560E+0	+1.15938E-1	-8.64622E-2	+7.85839E-2
+3.17030E+0	+1.01928E-1	-9.71434E-2	+7.72276E-2
+3.18500E+0	+8.78986E-2	-1.09503E-1	+7.57248E-2
+3.19980E+0	+7.37558E-2	-1.13241E-1	+7.40642E-2
+3.21450E+0	+5.96939E-2	-1.30484E-1	+7.22421E-2
+3.22930E+0	+4.55243E-2	-1.50931E-1	+7.02342E-2
+3.24400E+0	+3.14414E-2	-1.52456E-1	+6.80316E-2
+3.25880E+0	+1.72564E-2	-1.67792E-1	+6.56385E-2
+3.27350E+0	+3.16383E-3	-1.84881E-1	+6.30510E-2
+3.28830E+0	-1.10253E-2	-1.97088E-1	+6.02198E-2
+3.30300E+0	-2.51163E-2	-2.11279E-1	+5.71744E-2
+3.31780E+0	-3.92981E-2	-2.38821E-1	+5.38551E-2
+3.33250E+0	-5.33763E-2	-2.49808E-1	+5.03230E-2
+3.34730E+0	-6.75396E-2	-2.59268E-1	+4.65237E-2
+3.36200E+0	-8.15937E-2	-2.82156E-1	+4.25198E-2
+3.37670E+0	-9.56316E-2	-2.90396E-1	+3.83112E-2
+3.39150E+0	-1.09746E-1	-2.98865E-1	+3.39147E-2
+3.40620E+0	-1.23743E-1	-3.13513E-1	+2.94229E-2
+3.42100E+0	-1.37810E-1	-3.16565E-1	+2.47970E-2
+3.43570E+0	-1.51755E-1	-3.11072E-1	+2.01847E-2
+3.45050E+0	-1.65764E-1	-3.16107E-1	+1.55180E-2
+3.46520E+0	-1.79646E-1	-3.15115E-1	+1.08900E-2
+3.48000E+0	-1.93586E-1	-3.06189E-1	+6.26837E-3
+3.49470E+0	-2.07393E-1	-3.04053E-1	+1.73102E-3
+3.50950E+0	-2.21252E-1	-3.06723E-1	-2.78298E-3
+3.52420E+0	-2.34974E-1	-2.99933E-1	-7.19306E-3
+3.53890E+0	-2.48649E-1	-2.86123E-1	-1.14919E-2
+3.55370E+0	-2.62367E-1	-2.81622E-1	-1.57113E-2
+3.56840E+0	-2.75940E-1	-2.73230E-1	-1.97799E-2
+3.58320E+0	-2.89551E-1	-2.63693E-1	-2.37407E-2
+3.59790E+0	-3.03011E-1	-2.51257E-1	-2.75304E-2
+3.61270E+0	-3.16502E-1	-2.39203E-1	-3.12002E-2
+3.62740E+0	-3.29839E-1	-2.32794E-1	-3.47018E-2
+3.64220E+0	-3.43201E-1	-2.25165E-1	-3.80690E-2
+3.65690E+0	-3.56404E-1	-2.14178E-1	-4.12733E-2
+3.67170E+0	-3.69625E-1	-2.02048E-1	-4.43366E-2
+3.68640E+0	-3.82683E-1	-1.87933E-1	-4.72221E-2
+3.70110E+0	-3.95666E-1	-1.78015E-1	-4.99453E-2
+3.71590E+0	-4.08657E-1	-1.70309E-1	-5.25394E-2
+3.73060E+0	-4.21479E-1	-1.61612E-1	-5.49620E-2
+3.74540E+0	-4.34303E-1	-1.48031E-1	-5.72415E-2
+3.76010E+0	-4.46955E-1	-1.40402E-1	-5.93547E-2
+3.77490E+0	-4.59602E-1	-1.28119E-1	-6.13356E-2
+3.78960E+0	-4.72073E-1	-1.17438E-1	-6.31599E-2
+3.80440E+0	-4.84534E-1	-1.09808E-1	-6.48546E-2
+3.81910E+0	-4.96814E-1	-1.03018E-1	-6.64096E-2
+3.83390E+0	-5.09078E-1	-9.37101E-2	-6.78544E-2
+3.84860E+0	-5.21157E-1	-8.53178E-2	-6.91756E-2
+3.86330E+0	-5.33133E-1	-7.99009E-2	-7.03881E-2
+3.87810E+0	-5.45084E-1	-7.41789E-2	-7.15103E-2
+3.89280E+0	-5.56845E-1	-6.60154E-2	-7.25328E-2
+3.90760E+0	-5.68574E-1	-6.00645E-2	-7.34755E-2
+3.92230E+0	-5.80111E-1	-5.76231E-2	-7.43339E-2
+3.93710E+0	-5.91610E-1	-5.32743E-2	-7.51276E-2
+3.95180E+0	-6.02914E-1	-4.68657E-2	-7.58547E-2
+3.96660E+0	-6.14173E-1	-4.22117E-2	-7.65330E-2
+3.98130E+0	-6.25234E-1	-4.03044E-2	-7.71523E-2
+3.99610E+0	-6.36244E-1	-3.92363E-2	-7.77273E-2
+4.01080E+0	-6.47054E-1	-3.80156E-2	-7.82619E-2
+4.02550E+0	-6.57734E-1	-2.94706E-2	-7.87552E-2
+4.04030E+0	-6.68356E-1	-3.10728E-2	-7.92252E-2
+4.05500E+0	-6.78773E-1	-2.64189E-2	-7.96525E-2
+4.06980E+0	-6.89124E-1	-2.80973E-2	-8.00573E-2
+4.08450E+0	-6.99268E-1	-2.35960E-2	-8.04380E-2
+4.09930E+0	-7.09340E-1	-2.44352E-2	-8.07946E-2
+4.11400E+0	-7.19204E-1	-2.24516E-2	-8.11302E-2
+4.12880E+0	-7.28990E-1	-2.14598E-2	-8.14506E-2
+4.14350E+0	-7.38564E-1	-1.93998E-2	-8.17496E-2
+4.15830E+0	-7.48056E-1	-1.71873E-2	-8.20363E-2
+4.17300E+0	-7.57334E-1	-1.58903E-2	-8.23029E-2
+4.18780E+0	-7.66524E-1	-1.58903E-2	-8.25631E-2
+4.20250E+0	-7.75498E-1	-1.52037E-2	-8.28062E-2
+4.21720E+0	-7.84319E-1	-1.48222E-2	-8.30377E-2
+4.23200E+0	-7.93042E-1	-1.45933E-2	-8.32617E-2
+4.24670E+0	-8.01548E-1	-1.48985E-2	-8.34755E-2
+4.26150E+0	-8.09951E-1	-1.11601E-2	-8.36785E-2
+4.27620E+0	-8.18136E-1	-1.30674E-2	-8.38723E-2
+4.29100E+0	-8.26213E-1	-1.26860E-2	-8.40604E-2
+4.30570E+0	-8.34070E-1	-1.04734E-2	-8.42376E-2
+4.32050E+0	-8.41814E-1	-1.25334E-2	-8.44083E-2
+4.33520E+0	-8.49337E-1	-1.12364E-2	-8.45714E-2
+4.35000E+0	-8.56741E-1	-9.86309E-3	-8.47292E-2
+4.36470E+0	-8.63925E-1	-1.13127E-2	-8.48795E-2
+4.37940E+0	-8.70936E-1	-6.04839E-3	-8.50209E-2
+4.39420E+0	-8.77821E-1	-9.32903E-3	-8.51589E-2
+4.40890E+0	-8.84484E-1	-7.42168E-3	-8.52937E-2
+4.42370E+0	-8.91015E-1	-8.79498E-3	-8.54215E-2
+4.43840E+0	-8.97325E-1	-9.93938E-3	-8.55463E-2
+4.45320E+0	-9.03497E-1	-8.48980E-3	-8.56651E-2
+4.46790E+0	-9.09447E-1	-9.10015E-3	-8.57802E-2
+4.48270E+0	-9.15256E-1	-7.95574E-3	-8.58870E-2
+4.49740E+0	-9.20842E-1	-5.66692E-3	-8.59925E-2
+4.51220E+0	-9.26283E-1	-8.48980E-3	-8.60935E-2
+4.52690E+0	-9.31501E-1	-6.12469E-3	-8.61901E-2
+4.54160E+0	-9.36535E-1	-4.98028E-3	-8.62843E-2
+4.55640E+0	-9.41415E-1	-7.65057E-3	-8.63740E-2
+4.57110E+0	-9.46074E-1	-6.50616E-3	-8.64579E-2
+4.58590E+0	-9.50575E-1	-7.72686E-3	-8.65383E-2
+4.60060E+0	-9.54857E-1	-3.45440E-3	-8.66178E-2
+4.61540E+0	-9.58976E-1	-7.72686E-3	-8.66913E-2
+4.63010E+0	-9.62876E-1	-6.65874E-3	-8.67627E-2
+4.64490E+0	-9.66609E-1	-7.80315E-3	-8.68314E-2
+4.65960E+0	-9.70124E-1	-8.60405E-4	-8.68933E-2
+4.67440E+0	-9.73469E-1	-8.94756E-3	-8.69593E-2
+4.68910E+0	-9.76597E-1	-2.00481E-3	-8.70175E-2
+4.70380E+0	-9.79531E-1	-4.82769E-3	-8.70758E-2
+4.71860E+0	-9.82289E-1	-5.13287E-3	-8.71218E-2
+4.73330E+0	-9.84832E-1	-4.98028E-3	-8.71767E-2
+4.74810E+0	-9.87195E-1	-1.62334E-3	-8.72228E-2
+4.76280E+0	-9.89345E-1	-6.27728E-3	-8.72648E-2
+4.77760E+0	-9.91311E-1	-3.14922E-3	-8.73054E-2
+4.79230E+0	-9.93066E-1	-7.72686E-3	-8.73437E-2
+4.80710E+0	-9.94634E-1	-6.27728E-3	-8.73838E-2
+4.82180E+0	-9.95993E-1	-1.31817E-3	-8.74117E-2
+4.83660E+0	-9.97162E-1	-3.14922E-3	-8.74456E-2
+4.85130E+0	-9.98124E-1	-6.31523E-4	-8.74728E-2
+4.86600E+0	-9.98888E-1	-1.77593E-3	-8.74937E-2
+4.88080E+0	-9.99456E-1	-7.07817E-4	-8.75174E-2
+4.89550E+0	-9.99822E-1	-1.62334E-3	-8.75331E-2
+4.91030E+0	-9.99989E-1	-7.07817E-4	-8.75540E-2
+4.92500E+0	-9.99956E-1	-5.55229E-4	-8.75686E-2
+4.93980E+0	-9.99722E-1	+5.51223E-5	-8.75768E-2
+4.95450E+0	-9.99290E-1	-7.84111E-4	-8.75881E-2
+4.96930E+0	-9.98655E-1	-1.01299E-3	-8.75948E-2
+4.98400E+0	-9.97825E-1	+1.04694E-3	-8.76043E-2
+4.99880E+0	-9.96790E-1	-2.15740E-3	-8.76104E-2
+5.01350E+0	-9.95562E-1	+1.27583E-3	-8.76118E-2
+5.02820E+0	-9.94137E-1	-5.55229E-4	-8.76149E-2
+5.04300E+0	-9.92503E-1	+1.27583E-3	-8.76158E-2
+5.05770E+0	-9.90682E-1	-1.77593E-3	-8.76162E-2
+5.07250E+0	-9.88650E-1	-1.16558E-3	-8.76143E-2
+5.08720E+0	-9.86434E-1	-2.38628E-3	-8.76090E-2
+5.10200E+0	-9.84006E-1	-8.60405E-4	-8.76084E-2
+5.11670E+0	-9.81398E-1	+4.17500E-3	-8.76006E-2
+5.13150E+0	-9.78575E-1	-4.02641E-4	-8.75951E-2
+5.14620E+0	-9.75576E-1	-4.21734E-3	-8.75842E-2
+5.16100E+0	-9.72361E-1	-5.55229E-4	-8.75769E-2
+5.17570E+0	-9.68974E-1	+6.00605E-3	-8.75609E-2
+5.19050E+0	-9.65369E-1	-2.11717E-5	-8.75510E-2
+5.20520E+0	-9.61597E-1	-1.24187E-3	-8.75353E-2
+5.21990E+0	-9.57633E-1	+1.88618E-3	-8.75195E-2
+5.23470E+0	-9.53451E-1	+1.80988E-3	-8.75006E-2
+5.24940E+0	-9.49106E-1	+1.42841E-3	-8.74807E-2
+5.26420E+0	-9.44542E-1	+2.03876E-3	-8.74602E-2
+5.27890E+0	-9.39820E-1	+3.03059E-3	-8.74379E-2
+5.29370E+0	-9.34878E-1	+1.27583E-3	-8.74136E-2
+5.30840E+0	-9.29782E-1	+1.58100E-3	-8.73862E-2
+5.32320E+0	-9.24465E-1	+2.19135E-3	-8.73586E-2
+5.33790E+0	-9.19000E-1	+8.18062E-4	-8.73282E-2
+5.35270E+0	-9.13314E-1	+3.10688E-3	-8.72966E-2
+5.36740E+0	-9.07484E-1	+2.49653E-3	-8.72645E-2
+5.38210E+0	-9.01473E-1	+2.95429E-3	-8.72273E-2
+5.39690E+0	-8.95241E-1	+2.34394E-3	-8.71895E-2
+5.41160E+0	-8.88873E-1	+4.93793E-3	-8.71489E-2
+5.42640E+0	-8.82283E-1	+2.26765E-3	-8.71052E-2
+5.44110E+0	-8.75561E-1	+9.70650E-4	-8.70630E-2
+5.45590E+0	-8.68618E-1	+4.32758E-3	-8.70166E-2
+5.47060E+0	-8.61549E-1	+3.03059E-3	-8.69694E-2
+5.48540E+0	-8.54259E-1	+4.55647E-3	-8.69163E-2
+5.50010E+0	-8.46848E-1	+4.02241E-3	-8.68649E-2
+5.51490E+0	-8.39217E-1	+2.11506E-3	-8.68089E-2
+5.52960E+0	-8.31470E-1	+5.01423E-3	-8.67503E-2
+5.54430E+0	-8.23557E-1	+3.79353E-3	-8.66893E-2
+5.55910E+0	-8.15426E-1	+6.15864E-3	-8.66249E-2
+5.57380E+0	-8.07187E-1	+5.92976E-3	-8.65596E-2
+5.58860E+0	-7.98730E-1	+5.39570E-3	-8.64893E-2
+5.60330E+0	-7.90171E-1	+2.95429E-3	-8.64142E-2
+5.61810E+0	-7.81396E-1	+4.32758E-3	-8.63369E-2
+5.63280E+0	-7.72524E-1	+5.09052E-3	-8.62606E-2
+5.64760E+0	-7.63436E-1	+6.38752E-3	-8.61805E-2
+5.66230E+0	-7.54258E-1	+6.46381E-3	-8.60955E-2
+5.67710E+0	-7.44866E-1	+5.85346E-3	-8.60080E-2
+5.69180E+0	-7.35389E-1	+6.38752E-3	-8.59164E-2
+5.70650E+0	-7.25766E-1	+5.31940E-3	-8.58206E-2
+5.72130E+0	-7.15932E-1	+6.76899E-3	-8.57226E-2
+5.73600E+0	-7.06021E-1	+6.08234E-3	-8.56152E-2
+5.75080E+0	-6.95902E-1	+7.98969E-3	-8.55071E-2
+5.76550E+0	-6.85712E-1	+6.46381E-3	-8.53955E-2
+5.78030E+0	-6.75315E-1	+9.05781E-3	-8.52774E-2
+5.79500E+0	-6.64854E-1	+7.45563E-3	-8.51550E-2
+5.80980E+0	-6.54189E-1	+8.90522E-3	-8.50283E-2
+5.82450E+0	-6.43465E-1	+7.60822E-3	-8.48950E-2
+5.83930E+0	-6.32539E-1	+9.28669E-3	-8.47539E-2
+5.85400E+0	-6.21560E-1	+1.05837E-2	-8.46097E-2
+5.86870E+0	-6.10459E-1	+1.11940E-2	-8.44613E-2
+5.88350E+0	-5.99159E-1	+1.24147E-2	-8.43055E-2
+5.89820E+0	-5.87816E-1	+9.51557E-3	-8.41410E-2
+5.91300E+0	-5.76278E-1	+8.98151E-3	-8.39699E-2
+5.92770E+0	-5.64704E-1	+1.27199E-2	-8.37949E-2
+5.94250E+0	-5.52937E-1	+1.35592E-2	-8.36107E-2
+5.95720E+0	-5.41139E-1	+1.22622E-2	-8.34181E-2
+5.97200E+0	-5.29153E-1	+1.24147E-2	-8.32144E-2
+5.98670E+0	-5.17142E-1	+1.38643E-2	-8.30064E-2
+6.00150E+0	-5.04946E-1	+1.53902E-2	-8.27847E-2
+6.01620E+0	-4.92731E-1	+1.39406E-2	-8.25559E-2
+6.03100E+0	-4.80335E-1	+1.59243E-2	-8.23153E-2
+6.04570E+0	-4.67926E-1	+1.63057E-2	-8.20690E-2
+6.06040E+0	-4.55425E-1	+1.88234E-2	-8.18085E-2
+6.07520E+0	-4.42747E-1	+1.95864E-2	-8.15336E-2
+6.08990E+0	-4.30067E-1	+2.00441E-2	-8.12458E-2
+6.10470E+0	-4.17214E-1	+1.98915E-2	-8.09442E-2
+6.11940E+0	-4.04365E-1	+1.94338E-2	-8.06303E-2
+6.13420E+0	-3.91347E-1	+2.37062E-2	-8.02937E-2
+6.14890E+0	-3.78339E-1	+2.67580E-2	-7.99494E-2
+6.16370E+0	-3.65167E-1	+2.96572E-2	-7.95800E-2
+6.17840E+0	-3.52011E-1	+2.65291E-2	-7.91989E-2
+6.19320E+0	-3.38695E-1	+2.43166E-2	-7.87907E-2
+6.20790E+0	-3.25401E-1	+2.60714E-2	-7.83738E-2
+6.22260E+0	-3.12043E-1	+3.24038E-2	-7.79271E-2
+6.23740E+0	-2.98531E-1	+3.53029E-2	-7.74454E-2
+6.25210E+0	-2.85051E-1	+3.49215E-2	-7.69442E-2
+6.26690E+0	-2.71422E-1	+3.65236E-2	-7.64146E-2
+6.28160E+0	-2.57831E-1	+3.71340E-2	-7.58558E-2
+6.29640E+0	-2.44096E-1	+4.77388E-2	-7.52525E-2
+6.31110E+0	-2.30405E-1	+4.88832E-2	-7.46086E-2
+6.32590E+0	-2.16575E-1	+4.52974E-2	-7.39176E-2
+6.34060E+0	-2.02795E-1	+4.50686E-2	-7.31990E-2
+6.35540E+0	-1.88880E-1	+5.74282E-2	-7.24149E-2
+6.37010E+0	-1.75022E-1	+5.94118E-2	-7.15818E-2
+6.38480E+0	-1.61129E-1	+6.15480E-2	-7.06779E-2
+6.39960E+0	-1.47110E-1	+6.93300E-2	-6.96896E-2
+6.41430E+0	-1.33156E-1	+8.23000E-2	-6.86126E-2
+6.42910E+0	-1.19080E-1	+8.53518E-2	-6.74064E-2
+6.44380E+0	-1.05075E-1	+8.71828E-2	-6.61127E-2
+6.45860E+0	-9.09542E-2	+9.90847E-2	-6.46739E-2
+6.47330E+0	-7.69106E-2	+1.13733E-1	-6.31158E-2
+6.48810E+0	-6.27561E-2	+1.19531E-1	-6.13770E-2
+6.50280E+0	-4.86846E-2	+1.40436E-1	-5.94610E-2
+6.51760E+0	-3.45077E-2	+1.54321E-1	-5.73437E-2
+6.53230E+0	-2.04197E-2	+1.61569E-1	-5.50388E-2
+6.54700E+0	-6.32763E-3	+1.76294E-1	-5.25347E-2
+6.56180E+0	+7.86157E-3	+1.94071E-1	-4.97785E-2
+6.57650E+0	+2.19533E-2	+2.07956E-1	-4.68371E-2
+6.59130E+0	+3.61366E-2	+2.24664E-1	-4.36260E-2
+6.60600E+0	+5.02167E-2	+2.50452E-1	-4.01657E-2
+6.62080E+0	+6.43826E-2	+2.61820E-1	-3.64329E-2
+6.63550E+0	+7.84400E-2	+2.72882E-1	-3.24686E-2
+6.65030E+0	+9.25772E-2	+2.96686E-1	-2.82244E-2
+6.66500E+0	+1.06600E-1	+3.07215E-1	-2.37910E-2
+6.67980E+0	+1.20698E-1	+3.12555E-1	-1.91825E-2
+6.69450E+0	+1.34676E-1	+3.25754E-1	-1.44784E-2
+6.70920E+0	+1.48627E-1	+3.31476E-1	-9.68523E-3
+6.72400E+0	+1.62643E-1	+3.24533E-1	-4.83946E-3
+6.73870E+0	+1.76532E-1	+3.28806E-1	-8.28649E-6
+6.75350E+0	+1.90481E-1	+3.31934E-1	+4.85241E-3
+6.76820E+0	+2.04297E-1	+3.22931E-1	+9.64524E-3
+6.78300E+0	+2.18166E-1	+3.16675E-1	+1.44024E-2
+6.79770E+0	+2.31898E-1	+3.16217E-1	+1.90649E-2
+6.81250E+0	+2.45676E-1	+3.11258E-1	+2.36766E-2
+6.82720E+0	+2.59313E-1	+2.97678E-1	+2.81389E-2
+6.84200E+0	+2.72990E-1	+2.87683E-1	+3.25054E-2
+6.85670E+0	+2.86521E-1	+2.83563E-1	+3.67188E-2
+6.87140E+0	+2.99995E-1	+2.72959E-1	+4.07922E-2
+6.88620E+0	+3.13500E-1	+2.61209E-1	+4.47340E-2
+6.90090E+0	+3.26851E-1	+2.48545E-1	+4.84985E-2
+6.91570E+0	+3.40228E-1	+2.38703E-1	+5.21288E-2
+6.93040E+0	+3.53446E-1	+2.31531E-1	+5.55813E-2
+6.94520E+0	+3.66684E-1	+2.21689E-1	+5.88940E-2
+6.95990E+0	+3.79759E-1	+2.08032E-1	+6.20224E-2
+6.97470E+0	+3.92846E-1	+1.94757E-1	+6.50070E-2
+6.98940E+0	+4.05767E-1	+1.81406E-1	+6.77907E-2
+7.00420E+0	+4.18695E-1	+1.70267E-1	+7.04233E-2
+7.01890E+0	+4.31451E-1	+1.57984E-1	+7.28670E-2
+7.03370E+0	+4.44208E-1	+1.48142E-1	+7.51662E-2
+7.04840E+0	+4.56790E-1	+1.39978E-1	+7.72824E-2
+7.06310E+0	+4.69282E-1	+1.30213E-1	+7.92454E-2
+7.07790E+0	+4.81764E-1	+1.19531E-1	+8.10672E-2
+7.09260E+0	+4.94066E-1	+1.08393E-1	+8.27320E-2
+7.10740E+0	+5.06352E-1	+9.87032E-2	+8.42628E-2
+7.12210E+0	+5.18454E-1	+8.99294E-2	+8.56573E-2
+7.13690E+0	+5.30535E-1	+8.47414E-2	+8.69389E-2
+7.15160E+0	+5.42429E-1	+7.69594E-2	+8.81016E-2
+7.16640E+0	+5.54294E-1	+6.74990E-2	+8.91666E-2
+7.18110E+0	+5.65969E-1	+6.29213E-2	+9.01332E-2
+7.19590E+0	+5.77610E-1	+5.59786E-2	+9.10223E-2
+7.21060E+0	+5.89057E-1	+5.10958E-2	+9.18315E-2
+7.22530E+0	+6.00386E-1	+4.73574E-2	+9.25662E-2
+7.24010E+0	+6.11673E-1	+4.43819E-2	+9.32478E-2
+7.25480E+0	+6.22761E-1	+4.21694E-2	+9.38649E-2
+7.26960E+0	+6.33800E-1	+3.88124E-2	+9.44398E-2
+7.28430E+0	+6.44638E-1	+3.33193E-2	+9.49707E-2
+7.29910E+0	+6.55420E-1	+3.39296E-2	+9.54649E-2
+7.31380E+0	+6.65999E-1	+2.85891E-2	+9.59215E-2
+7.32860E+0	+6.76516E-1	+2.88179E-2	+9.63468E-2
+7.34330E+0	+6.86828E-1	+2.43166E-2	+9.67447E-2
+7.35810E+0	+6.97071E-1	+2.40114E-2	+9.71142E-2
+7.37280E+0	+7.07107E-1	+2.55373E-2	+9.74586E-2
+7.38750E+0	+7.17002E-1	+2.03493E-2	+9.77853E-2
+7.40230E+0	+7.26820E-1	+1.79079E-2	+9.80936E-2
+7.41700E+0	+7.36428E-1	+1.90523E-2	+9.83829E-2
+7.43180E+0	+7.45952E-1	+1.85183E-2	+9.86596E-2
+7.44650E+0	+7.55264E-1	+1.85946E-2	+9.89154E-2
+7.46130E+0	+7.64488E-1	+1.78316E-2	+9.91631E-2
+7.47600E+0	+7.73497E-1	+1.63820E-2	+9.93943E-2
+7.49080E+0	+7.82412E-1	+1.47036E-2	+9.96212E-2
+7.50550E+0	+7.91111E-1	+1.34829E-2	+9.98226E-2
+7.52030E+0	+7.99710E-1	+1.32540E-2	+1.00024E-1
+7.53500E+0	+8.08092E-1	+1.36354E-2	+1.00212E-1
+7.54970E+0	+8.16313E-1	+1.33303E-2	+1.00390E-1
+7.56450E+0	+8.24427E-1	+9.59187E-3	+1.00563E-1
+7.57920E+0	+8.32321E-1	+1.19570E-2	+1.00727E-1
+7.59400E+0	+8.40102E-1	+1.08889E-2	+1.00880E-1
+7.60870E+0	+8.47663E-1	+9.82075E-3	+1.01030E-1
+7.62350E+0	+8.55105E-1	+1.10415E-2	+1.01175E-1
+7.63820E+0	+8.62327E-1	+9.66816E-3	+1.01310E-1
+7.65300E+0	+8.69425E-1	+7.37934E-3	+1.01442E-1
+7.66770E+0	+8.76301E-1	+5.62458E-3	+1.01563E-1
+7.68250E+0	+8.83049E-1	+9.59187E-3	+1.01685E-1
+7.69720E+0	+8.89574E-1	+6.76899E-3	+1.01797E-1
+7.71190E+0	+8.95924E-1	+5.92976E-3	+1.01905E-1
+7.72670E+0	+9.02136E-1	+3.56464E-3	+1.02008E-1
+7.74140E+0	+9.08127E-1	+5.70087E-3	+1.02106E-1
+7.75620E+0	+9.13976E-1	+5.39570E-3	+1.02202E-1
+7.77090E+0	+9.19604E-1	+6.76899E-3	+1.02293E-1
+7.78570E+0	+9.25086E-1	+5.54829E-3	+1.02376E-1
+7.80040E+0	+9.30346E-1	+4.63276E-3	+1.02462E-1
+7.81520E+0	+9.35455E-1	+7.45563E-3	+1.02537E-1
+7.82990E+0	+9.40343E-1	+4.32758E-3	+1.02612E-1
+7.84470E+0	+9.45076E-1	+6.31123E-3	+1.02681E-1
+7.85940E+0	+9.49588E-1	+4.17500E-3	+1.02747E-1
+7.87420E+0	+9.53941E-1	+3.25947E-3	+1.02815E-1
+7.88890E+0	+9.58074E-1	+3.25947E-3	+1.02873E-1
+7.90360E+0	+9.62017E-1	+6.38752E-3	+1.02929E-1
+7.91840E+0	+9.65793E-1	+5.92976E-3	+1.02983E-1
+7.93310E+0	+9.69352E-1	-3.26347E-4	+1.03031E-1
+7.94790E+0	+9.72740E-1	+8.14228E-3	+1.03084E-1
+7.96260E+0	+9.75912E-1	+6.65474E-4	+1.03130E-1
+7.97740E+0	+9.78909E-1	-1.31817E-3	+1.03172E-1
+7.99210E+0	+9.81691E-1	+7.22675E-3	+1.03207E-1
+8.00690E+0	+9.84295E-1	-3.26347E-4	+1.03241E-1
+8.02160E+0	+9.86685E-1	+9.70650E-4	+1.03270E-1
+8.03640E+0	+9.88893E-1	-1.73760E-4	+1.03301E-1
+8.05110E+0	+9.90890E-1	+3.79353E-3	+1.03331E-1
+8.06580E+0	+9.92689E-1	+1.73359E-3	+1.03349E-1
+8.08060E+0	+9.94302E-1	+9.70650E-4	+1.03373E-1
+8.09530E+0	+9.95706E-1	+2.34394E-3	+1.03392E-1
+8.11010E+0	+9.96919E-1	+2.34394E-3	+1.03410E-1
+8.12480E+0	+9.97925E-1	-1.73760E-4	+1.03420E-1
+8.13960E+0	+9.98738E-1	+5.12886E-4	+1.03430E-1
+8.15430E+0	+9.99347E-1	-8.60405E-4	+1.03438E-1
+8.16910E+0	+9.99759E-1	+2.84004E-4	+1.03441E-1
+8.18380E+0	+9.99969E-1	-9.74656E-5	+1.03449E-1
+8.19860E+0	+9.99980E-1	-4.02641E-4	+1.03449E-1
+8.21330E+0	+9.99791E-1	+9.70650E-4	+1.03442E-1
+8.22800E+0	+9.99404E-1	+5.89180E-4	+1.03441E-1
+8.24280E+0	+9.98814E-1	+6.65474E-4	+1.03434E-1
+8.25750E+0	+9.98029E-1	-2.15740E-3	+1.03426E-1
+8.27230E+0	+9.97038E-1	+3.60298E-4	+1.03421E-1
+8.28700E+0	+9.95855E-1	-1.62334E-3	+1.03408E-1
+8.30180E+0	+9.94464E-1	-7.07817E-4	+1.03398E-1
+8.31650E+0	+9.92885E-1	-4.52251E-3	+1.03384E-1
+8.33130E+0	+9.91095E-1	+1.12324E-3	+1.03368E-1
+8.34600E+0	+9.89120E-1	-7.84111E-4	+1.03355E-1
+8.36080E+0	+9.86933E-1	-1.54705E-3	+1.03336E-1
+8.37550E+0	+9.84564E-1	-4.02641E-4	+1.03319E-1
+8.39020E+0	+9.82000E-1	-1.54705E-3	+1.03297E-1
+8.40500E+0	+9.79221E-1	-3.45440E-3	+1.03278E-1
+8.41970E+0	+9.76266E-1	-9.74656E-5	+1.03257E-1
+8.43450E+0	+9.73095E-1	-1.62334E-3	+1.03232E-1
+8.44920E+0	+9.69751E-1	-8.71868E-3	+1.03201E-1
+8.46400E+0	+9.66190E-1	+8.18062E-4	+1.03177E-1
+8.47870E+0	+9.62460E-1	+1.58100E-3	+1.03146E-1
+8.49350E+0	+9.58512E-1	-1.08929E-3	+1.03116E-1
+8.50820E+0	+9.54400E-1	-3.83587E-3	+1.03085E-1
+8.52300E+0	+9.50068E-1	-1.01299E-3	+1.03051E-1
+8.53770E+0	+9.45576E-1	-9.74656E-5	+1.03016E-1
+8.55240E+0	+9.40896E-1	-2.50054E-4	+1.02979E-1
+8.56720E+0	+9.35996E-1	-2.61517E-3	+1.02940E-1
+8.58190E+0	+9.30942E-1	-3.30181E-3	+1.02900E-1
+8.59670E+0	+9.25667E-1	-3.53069E-3	+1.02858E-1
+8.61140E+0	+9.20243E-1	-4.14104E-3	+1.02812E-1
+8.62620E+0	+9.14598E-1	-4.75140E-3	+1.02767E-1
+8.64090E+0	+9.08808E-1	-2.53887E-3	+1.02719E-1
+8.65570E+0	+9.02797E-1	-2.76775E-3	+1.02669E-1
+8.67040E+0	+8.96646E-1	-1.24187E-3	+1.02617E-1
+8.68520E+0	+8.90274E-1	-3.30181E-3	+1.02564E-1
+8.69990E+0	+8.83767E-1	-4.06475E-3	+1.02510E-1
+8.71460E+0	+8.77085E-1	-4.98028E-3	+1.02450E-1
+8.72940E+0	+8.70181E-1	-3.60699E-3	+1.02389E-1
+8.74410E+0	+8.63151E-1	-2.84405E-3	+1.02326E-1
+8.75890E+0	+8.55900E-1	-6.20098E-3	+1.02265E-1
+8.77360E+0	+8.48526E-1	-5.28545E-3	+1.02197E-1
+8.78840E+0	+8.40933E-1	-5.13287E-3	+1.02126E-1
+8.80310E+0	+8.33223E-1	-4.21734E-3	+1.02056E-1
+8.81790E+0	+8.25294E-1	-6.58245E-3	+1.01982E-1
+8.83260E+0	+8.17253E-1	-5.81951E-3	+1.01904E-1
+8.84740E+0	+8.08994E-1	-4.67510E-3	+1.01822E-1
+8.86210E+0	+8.00630E-1	-7.04021E-3	+1.01741E-1
+8.87690E+0	+7.92048E-1	-7.34539E-3	+1.01655E-1
+8.89160E+0	+7.83366E-1	-4.98028E-3	+1.01568E-1
+8.90630E+0	+7.74529E-1	-4.29363E-3	+1.01475E-1
+8.92110E+0	+7.65476E-1	-6.20098E-3	+1.01378E-1
+8.93580E+0	+7.56331E-1	-4.82769E-3	+1.01281E-1
+8.95060E+0	+7.46973E-1	-6.12469E-3	+1.01176E-1
+8.96530E+0	+7.37529E-1	-5.28545E-3	+1.01072E-1
+8.98010E+0	+7.27873E-1	-7.65057E-3	+1.00960E-1
+8.99480E+0	+7.18137E-1	-9.63421E-3	+1.00845E-1
+9.00960E+0	+7.08191E-1	-7.57427E-3	+1.00729E-1
+9.02430E+0	+6.98170E-1	-6.04839E-3	+1.00605E-1
+9.03910E+0	+6.87942E-1	-9.32903E-3	+1.00480E-1
+9.05380E+0	+6.77645E-1	-1.13890E-2	+1.00348E-1
+9.06850E+0	+6.67214E-1	-7.11651E-3	+1.00213E-1
+9.08330E+0	+6.56578E-1	-8.79498E-3	+1.00068E-1
+9.09800E+0	+6.45883E-1	-9.55791E-3	+9.99238E-2
+9.11280E+0	+6.34986E-1	-1.21519E-2	+9.97732E-2
+9.12750E+0	+6.24036E-1	-9.32903E-3	+9.96135E-2
+9.14230E+0	+6.12886E-1	-1.07786E-2	+9.94480E-2
+9.15700E+0	+6.01689E-1	-1.24571E-2	+9.92786E-2
+9.17180E+0	+5.90295E-1	-1.19230E-2	+9.91042E-2
+9.18650E+0	+5.78861E-1	-1.17704E-2	+9.89200E-2
+9.20130E+0	+5.67233E-1	-1.41356E-2	+9.87267E-2
+9.21600E+0	+5.55570E-1	-1.38304E-2	+9.85289E-2
+9.23070E+0	+5.43797E-1	-1.44407E-2	+9.83235E-2
+9.24550E+0	+5.31835E-1	-1.55088E-2	+9.81078E-2
+9.26020E+0	+5.19847E-1	-1.45170E-2	+9.78835E-2
+9.27500E+0	+5.07674E-1	-1.31437E-2	+9.76493E-2
+9.28970E+0	+4.95482E-1	-1.43644E-2	+9.74084E-2
+9.30450E+0	+4.83107E-1	-1.62718E-2	+9.71560E-2
+9.31920E+0	+4.70720E-1	-1.85606E-2	+9.68931E-2
+9.33400E+0	+4.58154E-1	-1.99339E-2	+9.66157E-2
+9.34870E+0	+4.45582E-1	-2.11546E-2	+9.63290E-2
+9.36350E+0	+4.32835E-1	-2.20701E-2	+9.60271E-2
+9.37820E+0	+4.20087E-1	-2.21464E-2	+9.57141E-2
+9.39290E+0	+4.07256E-1	-2.42826E-2	+9.53866E-2
+9.40770E+0	+3.94256E-1	-2.28331E-2	+9.50444E-2
+9.42240E+0	+3.81266E-1	-2.62663E-2	+9.46839E-2
+9.43720E+0	+3.68110E-1	-2.32908E-2	+9.43034E-2
+9.45190E+0	+3.54970E-1	-2.49693E-2	+9.39058E-2
+9.46670E+0	+3.41670E-1	-2.94706E-2	+9.34909E-2
+9.48140E+0	+3.28391E-1	-3.25987E-2	+9.30465E-2
+9.49620E+0	+3.14956E-1	-3.59556E-2	+9.25782E-2
+9.51090E+0	+3.01549E-1	-3.39720E-2	+9.20872E-2
+9.52570E+0	+2.87990E-1	-3.19883E-2	+9.15760E-2
+9.54040E+0	+2.74466E-1	-3.85496E-2	+9.10335E-2
+9.55510E+0	+2.60887E-1	-4.19065E-2	+9.04543E-2
+9.56990E+0	+2.47163E-1	-4.35850E-2	+8.98393E-2
+9.58460E+0	+2.33483E-1	-4.09910E-2	+8.91863E-2
+9.59940E+0	+2.19662E-1	-4.45005E-2	+8.84997E-2
+9.61410E+0	+2.05892E-1	-5.67839E-2	+8.77598E-2
+9.62890E+0	+1.91986E-1	-6.12852E-2	+8.69644E-2
+9.64360E+0	+1.78136E-1	-5.65550E-2	+8.61065E-2
+9.65840E+0	+1.64157E-1	-6.40318E-2	+8.51868E-2
+9.67310E+0	+1.50238E-1	-7.28056E-2	+8.41901E-2
+9.68790E+0	+1.36196E-1	-7.65440E-2	+8.30805E-2
+9.70260E+0	+1.22220E-1	-8.15794E-2	+8.18933E-2
+9.71740E+0	+1.08126E-1	-9.42442E-2	+8.05762E-2
+9.73210E+0	+9.41045E-2	-1.08816E-1	+7.91471E-2
+9.74680E+0	+8.00647E-2	-1.11105E-1	+7.75575E-2
+9.76160E+0	+6.59134E-2	-1.20489E-1	+7.58132E-2
+9.77630E+0	+5.18445E-2	-1.36816E-1	+7.39117E-2
+9.79110E+0	+3.76695E-2	-1.46658E-1	+7.18160E-2
+9.80580E+0	+2.35828E-2	-1.58102E-1	+6.95515E-2
+9.82060E+0	+9.39549E-3	-1.78702E-1	+6.70493E-2
+9.83530E+0	-4.69780E-3	-1.86712E-1	+6.43678E-2
+9.85010E+0	-1.88860E-2	-2.03345E-1	+6.14219E-2
+9.86480E+0	-3.29746E-2	-2.26156E-1	+5.82548E-2
+9.87960E+0	-4.71524E-2	-2.37372E-1	+5.48314E-2
+9.89430E+0	-6.12250E-2	-2.52249E-1	+5.11841E-2
+9.90900E+0	-7.52855E-2	-2.78265E-1	+4.72875E-2
+9.92380E+0	-8.94265E-2	-2.90701E-1	+4.31185E-2
+9.93850E+0	-1.03454E-1	-2.97186E-1	+3.88155E-2
+9.95330E+0	-1.17556E-1	-3.09088E-1	+3.43166E-2
+9.96800E+0	-1.31540E-1	-3.17404E-1	+2.97368E-2
+9.98280E+0	-1.45592E-1	-3.10995E-1	+2.50775E-2
+9.99750E+0	-1.59521E-1	-3.17328E-1	+2.04122E-2
+1.00123E+1	-1.73512E-1	-3.23584E-1	+1.57014E-2
+1.00270E+1	-1.87374E-1	-3.11377E-1	+1.10435E-2
+1.00418E+1	-2.01292E-1	-3.09546E-1	+6.40968E-3
+1.00565E+1	-2.15077E-1	-3.11072E-1	+1.84228E-3
+1.00712E+1	-2.28819E-1	-3.03824E-1	-2.65539E-3
+1.00860E+1	-2.42608E-1	-2.93143E-1	-7.08204E-3
+1.01007E+1	-2.56256E-1	-2.88336E-1	-1.13761E-2
+1.01155E+1	-2.69945E-1	-2.82538E-1	-1.55791E-2
+1.01302E+1	-2.83488E-1	-2.72009E-1	-1.96294E-2
+1.01450E+1	-2.97066E-1	-2.59115E-1	-2.35576E-2
+1.01597E+1	-3.10494E-1	-2.47595E-1	-2.73168E-2
+1.01745E+1	-3.23950E-1	-2.39966E-1	-3.09526E-2
+1.01892E+1	-3.37251E-1	-2.31344E-1	-3.44108E-2
+1.02040E+1	-3.50575E-1	-2.19366E-1	-3.77390E-2
+1.02187E+1	-3.63738E-1	-2.08227E-1	-4.08856E-2
+1.02334E+1	-3.76830E-1	-1.95868E-1	-4.38726E-2
+1.02482E+1	-3.89935E-1	-1.85187E-1	-4.67107E-2
+1.02629E+1	-4.02873E-1	-1.76031E-1	-4.93762E-2
+1.02777E+1	-4.15819E-1	-1.65503E-1	-5.18993E-2
+1.02924E+1	-4.28595E-1	-1.57416E-1	-5.42459E-2
+1.03072E+1	-4.41371E-1	-1.45514E-1	-5.64439E-2
+1.03219E+1	-4.53973E-1	-1.34833E-1	-5.84789E-2
+1.03367E+1	-4.66570E-1	-1.23083E-1	-6.03748E-2
+1.03514E+1	-4.78989E-1	-1.13318E-1	-6.21124E-2
+1.03662E+1	-4.91396E-1	-1.05841E-1	-6.37226E-2
+1.03809E+1	-5.03621E-1	-9.74485E-2	-6.51965E-2
+1.03956E+1	-5.15746E-1	-8.88273E-2	-6.65493E-2
+1.04104E+1	-5.27851E-1	-8.09690E-2	-6.77971E-2
+1.04251E+1	-5.39768E-1	-7.52470E-2	-6.89296E-2
+1.04399E+1	-5.51658E-1	-6.86094E-2	-6.99754E-2
+1.04546E+1	-5.63358E-1	-6.46421E-2	-7.09248E-2
+1.04694E+1	-5.75024E-1	-5.65550E-2	-7.17989E-2
+1.04841E+1	-5.86497E-1	-5.31218E-2	-7.25926E-2
+1.04989E+1	-5.97930E-1	-4.81627E-2	-7.33334E-2
+1.05136E+1	-6.09167E-1	-4.32798E-2	-7.40085E-2
+1.05284E+1	-6.20358E-1	-3.96940E-2	-7.46410E-2
+1.05431E+1	-6.31350E-1	-3.90837E-2	-7.52159E-2
+1.05578E+1	-6.42216E-1	-3.43534E-2	-7.57509E-2
+1.05726E+1	-6.53028E-1	-3.31327E-2	-7.62538E-2
+1.05873E+1	-6.63636E-1	-2.92418E-2	-7.67150E-2
+1.06021E+1	-6.74183E-1	-2.80210E-2	-7.71519E-2
+1.06168E+1	-6.84525E-1	-2.60374E-2	-7.75509E-2
+1.06316E+1	-6.94799E-1	-2.51219E-2	-7.79346E-2
+1.06463E+1	-7.04866E-1	-2.45115E-2	-7.82958E-2
+1.06611E+1	-7.14860E-1	-2.14598E-2	-7.86341E-2
+1.06758E+1	-7.24644E-1	-1.97050E-2	-7.89505E-2
+1.06906E+1	-7.34349E-1	-2.13072E-2	-7.92533E-2
+1.07053E+1	-7.43842E-1	-2.00865E-2	-7.95377E-2
+1.07201E+1	-7.53250E-1	-1.87132E-2	-7.98098E-2
+1.07348E+1	-7.62444E-1	-1.73399E-2	-8.00661E-2
+1.07495E+1	-7.71488E-1	-1.54325E-2	-8.03107E-2
+1.07643E+1	-7.80438E-1	-1.65770E-2	-8.05417E-2
+1.07790E+1	-7.89172E-1	-1.64244E-2	-8.07662E-2
+1.07938E+1	-7.97806E-1	-1.27623E-2	-8.09788E-2
+1.08085E+1	-8.06224E-1	-1.29911E-2	-8.11806E-2
+1.08233E+1	-8.14537E-1	-1.07786E-2	-8.13802E-2
+1.08380E+1	-8.22632E-1	-1.32963E-2	-8.15639E-2
+1.08528E+1	-8.30616E-1	-1.06260E-2	-8.17400E-2
+1.08675E+1	-8.38382E-1	-1.16941E-2	-8.19161E-2
+1.08823E+1	-8.46031E-1	-1.07786E-2	-8.20808E-2
+1.08970E+1	-8.53461E-1	-1.09312E-2	-8.22342E-2
+1.09117E+1	-8.60721E-1	-1.05497E-2	-8.23853E-2
+1.09265E+1	-8.67857E-1	-9.40533E-3	-8.25304E-2
+1.09412E+1	-8.74773E-1	-9.10015E-3	-8.26679E-2
+1.09560E+1	-8.81559E-1	-7.65057E-3	-8.28012E-2
+1.09707E+1	-8.88125E-1	-1.07023E-2	-8.29304E-2
+1.09855E+1	-8.94557E-1	-7.80315E-3	-8.30546E-2
+1.10002E+1	-9.00767E-1	-5.13287E-3	-8.31720E-2
+1.10150E+1	-9.06838E-1	-7.34539E-3	-8.32867E-2
+1.10297E+1	-9.12688E-1	-7.87945E-3	-8.33954E-2
+1.10445E+1	-9.18395E-1	-6.96392E-3	-8.34997E-2
+1.10592E+1	-9.23880E-1	-5.74322E-3	-8.35984E-2
+1.10739E+1	-9.29181E-1	-7.65057E-3	-8.36948E-2
+1.10887E+1	-9.34332E-1	-4.52251E-3	-8.37879E-2
+1.11034E+1	-9.39262E-1	-6.81133E-3	-8.38757E-2
+1.11182E+1	-9.44037E-1	-5.28545E-3	-8.39621E-2
+1.11329E+1	-9.48592E-1	-5.89581E-3	-8.40456E-2
+1.11477E+1	-9.52987E-1	-8.10833E-3	-8.41228E-2
+1.11624E+1	-9.57163E-1	-1.16558E-3	-8.41972E-2
+1.11772E+1	-9.61175E-1	-6.27728E-3	-8.42699E-2
+1.11919E+1	-9.64968E-1	-7.04021E-3	-8.43362E-2
+1.12067E+1	-9.68594E-1	-4.02641E-4	-8.44018E-2
+1.12214E+1	-9.72002E-1	-6.96392E-3	-8.44668E-2
+1.12361E+1	-9.75217E-1	+1.12324E-3	-8.45229E-2
+1.12509E+1	-9.78258E-1	+1.58100E-3	-8.45783E-2
+1.12656E+1	-9.81083E-1	-3.07293E-3	-8.46342E-2
+1.12804E+1	-9.83731E-1	-2.99664E-3	-8.46790E-2
+1.12951E+1	-9.86165E-1	-4.52251E-3	-8.47285E-2
+1.13099E+1	-9.88418E-1	-3.45440E-3	-8.47704E-2
+1.13246E+1	-9.90459E-1	-8.60405E-4	-8.48143E-2
+1.13394E+1	-9.92314E-1	-3.75957E-3	-8.48534E-2
+1.13541E+1	-9.93960E-1	-2.38628E-3	-8.48926E-2
+1.13689E+1	-9.95417E-1	-2.99664E-3	-8.49250E-2
+1.13836E+1	-9.96666E-1	-2.69146E-3	-8.49522E-2
+1.13983E+1	-9.97717E-1	+1.42841E-3	-8.49835E-2
+1.14131E+1	-9.98574E-1	-1.69964E-3	-8.50055E-2
+1.14278E+1	-9.99228E-1	-3.75957E-3	-8.50275E-2
+1.14426E+1	-9.99685E-1	-3.26347E-4	-8.50454E-2
+1.14573E+1	-9.99939E-1	-2.50054E-4	-8.50656E-2
+1.14721E+1	-9.99995E-1	-1.77593E-3	-8.50803E-2
+1.14868E+1	-9.99851E-1	+5.51223E-5	-8.50934E-2
+1.15016E+1	-9.99506E-1	-1.16558E-3	-8.51022E-2
+1.15163E+1	-9.98963E-1	-2.23370E-3	-8.51088E-2
+1.15311E+1	-9.98217E-1	+1.31416E-4	-8.51169E-2
+1.15458E+1	-9.97276E-1	+6.65474E-4	-8.51233E-2
+1.15606E+1	-9.96129E-1	+6.65474E-4	-8.51272E-2
+1.15753E+1	-9.94792E-1	+8.18062E-4	-8.51289E-2
+1.15900E+1	-9.93256E-1	+1.27583E-3	-8.51305E-2
+1.16048E+1	-9.91511E-1	-7.84111E-4	-8.51307E-2
+1.16195E+1	-9.89581E-1	-1.47076E-3	-8.51269E-2
+1.16343E+1	-9.87438E-1	+1.73359E-3	-8.51234E-2
+1.16490E+1	-9.85113E-1	+3.33576E-3	-8.51196E-2
+1.16638E+1	-9.82575E-1	-2.92034E-3	-8.51151E-2
+1.16785E+1	-9.79858E-1	+3.18317E-3	-8.51071E-2
+1.16933E+1	-9.76926E-1	+8.18062E-4	-8.51010E-2
+1.17080E+1	-9.73819E-1	+4.09870E-3	-8.50904E-2
+1.17228E+1	-9.70495E-1	+5.39570E-3	-8.50754E-2
+1.17375E+1	-9.67001E-1	-2.99664E-3	-8.50668E-2
+1.17522E+1	-9.63314E-1	-8.60405E-4	-8.50497E-2
+1.17670E+1	-9.59409E-1	-1.16558E-3	-8.50365E-2
+1.17817E+1	-9.55340E-1	+1.42841E-3	-8.50194E-2
+1.17965E+1	-9.51051E-1	+2.07710E-4	-8.49976E-2
+1.18112E+1	-9.46601E-1	+2.34394E-3	-8.49777E-2
+1.18260E+1	-9.41931E-1	+6.65474E-4	-8.49555E-2
+1.18407E+1	-9.37105E-1	-2.50054E-4	-8.49314E-2
+1.18555E+1	-9.32058E-1	+2.03876E-3	-8.49052E-2
+1.18702E+1	-9.26859E-1	+2.19135E-3	-8.48763E-2
+1.18850E+1	-9.21440E-1	+2.57282E-3	-8.48482E-2
+1.18997E+1	-9.15873E-1	-5.55229E-4	-8.48174E-2
+1.19144E+1	-9.10124E-1	+4.63276E-3	-8.47828E-2
+1.19292E+1	-9.04153E-1	+4.32758E-3	-8.47480E-2
+1.19439E+1	-8.98043E-1	+4.70905E-3	-8.47120E-2
+1.19587E+1	-8.91711E-1	+4.55647E-3	-8.46726E-2
+1.19734E+1	-8.85243E-1	+2.03876E-3	-8.46310E-2
+1.19882E+1	-8.78555E-1	+1.58100E-3	-8.45872E-2
+1.20029E+1	-8.71736E-1	+4.32758E-3	-8.45433E-2
+1.20177E+1	-8.64696E-1	+2.95429E-3	-8.44959E-2
+1.20324E+1	-8.57531E-1	+1.42841E-3	-8.44471E-2
+1.20472E+1	-8.50146E-1	+3.41206E-3	-8.43940E-2
+1.20619E+1	-8.42641E-1	+3.64094E-3	-8.43411E-2
+1.20766E+1	-8.34968E-1	+4.32758E-3	-8.42832E-2
+1.20914E+1	-8.27076E-1	+3.48835E-3	-8.42205E-2
+1.21061E+1	-8.19073E-1	+3.25947E-3	-8.41604E-2
+1.21209E+1	-8.10850E-1	+4.63276E-3	-8.40953E-2
+1.21356E+1	-8.02522E-1	+3.86982E-3	-8.40259E-2
+1.21504E+1	-7.93975E-1	+5.85346E-3	-8.39549E-2
+1.21651E+1	-7.85329E-1	+3.71723E-3	-8.38799E-2
+1.21799E+1	-7.76466E-1	+6.00605E-3	-8.38021E-2
+1.21946E+1	-7.67508E-1	+5.39570E-3	-8.37234E-2
+1.22094E+1	-7.58335E-1	+8.06599E-3	-8.36417E-2
+1.22241E+1	-7.49073E-1	+6.15864E-3	-8.35542E-2
+1.22388E+1	-7.39662E-1	+6.00605E-3	-8.34644E-2
+1.22536E+1	-7.30039E-1	+6.61640E-3	-8.33676E-2
+1.22683E+1	-7.20335E-1	+5.47199E-3	-8.32710E-2
+1.22831E+1	-7.10421E-1	+5.24311E-3	-8.31701E-2
+1.22978E+1	-7.00432E-1	+7.98969E-3	-8.30622E-2
+1.23126E+1	-6.90235E-1	+9.36298E-3	-8.29500E-2
+1.23273E+1	-6.79969E-1	+6.38752E-3	-8.28342E-2
+1.23421E+1	-6.69496E-1	+6.69270E-3	-8.27138E-2
+1.23568E+1	-6.58961E-1	+1.07363E-2	-8.25884E-2
+1.23716E+1	-6.48222E-1	+1.04311E-2	-8.24599E-2
+1.23863E+1	-6.37427E-1	+7.15046E-3	-8.23218E-2
+1.24010E+1	-6.26505E-1	+1.05837E-2	-8.21803E-2
+1.24158E+1	-6.15383E-1	+9.97334E-3	-8.20320E-2
+1.24305E+1	-6.04213E-1	+1.31777E-2	-8.18792E-2
+1.24453E+1	-5.92846E-1	+1.26436E-2	-8.17182E-2
+1.24600E+1	-5.81438E-1	+1.05837E-2	-8.15516E-2
+1.24748E+1	-5.69836E-1	+1.10415E-2	-8.13790E-2
+1.24895E+1	-5.58198E-1	+1.11940E-2	-8.11973E-2
+1.25043E+1	-5.46369E-1	+1.22622E-2	-8.10091E-2
+1.25190E+1	-5.34512E-1	+1.33303E-2	-8.08084E-2
+1.25338E+1	-5.22466E-1	+1.38643E-2	-8.06030E-2
+1.25485E+1	-5.10397E-1	+1.34829E-2	-8.03879E-2
+1.25633E+1	-4.98145E-1	+1.66109E-2	-8.01634E-2
+1.25780E+1	-4.85875E-1	+1.47036E-2	-7.99268E-2
+1.25927E+1	-4.73509E-1	+1.56191E-2	-7.96864E-2
+1.26075E+1	-4.60964E-1	+1.54665E-2	-7.94286E-2
+1.26222E+1	-4.48412E-1	+1.66872E-2	-7.91613E-2
+1.26370E+1	-4.35684E-1	+1.71450E-2	-7.88775E-2
+1.26517E+1	-4.22956E-1	+1.82131E-2	-7.85867E-2
+1.26665E+1	-4.10056E-1	+2.10360E-2	-7.82746E-2
+1.26812E+1	-3.97162E-1	+2.60714E-2	-7.79486E-2
+1.26960E+1	-3.84100E-1	+2.47744E-2	-7.76035E-2
+1.27107E+1	-3.71050E-1	+2.38588E-2	-7.72524E-2
+1.27255E+1	-3.57837E-1	+2.63002E-2	-7.68771E-2
+1.27402E+1	-3.44641E-1	+2.59951E-2	-7.64853E-2
+1.27549E+1	-3.31378E-1	+2.73684E-2	-7.60737E-2
+1.27697E+1	-3.17957E-1	+3.25563E-2	-7.56342E-2
+1.27844E+1	-3.04564E-1	+3.60659E-2	-7.51678E-2
+1.27992E+1	-2.91019E-1	+3.29378E-2	-7.46679E-2
+1.28139E+1	-2.77507E-1	+3.17934E-2	-7.41595E-2
+1.28287E+1	-2.63847E-1	+3.66762E-2	-7.36146E-2
+1.28434E+1	-2.50227E-1	+4.48397E-2	-7.30349E-2
+1.28582E+1	-2.36465E-1	+4.34664E-2	-7.24055E-2
+1.28729E+1	-2.22748E-1	+4.56789E-2	-7.17471E-2
+1.28877E+1	-2.08893E-1	+4.62893E-2	-7.10396E-2
+1.29024E+1	-1.95090E-1	+6.01748E-2	-7.02766E-2
+1.29171E+1	-1.81249E-1	+6.07851E-2	-6.94676E-2
+1.29319E+1	-1.67277E-1	+5.59023E-2	-6.85861E-2
+1.29466E+1	-1.53366E-1	+6.11666E-2	-6.76576E-2
+1.29614E+1	-1.39329E-1	+7.55861E-2	-6.66075E-2
+1.29761E+1	-1.25360E-1	+8.35207E-2	-6.54778E-2
+1.29909E+1	-1.11270E-1	+8.45125E-2	-6.42216E-2
+1.30056E+1	-9.72538E-2	+1.00611E-1	-6.28448E-2
+1.30204E+1	-8.31224E-2	+1.11749E-1	-6.13356E-2
+1.30351E+1	-6.90700E-2	+1.13962E-1	-5.96759E-2
+1.30499E+1	-5.49081E-2	+1.28229E-1	-5.78473E-2
+1.30646E+1	-4.08309E-2	+1.42420E-1	-5.58297E-2
+1.30793E+1	-2.67456E-2	+1.56763E-1	-5.36267E-2
+1.30941E+1	-1.25591E-2	+1.68131E-1	-5.11978E-2
+1.31088E+1	+1.53398E-3	+1.93231E-1	-4.85319E-2
+1.31236E+1	+1.57227E-2	+1.99182E-1	-4.56827E-2
+1.31383E+1	+2.98123E-2	+2.14060E-1	-4.26052E-2
+1.31531E+1	+4.39919E-2	+2.37100E-1	-3.92503E-2
+1.31678E+1	+5.80668E-2	+2.53656E-1	-3.56520E-2
+1.31826E+1	+7.22259E-2	+2.68228E-1	-3.17806E-2
+1.31973E+1	+8.62749E-2	+2.91956E-1	-2.76632E-2
+1.32121E+1	+1.00402E-1	+3.04773E-1	-2.32726E-2
+1.32268E+1	+1.14414E-1	+3.07596E-1	-1.87601E-2
+1.32415E+1	+1.28403E-1	+3.20719E-1	-1.41050E-2
+1.32563E+1	+1.42461E-1	+3.27432E-1	-9.31523E-3
+1.32710E+1	+1.56397E-1	+3.24457E-1	-4.49845E-3
+1.32858E+1	+1.70395E-1	+3.28958E-1	+3.61485E-4
+1.33005E+1	+1.84265E-1	+3.32392E-1	+5.20566E-3
+1.33153E+1	+1.98192E-1	+3.25220E-1	+1.00629E-2
+1.33300E+1	+2.11986E-1	+3.16370E-1	+1.48144E-2
+1.33448E+1	+2.25831E-1	+3.20871E-1	+1.95422E-2
+1.33595E+1	+2.39538E-1	+3.13623E-1	+2.41597E-2
+1.33743E+1	+2.53289E-1	+3.01340E-1	+2.87056E-2
+1.33890E+1	+2.66898E-1	+2.92642E-1	+3.30982E-2
+1.34038E+1	+2.80545E-1	+2.88904E-1	+3.74014E-2
+1.34185E+1	+2.94044E-1	+2.80588E-1	+4.15437E-2
+1.34332E+1	+3.07485E-1	+2.65100E-1	+4.55277E-2
+1.34480E+1	+3.20955E-1	+2.50147E-1	+4.93848E-2
+1.34627E+1	+3.34271E-1	+2.43128E-1	+5.30579E-2
+1.34775E+1	+3.47610E-1	+2.36719E-1	+5.66046E-2
+1.34922E+1	+3.60789E-1	+2.24207E-1	+5.99631E-2
+1.35070E+1	+3.73986E-1	+2.09177E-1	+6.31823E-2
+1.35217E+1	+3.87019E-1	+2.00098E-1	+6.62124E-2
+1.35365E+1	+4.00064E-1	+1.86670E-1	+6.90930E-2
+1.35512E+1	+4.12940E-1	+1.75684E-1	+7.17776E-2
+1.35660E+1	+4.25821E-1	+1.64087E-1	+7.43109E-2
+1.35807E+1	+4.38530E-1	+1.54398E-1	+7.66605E-2
+1.35954E+1	+4.51152E-1	+1.44937E-1	+7.88454E-2
+1.36102E+1	+4.63770E-1	+1.33951E-1	+8.08840E-2
+1.36249E+1	+4.76209E-1	+1.25635E-1	+8.27558E-2
+1.36397E+1	+4.88638E-1	+1.13886E-1	+8.44929E-2
+1.36544E+1	+5.00885E-1	+1.06104E-1	+8.60731E-2
+1.36692E+1	+5.13116E-1	+9.62618E-2	+8.75307E-2
+1.36839E+1	+5.25161E-1	+8.65725E-2	+8.88533E-2
+1.36987E+1	+5.37183E-1	+8.01638E-2	+9.00710E-2
+1.37134E+1	+5.49016E-1	+7.42128E-2	+9.11725E-2
+1.37282E+1	+5.60820E-1	+6.74990E-2	+9.21840E-2
+1.37429E+1	+5.72433E-1	+5.98696E-2	+9.31022E-2
+1.37576E+1	+5.83931E-1	+5.37661E-2	+9.39458E-2
+1.37724E+1	+5.95391E-1	+4.84255E-2	+9.47183E-2
+1.37871E+1	+6.06655E-1	+4.68996E-2	+9.54197E-2
+1.38019E+1	+6.17873E-1	+4.18642E-2	+9.60692E-2
+1.38166E+1	+6.28893E-1	+3.77443E-2	+9.66648E-2
+1.38314E+1	+6.39862E-1	+3.64473E-2	+9.72171E-2
+1.38461E+1	+6.50628E-1	+3.17934E-2	+9.77233E-2
+1.38609E+1	+6.61338E-1	+3.13356E-2	+9.82000E-2
+1.38756E+1	+6.71843E-1	+2.88942E-2	+9.86385E-2
+1.38904E+1	+6.82285E-1	+2.88179E-2	+9.90475E-2
+1.39051E+1	+6.92520E-1	+2.56899E-2	+9.94299E-2
+1.39198E+1	+7.02618E-1	+2.30959E-2	+9.97850E-2
+1.39346E+1	+7.12644E-1	+2.23330E-2	+1.00122E-1
+1.39493E+1	+7.22460E-1	+2.21804E-2	+1.00438E-1
+1.39641E+1	+7.32197E-1	+2.08834E-2	+1.00739E-1
+1.39788E+1	+7.41723E-1	+1.72976E-2	+1.01019E-1
+1.39936E+1	+7.51165E-1	+1.57717E-2	+1.01285E-1
+1.40083E+1	+7.60394E-1	+1.43984E-2	+1.01537E-1
+1.40231E+1	+7.69532E-1	+1.72976E-2	+1.01777E-1
+1.40378E+1	+7.78456E-1	+1.40932E-2	+1.02004E-1
+1.40526E+1	+7.87284E-1	+1.27962E-2	+1.02220E-1
+1.40673E+1	+7.95895E-1	+1.43984E-2	+1.02421E-1
+1.40820E+1	+8.04348E-1	+1.39406E-2	+1.02613E-1
+1.40968E+1	+8.12698E-1	+1.26436E-2	+1.02797E-1
+1.41115E+1	+8.20829E-1	+9.89704E-3	+1.02973E-1
+1.41263E+1	+8.28850E-1	+1.14229E-2	+1.03141E-1
+1.41410E+1	+8.36653E-1	+1.02785E-2	+1.03301E-1
+1.41558E+1	+8.44340E-1	+9.74445E-3	+1.03453E-1
+1.41705E+1	+8.51808E-1	+6.31123E-3	+1.03597E-1
+1.41853E+1	+8.59155E-1	+9.66816E-3	+1.03739E-1
+1.42000E+1	+8.66281E-1	+8.37116E-3	+1.03871E-1
+1.42148E+1	+8.73282E-1	+7.76081E-3	+1.03999E-1
+1.42295E+1	+8.80061E-1	+6.99787E-3	+1.04121E-1
+1.42442E+1	+8.86666E-1	+8.90522E-3	+1.04235E-1
+1.42590E+1	+8.93138E-1	+6.00605E-3	+1.04346E-1
+1.42737E+1	+8.99388E-1	+8.44746E-3	+1.04451E-1
+1.42885E+1	+9.05500E-1	+8.14228E-3	+1.04554E-1
+1.43032E+1	+9.11391E-1	+6.08234E-3	+1.04649E-1
+1.43180E+1	+9.17138E-1	+6.69270E-3	+1.04743E-1
+1.43327E+1	+9.22664E-1	+3.94611E-3	+1.04832E-1
+1.43475E+1	+9.28043E-1	+6.15864E-3	+1.04917E-1
+1.43622E+1	+9.33200E-1	+7.22675E-3	+1.04995E-1
+1.43770E+1	+9.38205E-1	+3.03059E-3	+1.05069E-1
+1.43917E+1	+9.42989E-1	+4.17500E-3	+1.05141E-1
+1.44065E+1	+9.47616E-1	+6.46381E-3	+1.05210E-1
+1.44212E+1	+9.52024E-1	+6.46381E-3	+1.05274E-1
+1.44359E+1	+9.56242E-1	+2.64912E-3	+1.05337E-1
+1.44507E+1	+9.60297E-1	+4.02241E-3	+1.05395E-1
+1.44654E+1	+9.64133E-1	+3.03059E-3	+1.05449E-1
+1.44802E+1	+9.67802E-1	-4.02641E-4	+1.05502E-1
+1.44949E+1	+9.71253E-1	+5.85346E-3	+1.05554E-1
+1.45097E+1	+9.74533E-1	-2.38628E-3	+1.05599E-1
+1.45244E+1	+9.77597E-1	-2.38628E-3	+1.05642E-1
+1.45392E+1	+9.80485E-1	-2.00481E-3	+1.05682E-1
+1.45539E+1	+9.83158E-1	+6.69270E-3	+1.05717E-1
+1.45687E+1	+9.85652E-1	+8.94356E-4	+1.05751E-1
+1.45834E+1	+9.87933E-1	+1.96247E-3	+1.05783E-1
+1.45981E+1	+9.90018E-1	+3.48835E-3	+1.05808E-1
+1.46129E+1	+9.91918E-1	+3.60298E-4	+1.05832E-1
+1.46276E+1	+9.93608E-1	+2.07710E-4	+1.05854E-1
+1.46424E+1	+9.95109E-1	-1.16558E-3	+1.05874E-1
+1.46571E+1	+9.96403E-1	+2.64912E-3	+1.05892E-1
+1.46719E+1	+9.97505E-1	-7.84111E-4	+1.05905E-1
+1.46866E+1	+9.98401E-1	+2.03876E-3	+1.05919E-1
+1.47014E+1	+9.99102E-1	+3.71723E-3	+1.05925E-1
+1.47161E+1	+9.99600E-1	+6.65474E-4	+1.05932E-1
+1.47309E+1	+9.99901E-1	+1.88618E-3	+1.05939E-1
