+0.00000E+0	+0.00000E+0	-7.93736E-3	-3.96868E-7
+1.47000E-2	+1.40930E-2	+1.43125E-1	+9.76735E-4
+2.95000E-2	+2.82790E-2	+1.93021E-1	+4.20263E-3
+4.42000E-2	+4.23635E-2	+2.94110E-1	+7.73651E-3
+5.90000E-2	+5.65354E-2	+2.54132E-1	+1.15123E-2
+7.37000E-2	+7.06002E-2	+2.64432E-1	+1.54482E-2
+8.85000E-2	+8.47465E-2	+2.33609E-1	+1.92614E-2
+1.03200E-1	+9.87804E-2	+2.42154E-1	+2.28937E-2
+1.18000E-1	+1.12890E-1	+2.51920E-1	+2.63663E-2
+1.32700E-1	+1.26882E-1	+2.28726E-1	+2.98040E-2
+1.47500E-1	+1.40943E-1	+2.14536E-1	+3.29884E-2
+1.62200E-1	+1.54881E-1	+1.87146E-1	+3.59745E-2
+1.76900E-1	+1.68789E-1	+1.82874E-1	+3.87947E-2
+1.91700E-1	+1.82757E-1	+1.62656E-1	+4.15046E-2
+2.06400E-1	+1.96595E-1	+1.70896E-1	+4.41141E-2
+2.21200E-1	+2.10487E-1	+1.74329E-1	+4.65158E-2
+2.35900E-1	+2.24243E-1	+1.58994E-1	+4.88056E-2
+2.50700E-1	+2.38048E-1	+1.42743E-1	+5.09429E-2
+2.65400E-1	+2.51712E-1	+1.12378E-1	+5.29605E-2
+2.80200E-1	+2.65419E-1	+1.04901E-1	+5.48497E-2
+2.94900E-1	+2.78980E-1	+1.07953E-1	+5.66625E-2
+3.09700E-1	+2.92577E-1	+1.34351E-1	+5.84613E-2
+3.24400E-1	+3.06025E-1	+1.44269E-1	+6.01463E-2
+3.39100E-1	+3.19411E-1	+1.20694E-1	+6.17558E-2
+3.53900E-1	+3.32825E-1	+8.79641E-2	+6.32119E-2
+3.68600E-1	+3.46081E-1	+7.46890E-2	+6.45728E-2
+3.83400E-1	+3.59358E-1	+7.61386E-2	+6.58519E-2
+3.98100E-1	+3.72474E-1	+7.42312E-2	+6.70876E-2
+4.12900E-1	+3.85605E-1	+7.36209E-2	+6.82509E-2
+4.27600E-1	+3.98569E-1	+7.37735E-2	+6.93518E-2
+4.42400E-1	+4.11542E-1	+8.09451E-2	+7.04141E-2
+4.57100E-1	+4.24346E-1	+7.14083E-2	+7.14105E-2
+4.71900E-1	+4.37151E-1	+7.01114E-2	+7.23779E-2
+4.86600E-1	+4.49783E-1	+6.22531E-2	+7.32860E-2
+5.01400E-1	+4.62410E-1	+4.83676E-2	+7.41440E-2
+5.16100E-1	+4.74860E-1	+5.08090E-2	+7.49597E-2
+5.30800E-1	+4.87215E-1	+3.92886E-2	+7.57247E-2
+5.45600E-1	+4.99557E-1	+4.26455E-2	+7.64405E-2
+5.60300E-1	+5.11716E-1	+4.09671E-2	+7.71068E-2
+5.75100E-1	+5.23855E-1	+2.95993E-2	+7.77557E-2
+5.89800E-1	+5.35807E-1	+2.98281E-2	+7.83789E-2
+6.04600E-1	+5.47734E-1	+2.35720E-2	+7.89616E-2
+6.19300E-1	+5.59470E-1	+2.70053E-2	+7.95124E-2
+6.34100E-1	+5.71174E-1	+2.87600E-2	+8.00468E-2
+6.48800E-1	+5.82685E-1	+3.86020E-2	+8.05492E-2
+6.63600E-1	+5.94158E-1	+4.10434E-2	+8.10201E-2
+6.78300E-1	+6.05435E-1	+4.69180E-2	+8.14584E-2
+6.93000E-1	+6.16591E-1	+4.81387E-2	+8.18661E-2
+7.07800E-1	+6.27700E-1	+3.07437E-2	+8.22667E-2
+7.22500E-1	+6.38608E-1	+1.35775E-2	+8.26770E-2
+7.37300E-1	+6.49463E-1	+1.21280E-2	+8.30717E-2
+7.52000E-1	+6.60114E-1	+2.86074E-2	+8.34445E-2
+7.66800E-1	+6.70706E-1	+3.27273E-2	+8.37744E-2
+7.81500E-1	+6.81093E-1	+2.22750E-2	+8.41139E-2
+7.96300E-1	+6.91413E-1	+1.62478E-2	+8.44439E-2
+8.11000E-1	+7.01526E-1	+2.38772E-2	+8.47381E-2
+8.25800E-1	+7.11567E-1	+1.25094E-2	+8.50243E-2
+8.40500E-1	+7.21398E-1	+1.97573E-2	+8.53158E-2
+8.55200E-1	+7.31086E-1	+1.77737E-2	+8.55723E-2
+8.70000E-1	+7.40694E-1	+1.54086E-2	+8.58240E-2
+8.84700E-1	+7.50088E-1	+2.47927E-2	+8.60717E-2
+8.99500E-1	+7.59396E-1	+1.04495E-2	+8.63150E-2
+9.14200E-1	+7.68490E-1	+1.56375E-2	+8.65270E-2
+9.29000E-1	+7.77492E-1	+1.86129E-2	+8.67472E-2
+9.43700E-1	+7.86278E-1	+1.65530E-2	+8.69533E-2
+9.58500E-1	+7.94965E-1	+7.01626E-3	+8.71511E-2
+9.73200E-1	+8.03436E-1	+8.92361E-3	+8.73284E-2
+9.88000E-1	+8.11803E-1	+1.35775E-2	+8.75120E-2
+1.00270E+0	+8.19952E-1	+1.25857E-2	+8.76819E-2
+1.01740E+0	+8.27938E-1	+5.94814E-3	+8.78439E-2
+1.03220E+0	+8.35812E-1	+1.50271E-2	+8.80072E-2
+1.04690E+0	+8.43466E-1	+6.71108E-3	+8.81582E-2
+1.06170E+0	+8.51003E-1	+1.23568E-2	+8.83030E-2
+1.07640E+0	+8.58320E-1	+7.55032E-3	+8.84397E-2
+1.09120E+0	+8.65514E-1	+1.10598E-2	+8.85761E-2
+1.10590E+0	+8.72487E-1	+6.17702E-3	+8.87061E-2
+1.12070E+0	+8.79332E-1	+4.42226E-3	+8.88308E-2
+1.13540E+0	+8.85956E-1	+1.08310E-2	+8.89426E-2
+1.15020E+0	+8.92447E-1	+5.87185E-3	+8.90568E-2
+1.16490E+0	+8.98717E-1	+1.05258E-2	+8.91613E-2
+1.17960E+0	+9.04807E-1	+5.33779E-3	+8.92654E-2
+1.19440E+0	+9.10758E-1	+5.33779E-3	+8.93581E-2
+1.20910E+0	+9.16487E-1	+5.87185E-3	+8.94557E-2
+1.22390E+0	+9.22072E-1	+4.26968E-3	+8.95382E-2
+1.23860E+0	+9.27434E-1	+5.87185E-3	+8.96233E-2
+1.25340E+0	+9.32647E-1	-9.18312E-4	+8.97050E-2
+1.26810E+0	+9.37639E-1	+1.02969E-2	+8.97745E-2
+1.28290E+0	+9.42477E-1	+5.41409E-3	+8.98534E-2
+1.29760E+0	+9.47094E-1	+7.55032E-3	+8.99185E-2
+1.31240E+0	+9.51553E-1	+8.99990E-3	+8.99844E-2
+1.32710E+0	+9.55792E-1	+8.00808E-3	+9.00378E-2
+1.34180E+0	+9.59841E-1	+2.59121E-3	+9.00984E-2
+1.35660E+0	+9.63725E-1	+5.87185E-3	+9.01576E-2
+1.37130E+0	+9.67391E-1	+3.12527E-3	+9.02007E-2
+1.38610E+0	+9.70887E-1	-6.89431E-4	+9.02481E-2
+1.40080E+0	+9.74166E-1	+8.16067E-3	+9.02890E-2
+1.41560E+0	+9.77273E-1	+8.00808E-3	+9.03349E-2
+1.43030E+0	+9.80163E-1	+5.64297E-3	+9.03629E-2
+1.44510E+0	+9.82877E-1	-7.70847E-3	+9.04063E-2
+1.45980E+0	+9.85376E-1	+9.07619E-3	+9.04297E-2
+1.47460E+0	+9.87694E-1	+7.55032E-3	+9.04579E-2
+1.48930E+0	+9.89800E-1	+2.59121E-3	+9.04745E-2
+1.50410E+0	+9.91722E-1	-1.91013E-3	+9.04948E-2
+1.51880E+0	+9.93433E-1	-6.89431E-4	+9.05072E-2
+1.53350E+0	+9.94947E-1	-2.36790E-3	+9.05225E-2
+1.54830E+0	+9.96271E-1	-5.34336E-3	+9.05425E-2
+1.56300E+0	+9.97388E-1	+6.83860E-4	+9.05402E-2
+1.57780E+0	+9.98313E-1	-1.91013E-3	+9.05375E-2
+1.59250E+0	+9.99032E-1	+7.35089E-5	+9.05469E-2
+1.60730E+0	+9.99556E-1	+2.05715E-3	+9.05444E-2
+1.62200E+0	+9.99876E-1	-3.35972E-3	+9.05502E-2
+1.63680E+0	+9.99999E-1	+1.14162E-3	+9.05371E-2
+1.65150E+0	+9.99921E-1	-1.83384E-3	+9.05271E-2
+1.66630E+0	+9.99642E-1	-5.03819E-3	+9.05143E-2
+1.68100E+0	+9.99166E-1	+2.20974E-3	+9.05002E-2
+1.69570E+0	+9.98491E-1	-2.06272E-3	+9.04881E-2
+1.71050E+0	+9.97612E-1	+4.04079E-3	+9.04694E-2
+1.72520E+0	+9.96539E-1	+1.21792E-3	+9.04510E-2
+1.74000E+0	+9.95260E-1	-2.21531E-3	+9.04401E-2
+1.75470E+0	+9.93790E-1	+6.10073E-3	+9.04133E-2
+1.76950E+0	+9.92111E-1	-1.05313E-2	+9.03954E-2
+1.78420E+0	+9.90246E-1	+7.85549E-3	+9.03792E-2
+1.79900E+0	+9.88170E-1	-2.67307E-3	+9.03482E-2
+1.81370E+0	+9.85910E-1	-6.71665E-3	+9.03246E-2
+1.82850E+0	+9.83437E-1	+6.48220E-3	+9.02971E-2
+1.84320E+0	+9.80785E-1	-2.90195E-3	+9.02867E-2
+1.85790E+0	+9.77938E-1	+9.99172E-3	+9.02320E-2
+1.87270E+0	+9.74876E-1	-1.41172E-2	+9.02109E-2
+1.88740E+0	+9.71640E-1	+5.56667E-3	+9.01850E-2
+1.90220E+0	+9.68187E-1	-5.95371E-3	+9.01503E-2
+1.91690E+0	+9.64565E-1	-1.91013E-3	+9.01154E-2
+1.93170E+0	+9.60724E-1	-5.36843E-4	+9.00753E-2
+1.94640E+0	+9.56717E-1	-4.42783E-3	+9.00330E-2
+1.96120E+0	+9.52492E-1	-3.81748E-3	+8.99924E-2
+1.97590E+0	+9.48105E-1	-2.29160E-3	+8.99472E-2
+1.99070E+0	+9.43498E-1	-3.66489E-3	+8.98993E-2
+2.00540E+0	+9.38734E-1	-3.74119E-3	+8.98500E-2
+2.02010E+0	+9.33784E-1	-9.69212E-3	+8.97985E-2
+2.03490E+0	+9.28613E-1	+1.44680E-3	+8.97452E-2
+2.04960E+0	+9.23291E-1	-6.25889E-3	+8.96930E-2
+2.06440E+0	+9.17749E-1	+3.78685E-4	+8.96287E-2
+2.07910E+0	+9.12060E-1	-3.13084E-3	+8.95671E-2
+2.09390E+0	+9.06150E-1	-5.34336E-3	+8.95045E-2
+2.10860E+0	+9.00099E-1	-5.95371E-3	+8.94358E-2
+2.12340E+0	+8.93827E-1	-2.21531E-3	+8.93669E-2
+2.13810E+0	+8.87419E-1	-7.65724E-4	+8.92943E-2
+2.15290E+0	+8.80789E-1	+5.31273E-4	+8.92256E-2
+2.16760E+0	+8.74028E-1	-6.79295E-3	+8.91457E-2
+2.18230E+0	+8.67094E-1	-4.42783E-3	+8.90616E-2
+2.19710E+0	+8.59939E-1	-4.04636E-3	+8.89748E-2
+2.21180E+0	+8.52660E-1	-6.79295E-3	+8.88804E-2
+2.22660E+0	+8.45161E-1	-4.50413E-3	+8.87875E-2
+2.24130E+0	+8.37544E-1	-4.42783E-3	+8.86896E-2
+2.25610E+0	+8.29708E-1	-1.45237E-3	+8.85898E-2
+2.27080E+0	+8.21759E-1	-7.55589E-3	+8.84788E-2
+2.28560E+0	+8.13591E-1	-4.19895E-3	+8.83717E-2
+2.30030E+0	+8.05316E-1	-4.27525E-3	+8.82560E-2
+2.31510E+0	+7.96823E-1	-8.70029E-3	+8.81320E-2
+2.32980E+0	+7.88228E-1	-1.48801E-2	+8.80141E-2
+2.34460E+0	+7.79418E-1	-1.17521E-2	+8.78861E-2
+2.35930E+0	+7.70511E-1	-2.67307E-3	+8.77488E-2
+2.37400E+0	+7.61451E-1	-5.34336E-3	+8.75987E-2
+2.38880E+0	+7.52177E-1	-9.08176E-3	+8.74525E-2
+2.40350E+0	+7.42815E-1	-9.15806E-3	+8.72927E-2
+2.41830E+0	+7.33241E-1	-9.99729E-3	+8.71394E-2
+2.43300E+0	+7.23586E-1	-1.09891E-2	+8.69609E-2
+2.44780E+0	+7.13719E-1	-1.38120E-2	+8.67823E-2
+2.46250E+0	+7.03777E-1	-4.73301E-3	+8.66030E-2
+2.47730E+0	+6.93626E-1	-1.22098E-2	+8.64006E-2
+2.49200E+0	+6.83406E-1	-1.54905E-2	+8.62137E-2
+2.50680E+0	+6.72978E-1	-1.36594E-2	+8.59967E-2
+2.52150E+0	+6.62488E-1	-1.06076E-2	+8.57752E-2
+2.53620E+0	+6.51865E-1	-1.90000E-2	+8.55393E-2
+2.55100E+0	+6.41040E-1	-1.86185E-2	+8.53081E-2
+2.56570E+0	+6.30159E-1	-1.24387E-2	+8.50511E-2
+2.58050E+0	+6.19079E-1	-1.50327E-2	+8.47824E-2
+2.59520E+0	+6.07950E-1	-2.41880E-2	+8.45032E-2
+2.61000E+0	+5.96623E-1	-2.30436E-2	+8.42149E-2
+2.62470E+0	+5.85254E-1	-2.26621E-2	+8.39272E-2
+2.63950E+0	+5.73690E-1	-3.06730E-2	+8.36050E-2
+2.65420E+0	+5.62090E-1	-2.33487E-2	+8.32719E-2
+2.66900E+0	+5.50298E-1	-1.64060E-2	+8.29115E-2
+2.68370E+0	+5.38476E-1	-1.41172E-2	+8.25409E-2
+2.69840E+0	+5.26547E-1	-1.10654E-2	+8.21385E-2
+2.71320E+0	+5.14432E-1	-1.19809E-2	+8.17173E-2
+2.72790E+0	+5.02295E-1	-1.37357E-2	+8.12716E-2
+2.74270E+0	+4.89976E-1	-1.77030E-2	+8.08146E-2
+2.75740E+0	+4.77642E-1	-2.68583E-2	+8.03206E-2
+2.77220E+0	+4.65128E-1	-3.36484E-2	+7.98111E-2
+2.78690E+0	+4.52606E-1	-3.77683E-2	+7.92672E-2
+2.80170E+0	+4.39908E-1	-3.80735E-2	+7.87158E-2
+2.81640E+0	+4.27208E-1	-3.49454E-2	+7.80985E-2
+2.83120E+0	+4.14336E-1	-3.79972E-2	+7.74593E-2
+2.84590E+0	+4.01469E-1	-4.36429E-2	+7.67692E-2
+2.86060E+0	+3.88522E-1	-6.15720E-2	+7.60500E-2
+2.87540E+0	+3.75408E-1	-6.05802E-2	+7.52441E-2
+2.89010E+0	+3.62309E-1	-7.04221E-2	+7.43981E-2
+2.90490E+0	+3.49048E-1	-6.17246E-2	+7.34933E-2
+2.91960E+0	+3.35806E-1	-6.50815E-2	+7.25361E-2
+2.93440E+0	+3.22408E-1	-5.82151E-2	+7.15306E-2
+2.94910E+0	+3.09035E-1	-7.26346E-2	+7.04519E-2
+2.96390E+0	+2.95510E-1	-7.95011E-2	+6.93075E-2
+2.97860E+0	+2.82017E-1	-8.38498E-2	+6.80740E-2
+2.99340E+0	+2.68376E-1	-9.48362E-2	+6.67679E-2
+3.00810E+0	+2.54773E-1	-1.08340E-1	+6.53520E-2
+3.02280E+0	+2.41120E-1	-1.26727E-1	+6.38585E-2
+3.03760E+0	+2.27325E-1	-1.24286E-1	+6.22199E-2
+3.05230E+0	+2.13579E-1	-1.30389E-1	+6.05030E-2
+3.06710E+0	+1.99696E-1	-1.19708E-1	+5.87091E-2
+3.08180E+0	+1.85867E-1	-1.26498E-1	+5.67634E-2
+3.09660E+0	+1.71906E-1	-1.11697E-1	+5.47182E-2
+3.11130E+0	+1.58006E-1	-1.21005E-1	+5.25346E-2
+3.12610E+0	+1.43980E-1	-1.51599E-1	+5.02021E-2
+3.14080E+0	+1.30019E-1	-1.70749E-1	+4.76547E-2
+3.15560E+0	+1.15938E-1	-1.94171E-1	+4.48852E-2
+3.17030E+0	+1.01928E-1	-2.01800E-1	+4.19534E-2
+3.18500E+0	+8.78986E-2	-2.39947E-1	+3.87155E-2
+3.19980E+0	+7.37558E-2	-2.44372E-1	+3.52519E-2
+3.21450E+0	+5.96939E-2	-2.64590E-1	+3.14293E-2
+3.22930E+0	+4.55243E-2	-2.95947E-1	+2.73442E-2
+3.24400E+0	+3.14414E-2	-2.99762E-1	+2.28376E-2
+3.25880E+0	+1.72564E-2	-3.24862E-1	+1.83219E-2
+3.27350E+0	+3.16383E-3	-3.02661E-1	+1.37976E-2
+3.28830E+0	-1.10253E-2	-3.19598E-1	+9.01394E-3
+3.30300E+0	-2.51163E-2	-3.08688E-1	+4.41267E-3
+3.31780E+0	-3.92981E-2	-2.92590E-1	-1.27889E-4
+3.33250E+0	-5.33763E-2	-2.98236E-1	-4.46536E-3
+3.34730E+0	-6.75396E-2	-2.78705E-1	-8.75676E-3
+3.36200E+0	-8.15937E-2	-2.85190E-1	-1.27822E-2
+3.37670E+0	-9.56316E-2	-2.48950E-1	-1.65372E-2
+3.39150E+0	-1.09746E-1	-2.35064E-1	-2.02745E-2
+3.40620E+0	-1.23743E-1	-2.25299E-1	-2.36724E-2
+3.42100E+0	-1.37810E-1	-2.09964E-1	-2.69484E-2
+3.43570E+0	-1.51755E-1	-2.21713E-1	-3.00103E-2
+3.45050E+0	-1.65764E-1	-2.03937E-1	-3.29259E-2
+3.46520E+0	-1.79646E-1	-1.93561E-1	-3.56996E-2
+3.48000E+0	-1.93586E-1	-1.73495E-1	-3.82726E-2
+3.49470E+0	-2.07393E-1	-1.53582E-1	-4.07729E-2
+3.50950E+0	-2.21252E-1	-1.42138E-1	-4.30844E-2
+3.52420E+0	-2.34974E-1	-1.42367E-1	-4.52954E-2
+3.53890E+0	-2.48649E-1	-1.60144E-1	-4.73937E-2
+3.55370E+0	-2.62367E-1	-1.53659E-1	-4.94469E-2
+3.56840E+0	-2.75940E-1	-1.39697E-1	-5.13872E-2
+3.58320E+0	-2.89551E-1	-1.04602E-1	-5.31803E-2
+3.59790E+0	-3.03011E-1	-8.69016E-2	-5.48582E-2
+3.61270E+0	-3.16502E-1	-7.99588E-2	-5.64079E-2
+3.62740E+0	-3.29839E-1	-9.74302E-2	-5.79187E-2
+3.64220E+0	-3.43201E-1	-1.12613E-1	-5.93753E-2
+3.65690E+0	-3.56404E-1	-1.03610E-1	-6.07940E-2
+3.67170E+0	-3.69625E-1	-9.33866E-2	-6.20830E-2
+3.68640E+0	-3.82683E-1	-8.24765E-2	-6.33085E-2
+3.70110E+0	-3.95666E-1	-8.04166E-2	-6.44646E-2
+3.71590E+0	-4.08657E-1	-6.49289E-2	-6.55725E-2
+3.73060E+0	-4.21479E-1	-6.34031E-2	-6.66209E-2
+3.74540E+0	-4.34303E-1	-5.21115E-2	-6.75893E-2
+3.76010E+0	-4.46955E-1	-4.95176E-2	-6.85244E-2
+3.77490E+0	-4.59602E-1	-5.95121E-2	-6.94170E-2
+3.78960E+0	-4.72073E-1	-4.50925E-2	-7.02416E-2
+3.80440E+0	-4.84534E-1	-5.60025E-2	-7.10395E-2
+3.81910E+0	-4.96814E-1	-4.68473E-2	-7.17788E-2
+3.83390E+0	-5.09078E-1	-5.07383E-2	-7.25157E-2
+3.84860E+0	-5.21157E-1	-4.93650E-2	-7.31855E-2
+3.86330E+0	-5.33133E-1	-3.99045E-2	-7.38259E-2
+3.87810E+0	-5.45084E-1	-4.15067E-2	-7.44508E-2
+3.89280E+0	-5.56845E-1	-3.05967E-2	-7.50359E-2
+3.90760E+0	-5.68574E-1	-2.70871E-2	-7.55968E-2
+3.92230E+0	-5.80111E-1	-1.85422E-2	-7.61267E-2
+3.93710E+0	-5.91610E-1	-1.31253E-2	-7.66486E-2
+3.95180E+0	-6.02914E-1	-1.76267E-2	-7.71500E-2
+3.96660E+0	-6.14173E-1	-2.57901E-2	-7.76282E-2
+3.98130E+0	-6.25234E-1	-4.37955E-2	-7.80599E-2
+3.99610E+0	-6.36244E-1	-4.91361E-2	-7.84548E-2
+4.01080E+0	-6.47054E-1	-3.51743E-2	-7.88427E-2
+4.02550E+0	-6.57734E-1	-1.84659E-2	-7.92301E-2
+4.04030E+0	-6.68356E-1	-1.99155E-2	-7.96208E-2
+4.05500E+0	-6.78773E-1	-2.37302E-2	-7.99637E-2
+4.06980E+0	-6.89124E-1	-1.79319E-2	-8.02898E-2
+4.08450E+0	-6.99268E-1	-1.79319E-2	-8.06282E-2
+4.09930E+0	-7.09340E-1	-2.55613E-2	-8.09339E-2
+4.11400E+0	-7.19204E-1	-1.90000E-2	-8.12274E-2
+4.12880E+0	-7.28990E-1	-1.59482E-2	-8.15208E-2
+4.14350E+0	-7.38564E-1	-2.68583E-2	-8.17925E-2
+4.15830E+0	-7.48056E-1	-1.57193E-2	-8.20659E-2
+4.17300E+0	-7.57334E-1	-1.67875E-2	-8.23057E-2
+4.18780E+0	-7.66524E-1	-1.70926E-2	-8.25550E-2
+4.20250E+0	-7.75498E-1	-1.85422E-2	-8.27919E-2
+4.21720E+0	-7.84319E-1	-1.36594E-2	-8.30149E-2
+4.23200E+0	-7.93042E-1	-1.47275E-2	-8.32258E-2
+4.24670E+0	-8.01548E-1	-1.44986E-2	-8.34407E-2
+4.26150E+0	-8.09951E-1	-1.12943E-2	-8.36488E-2
+4.27620E+0	-8.18136E-1	-1.50327E-2	-8.38428E-2
+4.29100E+0	-8.26213E-1	-1.38883E-2	-8.40294E-2
+4.30570E+0	-8.34070E-1	-6.86924E-3	-8.42135E-2
+4.32050E+0	-8.41814E-1	-1.56430E-2	-8.43882E-2
+4.33520E+0	-8.49337E-1	-4.35154E-3	-8.45597E-2
+4.35000E+0	-8.56741E-1	-1.51090E-2	-8.47273E-2
+4.36470E+0	-8.63925E-1	-7.93736E-3	-8.48801E-2
+4.37940E+0	-8.70936E-1	-5.64854E-3	-8.50229E-2
+4.39420E+0	-8.77821E-1	-1.19046E-2	-8.51655E-2
+4.40890E+0	-8.84484E-1	-1.08365E-2	-8.53102E-2
+4.42370E+0	-8.91015E-1	-8.31883E-3	-8.54440E-2
+4.43840E+0	-8.97325E-1	-8.47141E-3	-8.55752E-2
+4.45320E+0	-9.03497E-1	-4.58042E-3	-8.56952E-2
+4.46790E+0	-9.09447E-1	-9.23435E-3	-8.58212E-2
+4.48270E+0	-9.15256E-1	-3.51231E-3	-8.59327E-2
+4.49740E+0	-9.20842E-1	-9.69212E-3	-8.60456E-2
+4.51220E+0	-9.26283E-1	-1.03788E-2	-8.61434E-2
+4.52690E+0	-9.31501E-1	-6.89431E-4	-8.62561E-2
+4.54160E+0	-9.36535E-1	-2.21531E-3	-8.63519E-2
+4.55640E+0	-9.41415E-1	-1.06076E-2	-8.64444E-2
+4.57110E+0	-9.46074E-1	-1.18283E-2	-8.65307E-2
+4.58590E+0	-9.50575E-1	-1.27439E-2	-8.66126E-2
+4.60060E+0	-9.54857E-1	-4.04636E-3	-8.66981E-2
+4.61540E+0	-9.58976E-1	-4.35154E-3	-8.67757E-2
+4.63010E+0	-9.62876E-1	-1.30490E-2	-8.68536E-2
+4.64490E+0	-9.66609E-1	-4.50413E-3	-8.69229E-2
+4.65960E+0	-9.70124E-1	-2.67307E-3	-8.69865E-2
+4.67440E+0	-9.73469E-1	-7.86106E-3	-8.70523E-2
+4.68910E+0	-9.76597E-1	-8.31883E-3	-8.71099E-2
+4.70380E+0	-9.79531E-1	-1.31253E-2	-8.71700E-2
+4.71860E+0	-9.82289E-1	+3.43044E-3	-8.72201E-2
+4.73330E+0	-9.84832E-1	-1.71689E-2	-8.72891E-2
+4.74810E+0	-9.87195E-1	+5.26150E-3	-8.73305E-2
+4.76280E+0	-9.89345E-1	-1.09128E-2	-8.73658E-2
+4.77760E+0	-9.91311E-1	-3.28342E-3	-8.74049E-2
+4.79230E+0	-9.93066E-1	-7.02183E-3	-8.74388E-2
+4.80710E+0	-9.94634E-1	-1.06839E-2	-8.74779E-2
+4.82180E+0	-9.95993E-1	+2.36233E-3	-8.75042E-2
+4.83660E+0	-9.97162E-1	-6.10630E-3	-8.75424E-2
+4.85130E+0	-9.98124E-1	-3.58860E-3	-8.75600E-2
+4.86600E+0	-9.98888E-1	+2.97268E-3	-8.75822E-2
+4.88080E+0	-9.99456E-1	-1.52866E-3	-8.76052E-2
+4.89550E+0	-9.99822E-1	+3.78685E-4	-8.76129E-2
+4.91030E+0	-9.99989E-1	-3.28342E-3	-8.76357E-2
+4.92500E+0	-9.99956E-1	-1.37608E-3	-8.76458E-2
+4.93980E+0	-9.99722E-1	+5.41409E-3	-8.76510E-2
+4.95450E+0	-9.99290E-1	-2.52049E-3	-8.76637E-2
+4.96930E+0	-9.98655E-1	+2.82009E-3	-8.76673E-2
+4.98400E+0	-9.97825E-1	-2.97825E-3	-8.76784E-2
+4.99880E+0	-9.96790E-1	-3.43601E-3	-8.76770E-2
+5.01350E+0	-9.95562E-1	+6.32961E-3	-8.76815E-2
+5.02820E+0	-9.94137E-1	-1.18283E-2	-8.76854E-2
+5.04300E+0	-9.92503E-1	-5.36843E-4	-8.76828E-2
+5.05770E+0	-9.90682E-1	-3.84255E-4	-8.76851E-2
+5.07250E+0	-9.88650E-1	-2.21531E-3	-8.76829E-2
+5.08720E+0	-9.86434E-1	-6.18259E-3	-8.76756E-2
+5.10200E+0	-9.84006E-1	-5.11448E-3	-8.76773E-2
+5.11670E+0	-9.81398E-1	+1.82315E-2	-8.76652E-2
+5.13150E+0	-9.78575E-1	-2.44931E-2	-8.76579E-2
+5.14620E+0	-9.75576E-1	+4.34597E-3	-8.76290E-2
+5.16100E+0	-9.72361E-1	-2.13902E-3	-8.76383E-2
+5.17570E+0	-9.68974E-1	+7.60154E-4	-8.76201E-2
+5.19050E+0	-9.65369E-1	-5.36843E-4	-8.76074E-2
+5.20520E+0	-9.61597E-1	-4.50413E-3	-8.75873E-2
+5.21990E+0	-9.57633E-1	+2.20974E-3	-8.75710E-2
+5.23470E+0	-9.53451E-1	+4.26968E-3	-8.75477E-2
+5.24940E+0	-9.49106E-1	+9.89036E-4	-8.75243E-2
+5.26420E+0	-9.44542E-1	+3.27785E-3	-8.74993E-2
+5.27890E+0	-9.39820E-1	+3.58303E-3	-8.74714E-2
+5.29370E+0	-9.34878E-1	+6.86367E-3	-8.74423E-2
+5.30840E+0	-9.29782E-1	+3.04897E-3	-8.74031E-2
+5.32320E+0	-9.24465E-1	-2.29160E-3	-8.73745E-2
+5.33790E+0	-9.19000E-1	+4.80373E-3	-8.73348E-2
+5.35270E+0	-9.13314E-1	+4.34597E-3	-8.72969E-2
+5.36740E+0	-9.07484E-1	+3.78685E-4	-8.72541E-2
+5.38210E+0	-9.01473E-1	+2.66750E-3	-8.72075E-2
+5.39690E+0	-8.95241E-1	+2.43862E-3	-8.71585E-2
+5.41160E+0	-8.88873E-1	+8.61843E-3	-8.71058E-2
+5.42640E+0	-8.82283E-1	+3.27785E-3	-8.70497E-2
+5.44110E+0	-8.75561E-1	-3.89378E-3	-8.69942E-2
+5.45590E+0	-8.68618E-1	+4.72744E-3	-8.69375E-2
+5.47060E+0	-8.61549E-1	+5.26150E-3	-8.68740E-2
+5.48540E+0	-8.54259E-1	+6.25332E-3	-8.68037E-2
+5.50010E+0	-8.46848E-1	+8.46584E-3	-8.67336E-2
+5.51490E+0	-8.39217E-1	+6.17702E-3	-8.66585E-2
+5.52960E+0	-8.31470E-1	+8.23696E-3	-8.65797E-2
+5.54430E+0	-8.23557E-1	+6.83860E-4	-8.64952E-2
+5.55910E+0	-8.15426E-1	+6.17702E-3	-8.64043E-2
+5.57380E+0	-8.07187E-1	+1.04495E-2	-8.63141E-2
+5.58860E+0	-7.98730E-1	+7.85549E-3	-8.62146E-2
+5.60330E+0	-7.90171E-1	+5.64297E-3	-8.61076E-2
+5.61810E+0	-7.81396E-1	+9.53396E-3	-8.59946E-2
+5.63280E+0	-7.72524E-1	+1.09072E-2	-8.58854E-2
+5.64760E+0	-7.63436E-1	+1.42642E-2	-8.57687E-2
+5.66230E+0	-7.54258E-1	+1.13650E-2	-8.56472E-2
+5.67710E+0	-7.44866E-1	+1.07547E-2	-8.55110E-2
+5.69180E+0	-7.35389E-1	+1.15176E-2	-8.53749E-2
+5.70650E+0	-7.25766E-1	+8.61843E-3	-8.52292E-2
+5.72130E+0	-7.15932E-1	+1.25094E-2	-8.50799E-2
+5.73600E+0	-7.06021E-1	+7.09255E-3	-8.49117E-2
+5.75080E+0	-6.95902E-1	+1.85366E-2	-8.47445E-2
+5.76550E+0	-6.85712E-1	+9.53396E-3	-8.45694E-2
+5.78030E+0	-6.75315E-1	+1.25094E-2	-8.43886E-2
+5.79500E+0	-6.64854E-1	+1.32724E-2	-8.41867E-2
+5.80980E+0	-6.54189E-1	+1.42642E-2	-8.39899E-2
+5.82450E+0	-6.43465E-1	+1.19754E-2	-8.37733E-2
+5.83930E+0	-6.32539E-1	+1.19754E-2	-8.35346E-2
+5.85400E+0	-6.21560E-1	+1.94522E-2	-8.32999E-2
+5.86870E+0	-6.10459E-1	+2.11306E-2	-8.30504E-2
+5.88350E+0	-5.99159E-1	+2.14358E-2	-8.27939E-2
+5.89820E+0	-5.87816E-1	+2.08255E-2	-8.25121E-2
+5.91300E+0	-5.76278E-1	+1.50271E-2	-8.22248E-2
+5.92770E+0	-5.64704E-1	+1.56375E-2	-8.19186E-2
+5.94250E+0	-5.52937E-1	+1.59426E-2	-8.15863E-2
+5.95720E+0	-5.41139E-1	+1.82315E-2	-8.12368E-2
+5.97200E+0	-5.29153E-1	+2.29617E-2	-8.08645E-2
+5.98670E+0	-5.17142E-1	+3.02859E-2	-8.04820E-2
+6.00150E+0	-5.04946E-1	+3.82205E-2	-8.00740E-2
+6.01620E+0	-4.92731E-1	+4.92068E-2	-7.96486E-2
+6.03100E+0	-4.80335E-1	+5.10379E-2	-7.91984E-2
+6.04570E+0	-4.67926E-1	+5.55392E-2	-7.87312E-2
+6.06040E+0	-4.55425E-1	+5.77517E-2	-7.82289E-2
+6.07520E+0	-4.42747E-1	+4.75283E-2	-7.76780E-2
+6.08990E+0	-4.30067E-1	+4.66128E-2	-7.70984E-2
+6.10470E+0	-4.17214E-1	+4.48581E-2	-7.64845E-2
+6.11940E+0	-4.04365E-1	+3.95175E-2	-7.58250E-2
+6.13420E+0	-3.91347E-1	+4.60788E-2	-7.51152E-2
+6.14890E+0	-3.78339E-1	+5.10379E-2	-7.43934E-2
+6.16370E+0	-3.65167E-1	+6.39315E-2	-7.35916E-2
+6.17840E+0	-3.52011E-1	+5.99643E-2	-7.27528E-2
+6.19320E+0	-3.38695E-1	+6.56863E-2	-7.18175E-2
+6.20790E+0	-3.25401E-1	+6.50760E-2	-7.08697E-2
+6.22260E+0	-3.12043E-1	+6.14901E-2	-6.98340E-2
+6.23740E+0	-2.98531E-1	+7.15609E-2	-6.87308E-2
+6.25210E+0	-2.85051E-1	+8.31576E-2	-6.75628E-2
+6.26690E+0	-2.71422E-1	+1.03070E-1	-6.62833E-2
+6.28160E+0	-2.57831E-1	+1.02841E-1	-6.49256E-2
+6.29640E+0	-2.44096E-1	+1.11692E-1	-6.34488E-2
+6.31110E+0	-2.30405E-1	+1.21152E-1	-6.18997E-2
+6.32590E+0	-2.16575E-1	+1.23365E-1	-6.02019E-2
+6.34060E+0	-2.02795E-1	+1.15735E-1	-5.84240E-2
+6.35540E+0	-1.88880E-1	+9.89505E-2	-5.65488E-2
+6.37010E+0	-1.75022E-1	+1.12378E-1	-5.45777E-2
+6.38480E+0	-1.61129E-1	+1.20465E-1	-5.24655E-2
+6.39960E+0	-1.47110E-1	+1.50296E-1	-5.01507E-2
+6.41430E+0	-1.33156E-1	+1.68073E-1	-4.77260E-2
+6.42910E+0	-1.19080E-1	+1.92639E-1	-4.49558E-2
+6.44380E+0	-1.05075E-1	+2.03321E-1	-4.20296E-2
+6.45860E+0	-9.09542E-2	+2.04236E-1	-3.88437E-2
+6.47330E+0	-7.69106E-2	+2.41620E-1	-3.54586E-2
+6.48810E+0	-6.27561E-2	+2.51004E-1	-3.17351E-2
+6.50280E+0	-4.86846E-2	+2.88159E-1	-2.76151E-2
+6.51760E+0	-3.45077E-2	+3.14099E-1	-2.32347E-2
+6.53230E+0	-2.04197E-2	+3.25391E-1	-1.84900E-2
+6.54700E+0	-6.32763E-3	+3.30503E-1	-1.37422E-2
+6.56180E+0	+7.86157E-3	+3.01892E-1	-8.90670E-3
+6.57650E+0	+2.19533E-2	+3.42023E-1	-4.13693E-3
+6.59130E+0	+3.61366E-2	+3.07309E-1	+4.98572E-4
+6.60600E+0	+5.02167E-2	+3.05020E-1	+5.21164E-3
+6.62080E+0	+6.43826E-2	+3.08148E-1	+9.60651E-3
+6.63550E+0	+7.84400E-2	+2.84650E-1	+1.39452E-2
+6.65030E+0	+9.25772E-2	+2.82361E-1	+1.80837E-2
+6.66500E+0	+1.06600E-1	+2.40552E-1	+2.19394E-2
+6.67980E+0	+1.20698E-1	+2.31092E-1	+2.56493E-2
+6.69450E+0	+1.34676E-1	+2.20182E-1	+2.90901E-2
+6.70920E+0	+1.48627E-1	+2.30023E-1	+3.24020E-2
+6.72400E+0	+1.62643E-1	+2.19495E-1	+3.54715E-2
+6.73870E+0	+1.76532E-1	+1.99124E-1	+3.84477E-2
+6.75350E+0	+1.90481E-1	+1.84476E-1	+4.12439E-2
+6.76820E+0	+2.04297E-1	+1.60977E-1	+4.38133E-2
+6.78300E+0	+2.18166E-1	+1.46710E-1	+4.62786E-2
+6.79770E+0	+2.31898E-1	+1.45948E-1	+4.85806E-2
+6.81250E+0	+2.45676E-1	+1.63419E-1	+5.08514E-2
+6.82720E+0	+2.59313E-1	+1.66242E-1	+5.29598E-2
+6.84200E+0	+2.72990E-1	+1.43964E-1	+5.50283E-2
+6.85670E+0	+2.86521E-1	+1.14209E-1	+5.69153E-2
+6.87140E+0	+2.99995E-1	+9.23892E-2	+5.86638E-2
+6.88620E+0	+3.13500E-1	+9.86453E-2	+6.03018E-2
+6.90090E+0	+3.26851E-1	+1.07877E-1	+6.18845E-2
+6.91570E+0	+3.40228E-1	+1.15583E-1	+6.34477E-2
+6.93040E+0	+3.53446E-1	+1.06427E-1	+6.48856E-2
+6.94520E+0	+3.66684E-1	+9.47543E-2	+6.62566E-2
+6.95990E+0	+3.79759E-1	+8.53701E-2	+6.75196E-2
+6.97470E+0	+3.92846E-1	+8.36154E-2	+6.87483E-2
+6.98940E+0	+4.05767E-1	+7.40786E-2	+6.98555E-2
+7.00420E+0	+4.18695E-1	+6.90432E-2	+7.09315E-2
+7.01890E+0	+4.31451E-1	+5.65310E-2	+7.19267E-2
+7.03370E+0	+4.44208E-1	+5.28689E-2	+7.28987E-2
+7.04840E+0	+4.56790E-1	+5.36319E-2	+7.37737E-2
+7.06310E+0	+4.69282E-1	+4.32559E-2	+7.46369E-2
+7.07790E+0	+4.81764E-1	+5.27163E-2	+7.54436E-2
+7.09260E+0	+4.94066E-1	+3.52450E-2	+7.62097E-2
+7.10740E+0	+5.06352E-1	+3.92886E-2	+7.69280E-2
+7.12210E+0	+5.18454E-1	+3.42532E-2	+7.76082E-2
+7.13690E+0	+5.30535E-1	+3.36428E-2	+7.82652E-2
+7.15160E+0	+5.42429E-1	+2.46402E-2	+7.88862E-2
+7.16640E+0	+5.54294E-1	+2.33432E-2	+7.94797E-2
+7.18110E+0	+5.65969E-1	+2.30380E-2	+8.00407E-2
+7.19590E+0	+5.77610E-1	+2.17410E-2	+8.05817E-2
+7.21060E+0	+5.89057E-1	+2.44876E-2	+8.10984E-2
+7.22530E+0	+6.00386E-1	+3.34903E-2	+8.15671E-2
+7.24010E+0	+6.11673E-1	+4.93594E-2	+8.20183E-2
+7.25480E+0	+6.22761E-1	+4.72232E-2	+8.24199E-2
+7.26960E+0	+6.33800E-1	+3.36428E-2	+8.28228E-2
+7.28430E+0	+6.44638E-1	+1.47219E-2	+8.32165E-2
+7.29910E+0	+6.55420E-1	+1.71634E-2	+8.36105E-2
+7.31380E+0	+6.65999E-1	+2.84549E-2	+8.39775E-2
+7.32860E+0	+6.76516E-1	+2.72342E-2	+8.43050E-2
+7.34330E+0	+6.86828E-1	+1.19754E-2	+8.46403E-2
+7.35810E+0	+6.97071E-1	+1.82315E-2	+8.49518E-2
+7.37280E+0	+7.07107E-1	+2.18936E-2	+8.52380E-2
+7.38750E+0	+7.17002E-1	+1.63241E-2	+8.55161E-2
+7.40230E+0	+7.26820E-1	+1.97573E-2	+8.57985E-2
+7.41700E+0	+7.36428E-1	+1.48745E-2	+8.60518E-2
+7.43180E+0	+7.45952E-1	+1.64767E-2	+8.63133E-2
+7.44650E+0	+7.55264E-1	+1.47982E-2	+8.65402E-2
+7.46130E+0	+7.64488E-1	+1.57138E-2	+8.67743E-2
+7.47600E+0	+7.73497E-1	+1.62478E-2	+8.69913E-2
+7.49080E+0	+7.82412E-1	+1.09072E-2	+8.72159E-2
+7.50550E+0	+7.91111E-1	+1.04495E-2	+8.73985E-2
+7.52030E+0	+7.99710E-1	+1.54849E-2	+8.75967E-2
+7.53500E+0	+8.08092E-1	+1.23568E-2	+8.77733E-2
+7.54970E+0	+8.16313E-1	+1.31961E-2	+8.79436E-2
+7.56450E+0	+8.24427E-1	+8.38955E-3	+8.81201E-2
+7.57920E+0	+8.32321E-1	+1.33487E-2	+8.82811E-2
+7.59400E+0	+8.40102E-1	+7.39773E-3	+8.84271E-2
+7.60870E+0	+8.47663E-1	+1.64767E-2	+8.85794E-2
+7.62350E+0	+8.55105E-1	+1.00680E-2	+8.87239E-2
+7.63820E+0	+8.62327E-1	+1.08310E-2	+8.88572E-2
+7.65300E+0	+8.69425E-1	+5.87185E-3	+8.89905E-2
+7.66770E+0	+8.76301E-1	+1.90456E-3	+8.91112E-2
+7.68250E+0	+8.83049E-1	+1.01443E-2	+8.92284E-2
+7.69720E+0	+8.89574E-1	+1.01443E-2	+8.93423E-2
+7.71190E+0	+8.95924E-1	+9.38137E-3	+8.94517E-2
+7.72670E+0	+9.02136E-1	+6.40591E-3	+8.95549E-2
+7.74140E+0	+9.08127E-1	+7.24514E-3	+8.96548E-2
+7.75620E+0	+9.13976E-1	+1.16702E-2	+8.97492E-2
+7.77090E+0	+9.19604E-1	+1.02969E-2	+8.98344E-2
+7.78570E+0	+9.25086E-1	+1.06533E-3	+8.99192E-2
+7.80040E+0	+9.30346E-1	+6.17702E-3	+9.00116E-2
+7.81520E+0	+9.35455E-1	+5.71926E-3	+9.00836E-2
+7.82990E+0	+9.40343E-1	+6.83860E-4	+9.01551E-2
+7.84470E+0	+9.45076E-1	+4.95632E-3	+9.02179E-2
+7.85940E+0	+9.49588E-1	+2.74380E-3	+9.02815E-2
+7.87420E+0	+9.53941E-1	+3.04897E-3	+9.03525E-2
+7.88890E+0	+9.58074E-1	+7.35089E-5	+9.04094E-2
+7.90360E+0	+9.62017E-1	+8.92361E-3	+9.04605E-2
+7.91840E+0	+9.65793E-1	+6.17702E-3	+9.05121E-2
+7.93310E+0	+9.69352E-1	-8.42018E-4	+9.05588E-2
+7.94790E+0	+9.72740E-1	+7.77920E-3	+9.06073E-2
+7.96260E+0	+9.75912E-1	+5.56667E-3	+9.06525E-2
+7.97740E+0	+9.78909E-1	+9.07619E-3	+9.06910E-2
+7.99210E+0	+9.81691E-1	+1.00680E-2	+9.07131E-2
+8.00690E+0	+9.84295E-1	-1.07602E-2	+9.07601E-2
+8.02160E+0	+9.86685E-1	-2.06272E-3	+9.07706E-2
+8.03640E+0	+9.88893E-1	-3.43601E-3	+9.07964E-2
+8.05110E+0	+9.90890E-1	+5.33779E-3	+9.08211E-2
+8.06580E+0	+9.92689E-1	-4.96189E-3	+9.08316E-2
+8.08060E+0	+9.94302E-1	+1.75198E-3	+9.08457E-2
+8.09530E+0	+9.95706E-1	+1.29421E-3	+9.08581E-2
+8.11010E+0	+9.96919E-1	+5.64297E-3	+9.08797E-2
+8.12480E+0	+9.97925E-1	+2.89638E-3	+9.08702E-2
+8.13960E+0	+9.98738E-1	-4.27525E-3	+9.08746E-2
+8.15430E+0	+9.99347E-1	-2.44419E-3	+9.08772E-2
+8.16910E+0	+9.99759E-1	-7.90790E-5	+9.08662E-2
+8.18380E+0	+9.99969E-1	-6.13137E-4	+9.08715E-2
+8.19860E+0	+9.99980E-1	-3.07961E-4	+9.08598E-2
+8.21330E+0	+9.99791E-1	-9.94606E-4	+9.08396E-2
+8.22800E+0	+9.99404E-1	-3.13084E-3	+9.08385E-2
+8.24280E+0	+9.98814E-1	-7.65724E-4	+9.08171E-2
+8.25750E+0	+9.98029E-1	-6.86924E-3	+9.08096E-2
+8.27230E+0	+9.97038E-1	+6.93996E-3	+9.07929E-2
+8.28700E+0	+9.95855E-1	-1.68125E-3	+9.07684E-2
+8.30180E+0	+9.94464E-1	-3.74119E-3	+9.07633E-2
+8.31650E+0	+9.92885E-1	+2.82009E-3	+9.07353E-2
+8.33130E+0	+9.91095E-1	-2.82566E-3	+9.07147E-2
+8.34600E+0	+9.89120E-1	-1.14719E-3	+9.06959E-2
+8.36080E+0	+9.86933E-1	-6.94553E-3	+9.06689E-2
+8.37550E+0	+9.84564E-1	-7.17442E-3	+9.06467E-2
+8.39020E+0	+9.82000E-1	-5.57224E-3	+9.06063E-2
+8.40500E+0	+9.79221E-1	+1.29421E-3	+9.06012E-2
+8.41970E+0	+9.76266E-1	+1.63241E-2	+9.05482E-2
+8.43450E+0	+9.73095E-1	+9.89036E-4	+9.05268E-2
+8.44920E+0	+9.69751E-1	-4.19895E-3	+9.04958E-2
+8.46400E+0	+9.66190E-1	-2.06272E-3	+9.04585E-2
+8.47870E+0	+9.62460E-1	+2.97268E-3	+9.04180E-2
+8.49350E+0	+9.58512E-1	-1.60496E-3	+9.03802E-2
+8.50820E+0	+9.54400E-1	-4.88560E-3	+9.03413E-2
+8.52300E+0	+9.50068E-1	-2.06272E-3	+9.02964E-2
+8.53770E+0	+9.45576E-1	+1.14162E-3	+9.02507E-2
+8.55240E+0	+9.40896E-1	+6.83860E-4	+9.02034E-2
+8.56720E+0	+9.35996E-1	-3.13084E-3	+9.01544E-2
+8.58190E+0	+9.30942E-1	-9.31065E-3	+9.01020E-2
+8.59670E+0	+9.25667E-1	-3.84255E-4	+9.00427E-2
+8.61140E+0	+9.20243E-1	-4.96189E-3	+8.99892E-2
+8.62620E+0	+9.14598E-1	-5.34336E-3	+8.99236E-2
+8.64090E+0	+9.08808E-1	-7.25071E-3	+8.98636E-2
+8.65570E+0	+9.02797E-1	-5.34336E-3	+8.98013E-2
+8.67040E+0	+8.96646E-1	-9.23435E-3	+8.97310E-2
+8.68520E+0	+8.90274E-1	-9.23435E-3	+8.96592E-2
+8.69990E+0	+8.83767E-1	-7.63218E-3	+8.95855E-2
+8.71460E+0	+8.77085E-1	-3.97007E-3	+8.95057E-2
+8.72940E+0	+8.70181E-1	+2.26097E-4	+8.94268E-2
+8.74410E+0	+8.63151E-1	-6.25889E-3	+8.93413E-2
+8.75890E+0	+8.55900E-1	-8.01365E-3	+8.92566E-2
+8.77360E+0	+8.48526E-1	-9.08176E-3	+8.91616E-2
+8.78840E+0	+8.40933E-1	-1.27439E-2	+8.90669E-2
+8.80310E+0	+8.33223E-1	-7.70847E-3	+8.89673E-2
+8.81790E+0	+8.25294E-1	-1.17521E-2	+8.88636E-2
+8.83260E+0	+8.17253E-1	-5.72483E-3	+8.87563E-2
+8.84740E+0	+8.08994E-1	-5.64854E-3	+8.86383E-2
+8.86210E+0	+8.00630E-1	-1.22098E-2	+8.85251E-2
+8.87690E+0	+7.92048E-1	-8.85288E-3	+8.84046E-2
+8.89160E+0	+7.83366E-1	-2.29160E-3	+8.82745E-2
+8.90630E+0	+7.74529E-1	-6.33518E-3	+8.81362E-2
+8.92110E+0	+7.65476E-1	-9.76841E-3	+8.79966E-2
+8.93580E+0	+7.56331E-1	-9.99729E-3	+8.78539E-2
+8.95060E+0	+7.46973E-1	-1.07602E-2	+8.76992E-2
+8.96530E+0	+7.37529E-1	-6.48777E-3	+8.75426E-2
+8.98010E+0	+7.27873E-1	-1.21335E-2	+8.73796E-2
+8.99480E+0	+7.18137E-1	-1.18283E-2	+8.72003E-2
+9.00960E+0	+7.08191E-1	-1.35831E-2	+8.70300E-2
+9.02430E+0	+6.98170E-1	-1.24387E-2	+8.68315E-2
+9.03910E+0	+6.87942E-1	-1.32016E-2	+8.66389E-2
+9.05380E+0	+6.77645E-1	-2.06784E-2	+8.64367E-2
+9.06850E+0	+6.67214E-1	-6.33518E-3	+8.62177E-2
+9.08330E+0	+6.56578E-1	-1.91526E-2	+8.59878E-2
+9.09800E+0	+6.45883E-1	-1.54905E-2	+8.57570E-2
+9.11280E+0	+6.34986E-1	-2.06784E-2	+8.55210E-2
+9.12750E+0	+6.24036E-1	-1.56430E-2	+8.52566E-2
+9.14230E+0	+6.12886E-1	-1.54905E-2	+8.49843E-2
+9.15700E+0	+6.01689E-1	-1.86185E-2	+8.46927E-2
+9.17180E+0	+5.90295E-1	-2.52561E-2	+8.44040E-2
+9.18650E+0	+5.78861E-1	-3.18174E-2	+8.40953E-2
+9.20130E+0	+5.67233E-1	-2.79264E-2	+8.37688E-2
+9.21600E+0	+5.55570E-1	-2.47983E-2	+8.34307E-2
+9.23070E+0	+5.43797E-1	-2.12888E-2	+8.30714E-2
+9.24550E+0	+5.31835E-1	-1.35831E-2	+8.26844E-2
+9.26020E+0	+5.19847E-1	-9.23435E-3	+8.22796E-2
+9.27500E+0	+5.07674E-1	-5.72483E-3	+8.18527E-2
+9.28970E+0	+4.95482E-1	-5.72483E-3	+8.14035E-2
+9.30450E+0	+4.83107E-1	-1.03025E-2	+8.09263E-2
+9.31920E+0	+4.70720E-1	-1.36594E-2	+8.04190E-2
+9.33400E+0	+4.58154E-1	-1.88474E-2	+7.98890E-2
+9.34870E+0	+4.45582E-1	-3.13596E-2	+7.93392E-2
+9.36350E+0	+4.32835E-1	-3.39536E-2	+7.87520E-2
+9.37820E+0	+4.20087E-1	-3.41825E-2	+7.81309E-2
+9.39290E+0	+4.07256E-1	-3.83786E-2	+7.74726E-2
+9.40770E+0	+3.94256E-1	-4.85257E-2	+7.67668E-2
+9.42240E+0	+3.81266E-1	-5.86728E-2	+7.60027E-2
+9.43720E+0	+3.68110E-1	-5.48581E-2	+7.51808E-2
+9.45190E+0	+3.54970E-1	-6.15720E-2	+7.43163E-2
+9.46670E+0	+3.41670E-1	-5.87491E-2	+7.33965E-2
+9.48140E+0	+3.28391E-1	-7.17191E-2	+7.24097E-2
+9.49620E+0	+3.14956E-1	-7.95774E-2	+7.13510E-2
+9.51090E+0	+3.01549E-1	-8.59098E-2	+7.02334E-2
+9.52570E+0	+2.87990E-1	-9.26236E-2	+6.90242E-2
+9.54040E+0	+2.74466E-1	-8.30869E-2	+6.77408E-2
+9.55510E+0	+2.60887E-1	-8.27054E-2	+6.63883E-2
+9.56990E+0	+2.47163E-1	-9.33866E-2	+6.49626E-2
+9.58460E+0	+2.33483E-1	-9.76590E-2	+6.34207E-2
+9.59940E+0	+2.19662E-1	-1.10095E-1	+6.17945E-2
+9.61410E+0	+2.05892E-1	-1.33441E-1	+6.00512E-2
+9.62890E+0	+1.91986E-1	-1.61822E-1	+5.81813E-2
+9.64360E+0	+1.78136E-1	-1.72961E-1	+5.61278E-2
+9.65840E+0	+1.64157E-1	-1.78912E-1	+5.39213E-2
+9.67310E+0	+1.50238E-1	-1.75326E-1	+5.16423E-2
+9.68790E+0	+1.36196E-1	-1.72122E-1	+4.91275E-2
+9.70260E+0	+1.22220E-1	-1.76928E-1	+4.65211E-2
+9.71740E+0	+1.08126E-1	-1.86541E-1	+4.36872E-2
+9.73210E+0	+9.41045E-2	-2.18432E-1	+4.06756E-2
+9.74680E+0	+8.00647E-2	-2.34912E-1	+3.72882E-2
+9.76160E+0	+6.59134E-2	-2.70007E-1	+3.35776E-2
+9.77630E+0	+5.18445E-2	-2.83282E-1	+2.96037E-2
+9.79110E+0	+3.76695E-2	-3.04950E-1	+2.52106E-2
+9.80580E+0	+2.35828E-2	-2.92895E-1	+2.07772E-2
+9.82060E+0	+9.39549E-3	-3.05102E-1	+1.60990E-2
+9.83530E+0	-4.69780E-3	-3.37069E-1	+1.15491E-2
+9.85010E+0	-1.88860E-2	-3.10977E-1	+6.80871E-3
+9.86480E+0	-3.29746E-2	-3.12350E-1	+2.15602E-3
+9.87960E+0	-4.71524E-2	-3.00677E-1	-2.30222E-3
+9.89430E+0	-6.12250E-2	-2.87326E-1	-6.62882E-3
+9.90900E+0	-7.52855E-2	-2.65429E-1	-1.06631E-2
+9.92380E+0	-8.94265E-2	-2.47577E-1	-1.46789E-2
+9.93850E+0	-1.03454E-1	-2.58334E-1	-1.83540E-2
+9.95330E+0	-1.17556E-1	-2.30563E-1	-2.19467E-2
+9.96800E+0	-1.31540E-1	-2.31021E-1	-2.53624E-2
+9.98280E+0	-1.45592E-1	-2.03174E-1	-2.84556E-2
+9.99750E+0	-1.59521E-1	-1.71130E-1	-3.14791E-2
+1.00123E+1	-1.73512E-1	-1.72732E-1	-3.42684E-2
+1.00270E+1	-1.87374E-1	-1.69299E-1	-3.69185E-2
+1.00418E+1	-2.01292E-1	-1.80896E-1	-3.94336E-2
+1.00565E+1	-2.15077E-1	-1.66171E-1	-4.18655E-2
+1.00712E+1	-2.28819E-1	-1.57702E-1	-4.41813E-2
+1.00860E+1	-2.42608E-1	-1.32907E-1	-4.63301E-2
+1.01007E+1	-2.56256E-1	-1.09790E-1	-4.83806E-2
+1.01155E+1	-2.69945E-1	-1.06128E-1	-5.02634E-2
+1.01302E+1	-2.83488E-1	-1.28100E-1	-5.20837E-2
+1.01450E+1	-2.97066E-1	-1.47174E-1	-5.38473E-2
+1.01597E+1	-3.10494E-1	-1.31686E-1	-5.55702E-2
+1.01745E+1	-3.23950E-1	-9.90323E-2	-5.71719E-2
+1.01892E+1	-3.37251E-1	-7.59153E-2	-5.85954E-2
+1.02040E+1	-3.50575E-1	-7.64493E-2	-5.99832E-2
+1.02187E+1	-3.63738E-1	-8.67490E-2	-6.12828E-2
+1.02334E+1	-3.76830E-1	-8.49942E-2	-6.25468E-2
+1.02482E+1	-3.89935E-1	-7.62204E-2	-6.37252E-2
+1.02629E+1	-4.02873E-1	-7.36264E-2	-6.48590E-2
+1.02777E+1	-4.15819E-1	-7.25583E-2	-6.59382E-2
+1.02924E+1	-4.28595E-1	-6.47001E-2	-6.69511E-2
+1.03072E+1	-4.41371E-1	-6.70652E-2	-6.79004E-2
+1.03219E+1	-4.53973E-1	-6.11142E-2	-6.88247E-2
+1.03367E+1	-4.66570E-1	-6.93540E-2	-6.96825E-2
+1.03514E+1	-4.78989E-1	-5.32560E-2	-7.04939E-2
+1.03662E+1	-4.91396E-1	-7.16428E-2	-7.12569E-2
+1.03809E+1	-5.03621E-1	-5.59262E-2	-7.19921E-2
+1.03956E+1	-5.15746E-1	-6.19535E-2	-7.26985E-2
+1.04104E+1	-5.27851E-1	-5.34848E-2	-7.33525E-2
+1.04251E+1	-5.39768E-1	-5.36374E-2	-7.39768E-2
+1.04399E+1	-5.51658E-1	-4.89072E-2	-7.45701E-2
+1.04546E+1	-5.63358E-1	-4.25748E-2	-7.51309E-2
+1.04694E+1	-5.75024E-1	-3.05204E-2	-7.56712E-2
+1.04841E+1	-5.86497E-1	-2.03733E-2	-7.61760E-2
+1.04989E+1	-5.97930E-1	-1.47275E-2	-7.66934E-2
+1.05136E+1	-6.09167E-1	-1.23624E-2	-7.71767E-2
+1.05284E+1	-6.20358E-1	-2.17466E-2	-7.76514E-2
+1.05431E+1	-6.31350E-1	-3.63950E-2	-7.80673E-2
+1.05578E+1	-6.42216E-1	-4.31852E-2	-7.84622E-2
+1.05726E+1	-6.53028E-1	-3.01389E-2	-7.88389E-2
+1.05873E+1	-6.63636E-1	-1.33542E-2	-7.92238E-2
+1.06021E+1	-6.74183E-1	-1.64060E-2	-7.95935E-2
+1.06168E+1	-6.84525E-1	-2.86130E-2	-7.99131E-2
+1.06316E+1	-6.94799E-1	-2.00681E-2	-8.02438E-2
+1.06463E+1	-7.04866E-1	-1.92289E-2	-8.05693E-2
+1.06611E+1	-7.14860E-1	-2.74686E-2	-8.08743E-2
+1.06758E+1	-7.24644E-1	-1.48801E-2	-8.11594E-2
+1.06906E+1	-7.34349E-1	-2.35776E-2	-8.14443E-2
+1.07053E+1	-7.43842E-1	-1.64060E-2	-8.17051E-2
+1.07201E+1	-7.53250E-1	-1.56430E-2	-8.19649E-2
+1.07348E+1	-7.62444E-1	-2.32724E-2	-8.22069E-2
+1.07495E+1	-7.71488E-1	-1.53379E-2	-8.24572E-2
+1.07643E+1	-7.80438E-1	-1.35831E-2	-8.26672E-2
+1.07790E+1	-7.89172E-1	-1.58719E-2	-8.28953E-2
+1.07938E+1	-7.97806E-1	-1.15232E-2	-8.31101E-2
+1.08085E+1	-8.06224E-1	-1.71689E-2	-8.33155E-2
+1.08233E+1	-8.14537E-1	-1.21335E-2	-8.35171E-2
+1.08380E+1	-8.22632E-1	-1.48801E-2	-8.36997E-2
+1.08528E+1	-8.30616E-1	-1.04551E-2	-8.38872E-2
+1.08675E+1	-8.38382E-1	-1.70163E-2	-8.40659E-2
+1.08823E+1	-8.46031E-1	-5.26707E-3	-8.42411E-2
+1.08970E+1	-8.53461E-1	-1.52616E-2	-8.43907E-2
+1.09117E+1	-8.60721E-1	-9.61582E-3	-8.45559E-2
+1.09265E+1	-8.67857E-1	-9.38694E-3	-8.47020E-2
+1.09412E+1	-8.74773E-1	-1.24387E-2	-8.48478E-2
+1.09560E+1	-8.81559E-1	-3.43601E-3	-8.49939E-2
+1.09707E+1	-8.88125E-1	-7.70847E-3	-8.51256E-2
+1.09855E+1	-8.94557E-1	-8.77659E-3	-8.52582E-2
+1.10002E+1	-9.00767E-1	-6.79295E-3	-8.53809E-2
+1.10150E+1	-9.06838E-1	-1.12943E-2	-8.55046E-2
+1.10297E+1	-9.12688E-1	-9.15806E-3	-8.56194E-2
+1.10445E+1	-9.18395E-1	-1.09128E-2	-8.57281E-2
+1.10592E+1	-9.23880E-1	-7.32700E-3	-8.58359E-2
+1.10739E+1	-9.29181E-1	-1.09891E-2	-8.59384E-2
+1.10887E+1	-9.34332E-1	-7.55589E-3	-8.60345E-2
+1.11034E+1	-9.39262E-1	-5.34336E-3	-8.61296E-2
+1.11182E+1	-9.44037E-1	-5.36843E-4	-8.62177E-2
+1.11329E+1	-9.48592E-1	-9.18312E-4	-8.63071E-2
+1.11477E+1	-9.52987E-1	-6.79295E-3	-8.63883E-2
+1.11624E+1	-9.57163E-1	+1.90456E-3	-8.64713E-2
+1.11772E+1	-9.61175E-1	-9.31065E-3	-8.65441E-2
+1.11919E+1	-9.64968E-1	-3.74119E-3	-8.66104E-2
+1.12067E+1	-9.68594E-1	-1.75755E-3	-8.66788E-2
+1.12214E+1	-9.72002E-1	-7.55589E-3	-8.67466E-2
+1.12361E+1	-9.75217E-1	-2.21531E-3	-8.68082E-2
+1.12509E+1	-9.78258E-1	-4.19895E-3	-8.68716E-2
+1.12656E+1	-9.81083E-1	-1.62534E-2	-8.69234E-2
+1.12804E+1	-9.83731E-1	+7.39773E-3	-8.69735E-2
+1.12951E+1	-9.86165E-1	-1.44223E-2	-8.70288E-2
+1.13099E+1	-9.88418E-1	-3.89378E-3	-8.70630E-2
+1.13246E+1	-9.90459E-1	-7.90790E-5	-8.71072E-2
+1.13394E+1	-9.92314E-1	-1.68125E-3	-8.71487E-2
+1.13541E+1	-9.93960E-1	-3.97007E-3	-8.71840E-2
+1.13689E+1	-9.95417E-1	-1.09891E-2	-8.72186E-2
+1.13836E+1	-9.96666E-1	+4.34597E-3	-8.72465E-2
+1.13983E+1	-9.97717E-1	-3.05454E-3	-8.72793E-2
+1.14131E+1	-9.98574E-1	-2.21531E-3	-8.72931E-2
+1.14278E+1	-9.99228E-1	+3.27785E-3	-8.73169E-2
+1.14426E+1	-9.99685E-1	-2.74937E-3	-8.73298E-2
+1.14573E+1	-9.99939E-1	+2.43862E-3	-8.73469E-2
+1.14721E+1	-9.99995E-1	-1.98643E-3	-8.73582E-2
+1.14868E+1	-9.99851E-1	-1.55373E-4	-8.73690E-2
+1.15016E+1	-9.99506E-1	+2.05715E-3	-8.73752E-2
+1.15163E+1	-9.98963E-1	-4.50413E-3	-8.73769E-2
+1.15311E+1	-9.98217E-1	+5.49038E-3	-8.73861E-2
+1.15458E+1	-9.97276E-1	-4.27525E-3	-8.73979E-2
+1.15606E+1	-9.96129E-1	-4.96189E-3	-8.73983E-2
+1.15753E+1	-9.94792E-1	+1.02969E-2	-8.74015E-2
+1.15900E+1	-9.93256E-1	-1.00736E-2	-8.74047E-2
+1.16048E+1	-9.91511E-1	+3.20156E-3	-8.74011E-2
+1.16195E+1	-9.89581E-1	-5.41966E-3	-8.73957E-2
+1.16343E+1	-9.87438E-1	+2.13345E-3	-8.73905E-2
+1.16490E+1	-9.85113E-1	+4.42226E-3	-8.73855E-2
+1.16638E+1	-9.82575E-1	-1.18283E-2	-8.73811E-2
+1.16785E+1	-9.79858E-1	+1.71634E-2	-8.73796E-2
+1.16933E+1	-9.76926E-1	-2.31961E-2	-8.73695E-2
+1.17080E+1	-9.73819E-1	-2.44419E-3	-8.73474E-2
+1.17228E+1	-9.70495E-1	+7.85549E-3	-8.73435E-2
+1.17375E+1	-9.67001E-1	-3.28342E-3	-8.73257E-2
+1.17522E+1	-9.63314E-1	-1.22349E-3	-8.73085E-2
+1.17670E+1	-9.59409E-1	+3.78685E-4	-8.72907E-2
+1.17817E+1	-9.55340E-1	-1.68125E-3	-8.72741E-2
+1.17965E+1	-9.51051E-1	+1.29421E-3	-8.72493E-2
+1.18112E+1	-9.46601E-1	-1.22349E-3	-8.72204E-2
+1.18260E+1	-9.41931E-1	-1.75755E-3	-8.71954E-2
+1.18407E+1	-9.37105E-1	-3.74119E-3	-8.71682E-2
+1.18555E+1	-9.32058E-1	+1.14162E-3	-8.71378E-2
+1.18702E+1	-9.26859E-1	+7.24514E-3	-8.70982E-2
+1.18850E+1	-9.21440E-1	-1.91013E-3	-8.70633E-2
+1.18997E+1	-9.15873E-1	+3.96450E-3	-8.70253E-2
+1.19144E+1	-9.10124E-1	+5.71926E-3	-8.69868E-2
+1.19292E+1	-9.04153E-1	+3.27785E-3	-8.69439E-2
+1.19439E+1	-8.98043E-1	+2.74380E-3	-8.68980E-2
+1.19587E+1	-8.91711E-1	+3.27785E-3	-8.68469E-2
+1.19734E+1	-8.85243E-1	+4.19338E-3	-8.67937E-2
+1.19882E+1	-8.78555E-1	+5.94814E-3	-8.67322E-2
+1.20029E+1	-8.71736E-1	+7.32143E-3	-8.66747E-2
+1.20177E+1	-8.64696E-1	+2.59121E-3	-8.66144E-2
+1.20324E+1	-8.57531E-1	+2.97268E-3	-8.65499E-2
+1.20472E+1	-8.50146E-1	+1.52309E-3	-8.64829E-2
+1.20619E+1	-8.42641E-1	+3.78685E-4	-8.64046E-2
+1.20766E+1	-8.34968E-1	+4.95632E-3	-8.63268E-2
+1.20914E+1	-8.27076E-1	+5.41409E-3	-8.62418E-2
+1.21061E+1	-8.19073E-1	+8.61843E-3	-8.61560E-2
+1.21209E+1	-8.10850E-1	+8.69472E-3	-8.60657E-2
+1.21356E+1	-8.02522E-1	+6.40591E-3	-8.59689E-2
+1.21504E+1	-7.93975E-1	+1.33487E-2	-8.58678E-2
+1.21651E+1	-7.85329E-1	+7.62661E-3	-8.57632E-2
+1.21799E+1	-7.76466E-1	+7.39773E-3	-8.56531E-2
+1.21946E+1	-7.67508E-1	+6.02444E-3	-8.55358E-2
+1.22094E+1	-7.58335E-1	+7.39773E-3	-8.54164E-2
+1.22241E+1	-7.49073E-1	+7.09255E-3	-8.52828E-2
+1.22388E+1	-7.39662E-1	+1.10598E-2	-8.51541E-2
+1.22536E+1	-7.30039E-1	+7.47402E-3	-8.50053E-2
+1.22683E+1	-7.20335E-1	+1.48745E-2	-8.48561E-2
+1.22831E+1	-7.10421E-1	+6.48220E-3	-8.47052E-2
+1.22978E+1	-7.00432E-1	+8.31325E-3	-8.45365E-2
+1.23126E+1	-6.90235E-1	+1.76211E-2	-8.43611E-2
+1.23273E+1	-6.79969E-1	+1.02969E-2	-8.41842E-2
+1.23421E+1	-6.69496E-1	+1.04495E-2	-8.39871E-2
+1.23568E+1	-6.58961E-1	+1.85366E-2	-8.37892E-2
+1.23716E+1	-6.48222E-1	+1.53323E-2	-8.35810E-2
+1.23863E+1	-6.37427E-1	+1.27383E-2	-8.33623E-2
+1.24010E+1	-6.26505E-1	+1.11361E-2	-8.31325E-2
+1.24158E+1	-6.15383E-1	+1.76974E-2	-8.28784E-2
+1.24305E+1	-6.04213E-1	+2.52505E-2	-8.26201E-2
+1.24453E+1	-5.92846E-1	+2.03677E-2	-8.23537E-2
+1.24600E+1	-5.81438E-1	+1.84603E-2	-8.20751E-2
+1.24748E+1	-5.69836E-1	+1.60952E-2	-8.17780E-2
+1.24895E+1	-5.58198E-1	+1.12887E-2	-8.14551E-2
+1.25043E+1	-5.46369E-1	+1.23568E-2	-8.11170E-2
+1.25190E+1	-5.34512E-1	+1.24331E-2	-8.07507E-2
+1.25338E+1	-5.22466E-1	+1.60952E-2	-8.03735E-2
+1.25485E+1	-5.10397E-1	+2.25039E-2	-7.99709E-2
+1.25633E+1	-4.98145E-1	+2.89126E-2	-7.95502E-2
+1.25780E+1	-4.85875E-1	+3.47110E-2	-7.90976E-2
+1.25927E+1	-4.73509E-1	+4.71469E-2	-7.86477E-2
+1.26075E+1	-4.60964E-1	+4.98172E-2	-7.81484E-2
+1.26222E+1	-4.48412E-1	+4.89016E-2	-7.76387E-2
+1.26370E+1	-4.35684E-1	+3.32614E-2	-7.70691E-2
+1.26517E+1	-4.22956E-1	+3.32614E-2	-7.64838E-2
+1.26665E+1	-4.10056E-1	+3.02859E-2	-7.58486E-2
+1.26812E+1	-3.97162E-1	+3.95938E-2	-7.51716E-2
+1.26960E+1	-3.84100E-1	+4.61551E-2	-7.44564E-2
+1.27107E+1	-3.71050E-1	+5.08090E-2	-7.36942E-2
+1.27255E+1	-3.57837E-1	+6.54574E-2	-7.28722E-2
+1.27402E+1	-3.44641E-1	+6.97299E-2	-7.19800E-2
+1.27549E+1	-3.31378E-1	+7.13321E-2	-7.10378E-2
+1.27697E+1	-3.17957E-1	+6.94247E-2	-7.00302E-2
+1.27844E+1	-3.04564E-1	+8.05636E-2	-6.89596E-2
+1.27992E+1	-2.91019E-1	+8.52176E-2	-6.77711E-2
+1.28139E+1	-2.77507E-1	+7.85037E-2	-6.65692E-2
+1.28287E+1	-2.63847E-1	+7.86563E-2	-6.52502E-2
+1.28434E+1	-2.50227E-1	+8.55227E-2	-6.38786E-2
+1.28582E+1	-2.36465E-1	+9.62802E-2	-6.23734E-2
+1.28729E+1	-2.22748E-1	+1.17948E-1	-6.07727E-2
+1.28877E+1	-2.08893E-1	+1.24890E-1	-5.90468E-2
+1.29024E+1	-1.95090E-1	+1.47397E-1	-5.71803E-2
+1.29171E+1	-1.81249E-1	+1.64792E-1	-5.52421E-2
+1.29319E+1	-1.67277E-1	+1.72956E-1	-5.30829E-2
+1.29466E+1	-1.53366E-1	+1.70819E-1	-5.08271E-2
+1.29614E+1	-1.39329E-1	+1.66318E-1	-4.83745E-2
+1.29761E+1	-1.25360E-1	+1.84323E-1	-4.58235E-2
+1.29909E+1	-1.11270E-1	+1.89511E-1	-4.30667E-2
+1.30056E+1	-9.72538E-2	+2.16977E-1	-4.00278E-2
+1.30204E+1	-8.31224E-2	+2.48868E-1	-3.68288E-2
+1.30351E+1	-6.90700E-2	+2.62372E-1	-3.32257E-2
+1.30499E+1	-5.49081E-2	+2.91516E-1	-2.92548E-2
+1.30646E+1	-4.08309E-2	+2.90143E-1	-2.49418E-2
+1.30793E+1	-2.67456E-2	+3.16159E-1	-2.03698E-2
+1.30941E+1	-1.25591E-2	+3.18372E-1	-1.56438E-2
+1.31088E+1	+1.53398E-3	+3.45914E-1	-1.07737E-2
+1.31236E+1	+1.57227E-2	+3.33325E-1	-6.10649E-3
+1.31383E+1	+2.98123E-2	+3.06165E-1	-1.19936E-3
+1.31531E+1	+4.39919E-2	+3.35462E-1	+3.48181E-3
+1.31678E+1	+5.80668E-2	+2.90296E-1	+7.95532E-3
+1.31826E+1	+7.22259E-2	+2.77097E-1	+1.23886E-2
+1.31973E+1	+8.62749E-2	+2.78394E-1	+1.65420E-2
+1.32121E+1	+1.00402E-1	+2.74732E-1	+2.06402E-2
+1.32268E+1	+1.14414E-1	+2.69467E-1	+2.43197E-2
+1.32415E+1	+1.28403E-1	+2.40476E-1	+2.78958E-2
+1.32563E+1	+1.42461E-1	+2.16291E-1	+3.13005E-2
+1.32710E+1	+1.56397E-1	+1.84857E-1	+3.45142E-2
+1.32858E+1	+1.70395E-1	+1.81653E-1	+3.75364E-2
+1.33005E+1	+1.84265E-1	+1.90198E-1	+4.03298E-2
+1.33153E+1	+1.98192E-1	+1.89130E-1	+4.30709E-2
+1.33300E+1	+2.11986E-1	+1.78601E-1	+4.55636E-2
+1.33448E+1	+2.25831E-1	+1.57926E-1	+4.79987E-2
+1.33595E+1	+2.39538E-1	+1.45337E-1	+5.02558E-2
+1.33743E+1	+2.53289E-1	+1.24051E-1	+5.23912E-2
+1.33890E+1	+2.66898E-1	+1.19855E-1	+5.43952E-2
+1.34038E+1	+2.80545E-1	+1.28553E-1	+5.63182E-2
+1.34185E+1	+2.94044E-1	+1.44269E-1	+5.81968E-2
+1.34332E+1	+3.07485E-1	+1.37860E-1	+5.99500E-2
+1.34480E+1	+3.20955E-1	+1.06504E-1	+6.16235E-2
+1.34627E+1	+3.34271E-1	+8.07925E-2	+6.31319E-2
+1.34775E+1	+3.47610E-1	+7.77407E-2	+6.45722E-2
+1.34922E+1	+3.60789E-1	+8.75064E-2	+6.59266E-2
+1.35070E+1	+3.73986E-1	+8.73538E-2	+6.72490E-2
+1.35217E+1	+3.87019E-1	+8.94900E-2	+6.84975E-2
+1.35365E+1	+4.00064E-1	+8.55990E-2	+6.96587E-2
+1.35512E+1	+4.12940E-1	+7.59097E-2	+7.07586E-2
+1.35660E+1	+4.25821E-1	+7.25528E-2	+7.17921E-2
+1.35807E+1	+4.38530E-1	+6.24820E-2	+7.27765E-2
+1.35954E+1	+4.51152E-1	+6.06509E-2	+7.36992E-2
+1.36102E+1	+4.63770E-1	+5.07327E-2	+7.45608E-2
+1.36249E+1	+4.76209E-1	+5.51577E-2	+7.54046E-2
+1.36397E+1	+4.88638E-1	+4.84439E-2	+7.61789E-2
+1.36544E+1	+5.00885E-1	+4.37899E-2	+7.69204E-2
+1.36692E+1	+5.13116E-1	+4.89779E-2	+7.76164E-2
+1.36839E+1	+5.25161E-1	+3.94412E-2	+7.82774E-2
+1.36987E+1	+5.37183E-1	+3.97464E-2	+7.89218E-2
+1.37134E+1	+5.49016E-1	+3.02096E-2	+7.95119E-2
+1.37282E+1	+5.60820E-1	+2.86074E-2	+8.00884E-2
+1.37429E+1	+5.72433E-1	+1.89944E-2	+8.06375E-2
+1.37576E+1	+5.83931E-1	+2.09018E-2	+8.11649E-2
+1.37724E+1	+5.95391E-1	+1.99099E-2	+8.16494E-2
+1.37871E+1	+6.06655E-1	+3.25747E-2	+8.21141E-2
+1.38019E+1	+6.17873E-1	+4.43240E-2	+8.25509E-2
+1.38166E+1	+6.28893E-1	+4.62313E-2	+8.29512E-2
+1.38314E+1	+6.39862E-1	+3.12014E-2	+8.33383E-2
+1.38461E+1	+6.50628E-1	+1.59426E-2	+8.37245E-2
+1.38609E+1	+6.61338E-1	+1.68582E-2	+8.41154E-2
+1.38756E+1	+6.71843E-1	+3.13540E-2	+8.44607E-2
+1.38904E+1	+6.82285E-1	+2.41824E-2	+8.47867E-2
+1.39051E+1	+6.92520E-1	+1.66293E-2	+8.51003E-2
+1.39198E+1	+7.02618E-1	+1.85366E-2	+8.54069E-2
+1.39346E+1	+7.12644E-1	+1.95285E-2	+8.56829E-2
+1.39493E+1	+7.22460E-1	+1.79263E-2	+8.59706E-2
+1.39641E+1	+7.32197E-1	+2.07492E-2	+8.62378E-2
+1.39788E+1	+7.41723E-1	+2.09780E-2	+8.64869E-2
+1.39936E+1	+7.51165E-1	+1.62478E-2	+8.67372E-2
+1.40083E+1	+7.60394E-1	+8.84731E-3	+8.69620E-2
+1.40231E+1	+7.69532E-1	+1.76211E-2	+8.71944E-2
+1.40378E+1	+7.78456E-1	+1.31198E-2	+8.74084E-2
+1.40526E+1	+7.87284E-1	+1.56375E-2	+8.76125E-2
+1.40673E+1	+7.95895E-1	+1.17465E-2	+8.78004E-2
+1.40820E+1	+8.04348E-1	+1.31961E-2	+8.79812E-2
+1.40968E+1	+8.12698E-1	+1.19754E-2	+8.81654E-2
+1.41115E+1	+8.20829E-1	+1.30435E-2	+8.83383E-2
+1.41263E+1	+8.28850E-1	+1.40353E-2	+8.84932E-2
+1.41410E+1	+8.36653E-1	+6.55849E-3	+8.86604E-2
+1.41558E+1	+8.44340E-1	+8.69472E-3	+8.88078E-2
+1.41705E+1	+8.51808E-1	+3.12527E-3	+8.89505E-2
+1.41853E+1	+8.59155E-1	+1.11361E-2	+8.90889E-2
+1.42000E+1	+8.66281E-1	+7.39773E-3	+8.92264E-2
+1.42148E+1	+8.73282E-1	+7.85549E-3	+8.93499E-2
+1.42295E+1	+8.80061E-1	+8.61843E-3	+8.94765E-2
+1.42442E+1	+8.86666E-1	+8.77102E-3	+8.95857E-2
+1.42590E+1	+8.93138E-1	+2.74380E-3	+8.96941E-2
+1.42737E+1	+8.99388E-1	+7.16885E-3	+8.98002E-2
+1.42885E+1	+9.05500E-1	+8.92361E-3	+8.99014E-2
+1.43032E+1	+9.11391E-1	+4.57485E-3	+8.99951E-2
+1.43180E+1	+9.17138E-1	+3.43044E-3	+9.00894E-2
+1.43327E+1	+9.22664E-1	+7.70290E-3	+9.01767E-2
+1.43475E+1	+9.28043E-1	+7.70290E-3	+9.02679E-2
+1.43622E+1	+9.33200E-1	+7.85549E-3	+9.03357E-2
+1.43770E+1	+9.38205E-1	+4.49856E-3	+9.04142E-2
+1.43917E+1	+9.42989E-1	+1.44680E-3	+9.04806E-2
+1.44065E+1	+9.47616E-1	+4.26968E-3	+9.05493E-2
+1.44212E+1	+9.52024E-1	+3.73562E-3	+9.06161E-2
+1.44359E+1	+9.56242E-1	+3.43044E-3	+9.06767E-2
+1.44507E+1	+9.60297E-1	+4.80373E-3	+9.07264E-2
+1.44654E+1	+9.64133E-1	+6.83860E-4	+9.07800E-2
+1.44802E+1	+9.67802E-1	+1.14162E-3	+9.08261E-2
+1.44949E+1	+9.71253E-1	+6.32961E-3	+9.08782E-2
+1.45097E+1	+9.74533E-1	-9.18312E-4	+9.09206E-2
+1.45244E+1	+9.77597E-1	-3.43601E-3	+9.09637E-2
+1.45392E+1	+9.80485E-1	+2.97268E-3	+9.09984E-2
+1.45539E+1	+9.83158E-1	+8.00808E-3	+9.10197E-2
+1.45687E+1	+9.85652E-1	-1.75755E-3	+9.10675E-2
+1.45834E+1	+9.87933E-1	-1.45237E-3	+9.10829E-2
+1.45981E+1	+9.90018E-1	+5.49038E-3	+9.10977E-2
+1.46129E+1	+9.91918E-1	+9.89036E-4	+9.11112E-2
+1.46276E+1	+9.93608E-1	+7.35089E-5	+9.11267E-2
+1.46424E+1	+9.95109E-1	+1.29421E-3	+9.11419E-2
+1.46571E+1	+9.96403E-1	-1.60496E-3	+9.11524E-2
+1.46719E+1	+9.97505E-1	+1.67568E-3	+9.11648E-2
+1.46866E+1	+9.98401E-1	+8.92361E-3	+9.11670E-2
+1.47014E+1	+9.99102E-1	+4.65115E-3	+9.11621E-2
+1.47161E+1	+9.99600E-1	-3.13084E-3	+9.11621E-2
+1.47309E+1	+9.99901E-1	+1.14162E-3	+9.11605E-2
