+0.00000E+0	+0.00000E+0	-8.16624E-3	-4.08312E-7
+1.47000E-2	+1.40930E-2	+1.66318E-1	+9.86005E-4
+2.95000E-2	+2.82790E-2	+1.66547E-1	+2.99475E-3
+4.42000E-2	+4.23635E-2	+1.83179E-1	+5.23053E-3
+5.90000E-2	+5.65354E-2	+1.61969E-1	+7.58967E-3
+7.37000E-2	+7.06002E-2	+1.59528E-1	+1.00952E-2
+8.85000E-2	+8.47465E-2	+1.48389E-1	+1.25213E-2
+1.03200E-1	+9.87804E-2	+1.74100E-1	+1.50219E-2
+1.18000E-1	+1.12890E-1	+1.80890E-1	+1.75153E-2
+1.32700E-1	+1.26882E-1	+1.70209E-1	+1.99794E-2
+1.47500E-1	+1.40943E-1	+1.58078E-1	+2.23668E-2
+1.62200E-1	+1.54881E-1	+1.44116E-1	+2.47113E-2
+1.76900E-1	+1.68789E-1	+1.34580E-1	+2.70294E-2
+1.91700E-1	+1.82757E-1	+1.29468E-1	+2.92620E-2
+2.06400E-1	+1.96595E-1	+1.42896E-1	+3.14775E-2
+2.21200E-1	+2.10487E-1	+1.54340E-1	+3.35740E-2
+2.35900E-1	+2.24243E-1	+1.44879E-1	+3.56506E-2
+2.50700E-1	+2.38048E-1	+1.24433E-1	+3.76379E-2
+2.65400E-1	+2.51712E-1	+1.00553E-1	+3.95691E-2
+2.80200E-1	+2.65419E-1	+1.06885E-1	+4.14376E-2
+2.94900E-1	+2.78980E-1	+1.12226E-1	+4.32563E-2
+3.09700E-1	+2.92577E-1	+1.42743E-1	+4.50796E-2
+3.24400E-1	+3.06025E-1	+1.52051E-1	+4.68193E-2
+3.39100E-1	+3.19411E-1	+1.31604E-1	+4.85155E-2
+3.53900E-1	+3.32825E-1	+9.90268E-2	+5.00980E-2
+3.68600E-1	+3.46081E-1	+7.03402E-2	+5.15892E-2
+3.83400E-1	+3.59358E-1	+7.95718E-2	+5.29939E-2
+3.98100E-1	+3.72474E-1	+8.72012E-2	+5.44183E-2
+4.12900E-1	+3.85605E-1	+9.51358E-2	+5.58126E-2
+4.27600E-1	+3.98569E-1	+8.39968E-2	+5.71363E-2
+4.42400E-1	+4.11542E-1	+9.92556E-2	+5.84342E-2
+4.57100E-1	+4.24346E-1	+9.20840E-2	+5.96947E-2
+4.71900E-1	+4.37151E-1	+9.06344E-2	+6.09218E-2
+4.86600E-1	+4.49783E-1	+8.36917E-2	+6.20791E-2
+5.01400E-1	+4.62410E-1	+6.85855E-2	+6.31938E-2
+5.16100E-1	+4.74860E-1	+7.36972E-2	+6.42334E-2
+5.30800E-1	+4.87215E-1	+5.86673E-2	+6.52803E-2
+5.45600E-1	+4.99557E-1	+6.17190E-2	+6.62051E-2
+5.60300E-1	+5.11716E-1	+5.68362E-2	+6.71347E-2
+5.75100E-1	+5.23855E-1	+5.91250E-2	+6.80072E-2
+5.89800E-1	+5.35807E-1	+5.18008E-2	+6.88645E-2
+6.04600E-1	+5.47734E-1	+5.23349E-2	+6.96753E-2
+6.19300E-1	+5.59470E-1	+4.95883E-2	+7.04404E-2
+6.34100E-1	+5.71174E-1	+5.42422E-2	+7.11916E-2
+6.48800E-1	+5.82685E-1	+5.97354E-2	+7.19027E-2
+6.63600E-1	+5.94158E-1	+5.48526E-2	+7.25639E-2
+6.78300E-1	+6.05435E-1	+4.76046E-2	+7.32030E-2
+6.93000E-1	+6.16591E-1	+3.73812E-2	+7.38158E-2
+7.07800E-1	+6.27700E-1	+2.02151E-2	+7.44468E-2
+7.22500E-1	+6.38608E-1	+2.51742E-2	+7.50675E-2
+7.37300E-1	+6.49463E-1	+5.08853E-2	+7.56306E-2
+7.52000E-1	+6.60114E-1	+5.96591E-2	+7.61412E-2
+7.66800E-1	+6.70706E-1	+3.04385E-2	+7.66403E-2
+7.81500E-1	+6.81093E-1	+1.28909E-2	+7.71814E-2
+7.96300E-1	+6.91413E-1	+3.34903E-2	+7.76714E-2
+8.11000E-1	+7.01526E-1	+4.59262E-2	+7.80851E-2
+8.25800E-1	+7.11567E-1	+1.23568E-2	+7.85220E-2
+8.40500E-1	+7.21398E-1	+2.92178E-2	+7.89620E-2
+8.55200E-1	+7.31086E-1	+2.99044E-2	+7.93313E-2
+8.70000E-1	+7.40694E-1	+1.85366E-2	+7.97224E-2
+8.84700E-1	+7.50088E-1	+3.22696E-2	+8.00789E-2
+8.99500E-1	+7.59396E-1	+1.54849E-2	+8.04369E-2
+9.14200E-1	+7.68490E-1	+2.78445E-2	+8.07603E-2
+9.29000E-1	+7.77492E-1	+2.50979E-2	+8.10818E-2
+9.43700E-1	+7.86278E-1	+2.09780E-2	+8.13727E-2
+9.58500E-1	+7.94965E-1	+1.64004E-2	+8.16667E-2
+9.73200E-1	+8.03436E-1	+2.17410E-2	+8.19307E-2
+9.88000E-1	+8.11803E-1	+1.96048E-2	+8.22006E-2
+1.00270E+0	+8.19952E-1	+1.13650E-2	+8.24444E-2
+1.01740E+0	+8.27938E-1	+1.56375E-2	+8.26771E-2
+1.03220E+0	+8.35812E-1	+1.53323E-2	+8.29140E-2
+1.04690E+0	+8.43466E-1	+8.31325E-3	+8.31372E-2
+1.06170E+0	+8.51003E-1	+1.55612E-2	+8.33441E-2
+1.07640E+0	+8.58320E-1	+1.25857E-2	+8.35448E-2
+1.09120E+0	+8.65514E-1	+1.83841E-2	+8.37363E-2
+1.10590E+0	+8.72487E-1	+1.51797E-2	+8.39303E-2
+1.12070E+0	+8.79332E-1	+6.25332E-3	+8.41086E-2
+1.13540E+0	+8.85956E-1	+1.11361E-2	+8.42666E-2
+1.15020E+0	+8.92447E-1	+1.22805E-2	+8.44361E-2
+1.16490E+0	+8.98717E-1	+1.22805E-2	+8.45882E-2
+1.17960E+0	+9.04807E-1	+9.30508E-3	+8.47387E-2
+1.19440E+0	+9.10758E-1	+1.03732E-2	+8.48717E-2
+1.20910E+0	+9.16487E-1	+1.15176E-2	+8.50116E-2
+1.22390E+0	+9.22072E-1	+3.73562E-3	+8.51299E-2
+1.23860E+0	+9.27434E-1	+6.40591E-3	+8.52498E-2
+1.25340E+0	+9.32647E-1	+5.94814E-3	+8.53689E-2
+1.26810E+0	+9.37639E-1	+8.69472E-3	+8.54659E-2
+1.28290E+0	+9.42477E-1	+9.91543E-3	+8.55801E-2
+1.29760E+0	+9.47094E-1	+8.16067E-3	+8.56677E-2
+1.31240E+0	+9.51553E-1	+1.15176E-2	+8.57594E-2
+1.32710E+0	+9.55792E-1	+1.08310E-2	+8.58407E-2
+1.34180E+0	+9.59841E-1	+3.88821E-3	+8.59299E-2
+1.35660E+0	+9.63725E-1	+1.30435E-2	+8.60146E-2
+1.37130E+0	+9.67391E-1	-2.21531E-3	+8.60785E-2
+1.38610E+0	+9.70887E-1	+1.98086E-3	+8.61462E-2
+1.40080E+0	+9.74166E-1	+1.17465E-2	+8.62061E-2
+1.41560E+0	+9.77273E-1	+8.08437E-3	+8.62692E-2
+1.43030E+0	+9.80163E-1	+6.17702E-3	+8.63120E-2
+1.44510E+0	+9.82877E-1	-5.57224E-3	+8.63709E-2
+1.45980E+0	+9.85376E-1	+2.26097E-4	+8.64057E-2
+1.47460E+0	+9.87694E-1	+1.38827E-2	+8.64477E-2
+1.48930E+0	+9.89800E-1	+8.16067E-3	+8.64834E-2
+1.50410E+0	+9.91722E-1	-1.98643E-3	+8.65157E-2
+1.51880E+0	+9.93433E-1	-5.11448E-3	+8.65336E-2
+1.53350E+0	+9.94947E-1	-2.67307E-3	+8.65548E-2
+1.54830E+0	+9.96271E-1	+1.37051E-3	+8.65826E-2
+1.56300E+0	+9.97388E-1	-5.72483E-3	+8.65892E-2
+1.57780E+0	+9.98313E-1	+6.83860E-4	+8.65872E-2
+1.59250E+0	+9.99032E-1	+3.35415E-3	+8.65980E-2
+1.60730E+0	+9.99556E-1	+6.07567E-4	+8.65975E-2
+1.62200E+0	+9.99876E-1	-3.07961E-4	+8.66159E-2
+1.63680E+0	+9.99999E-1	-8.42018E-4	+8.66003E-2
+1.65150E+0	+9.99921E-1	+1.06533E-3	+8.65946E-2
+1.66630E+0	+9.99642E-1	-2.44419E-3	+8.65800E-2
+1.68100E+0	+9.99166E-1	-8.42018E-4	+8.65637E-2
+1.69570E+0	+9.98491E-1	+2.20974E-3	+8.65528E-2
+1.71050E+0	+9.97612E-1	+8.36448E-4	+8.65306E-2
+1.72520E+0	+9.96539E-1	+5.03262E-3	+8.65161E-2
+1.74000E+0	+9.95260E-1	-2.97825E-3	+8.65032E-2
+1.75470E+0	+9.93790E-1	-1.98643E-3	+8.64710E-2
+1.76950E+0	+9.92111E-1	-5.49595E-3	+8.64545E-2
+1.78420E+0	+9.90246E-1	+5.41409E-3	+8.64278E-2
+1.79900E+0	+9.88170E-1	-5.64854E-3	+8.63983E-2
+1.81370E+0	+9.85910E-1	-1.09128E-2	+8.63641E-2
+1.82850E+0	+9.83437E-1	+5.49038E-3	+8.63327E-2
+1.84320E+0	+9.80785E-1	+1.34249E-2	+8.63234E-2
+1.85790E+0	+9.77938E-1	-1.45749E-2	+8.62672E-2
+1.87270E+0	+9.74876E-1	-9.18312E-4	+8.62384E-2
+1.88740E+0	+9.71640E-1	+1.44680E-3	+8.62049E-2
+1.90220E+0	+9.68187E-1	-7.86106E-3	+8.61628E-2
+1.91690E+0	+9.64565E-1	-2.90195E-3	+8.61188E-2
+1.93170E+0	+9.60724E-1	-1.91013E-3	+8.60713E-2
+1.94640E+0	+9.56717E-1	-6.18259E-3	+8.60177E-2
+1.96120E+0	+9.52492E-1	-2.44419E-3	+8.59698E-2
+1.97590E+0	+9.48105E-1	-4.96189E-3	+8.59145E-2
+1.99070E+0	+9.43498E-1	-3.43601E-3	+8.58561E-2
+2.00540E+0	+9.38734E-1	-4.12266E-3	+8.57976E-2
+2.02010E+0	+9.33784E-1	-1.05313E-2	+8.57316E-2
+2.03490E+0	+9.28613E-1	-3.51231E-3	+8.56606E-2
+2.04960E+0	+9.23291E-1	-8.92918E-3	+8.55936E-2
+2.06440E+0	+9.17749E-1	-2.13902E-3	+8.55147E-2
+2.07910E+0	+9.12060E-1	-6.89431E-4	+8.54303E-2
+2.09390E+0	+9.06150E-1	-7.86106E-3	+8.53495E-2
+2.10860E+0	+9.00099E-1	-1.24387E-2	+8.52621E-2
+2.12340E+0	+8.93827E-1	-1.04551E-2	+8.51721E-2
+2.13810E+0	+8.87419E-1	-6.25889E-3	+8.50793E-2
+2.15290E+0	+8.80789E-1	-2.06272E-3	+8.49823E-2
+2.16760E+0	+8.74028E-1	-1.02262E-2	+8.48754E-2
+2.18230E+0	+8.67094E-1	-5.72483E-3	+8.47646E-2
+2.19710E+0	+8.59939E-1	-6.25889E-3	+8.46463E-2
+2.21180E+0	+8.52660E-1	-1.12180E-2	+8.45204E-2
+2.22660E+0	+8.45161E-1	-7.25071E-3	+8.43921E-2
+2.24130E+0	+8.37544E-1	-1.21335E-2	+8.42641E-2
+2.25610E+0	+8.29708E-1	-6.94553E-3	+8.41215E-2
+2.27080E+0	+8.21759E-1	-1.70163E-2	+8.39731E-2
+2.28560E+0	+8.13591E-1	-1.14719E-3	+8.38151E-2
+2.30030E+0	+8.05316E-1	-1.86185E-2	+8.36563E-2
+2.31510E+0	+7.96823E-1	-1.20572E-2	+8.34842E-2
+2.32980E+0	+7.88228E-1	-1.06839E-2	+8.33096E-2
+2.34460E+0	+7.79418E-1	-1.67875E-2	+8.31211E-2
+2.35930E+0	+7.70511E-1	-9.38694E-3	+8.29246E-2
+2.37400E+0	+7.61451E-1	-1.25913E-2	+8.27180E-2
+2.38880E+0	+7.52177E-1	-1.28202E-2	+8.24994E-2
+2.40350E+0	+7.42815E-1	-1.61771E-2	+8.22675E-2
+2.41830E+0	+7.33241E-1	-1.31253E-2	+8.20426E-2
+2.43300E+0	+7.23586E-1	-1.47275E-2	+8.17861E-2
+2.44780E+0	+7.13719E-1	-2.31961E-2	+8.15185E-2
+2.46250E+0	+7.03777E-1	-9.38694E-3	+8.12420E-2
+2.47730E+0	+6.93626E-1	-2.26621E-2	+8.09551E-2
+2.49200E+0	+6.83406E-1	-2.70871E-2	+8.06657E-2
+2.50680E+0	+6.72978E-1	-2.23569E-2	+8.03430E-2
+2.52150E+0	+6.62488E-1	-2.04496E-2	+7.99924E-2
+2.53620E+0	+6.51865E-1	-3.13596E-2	+7.96441E-2
+2.55100E+0	+6.41040E-1	-2.84604E-2	+7.92907E-2
+2.56570E+0	+6.30159E-1	-1.42698E-2	+7.88953E-2
+2.58050E+0	+6.19079E-1	-1.75504E-2	+7.84627E-2
+2.59520E+0	+6.07950E-1	-4.18119E-2	+7.80324E-2
+2.61000E+0	+5.96623E-1	-5.09671E-2	+7.76059E-2
+2.62470E+0	+5.85254E-1	-3.32669E-2	+7.71658E-2
+2.63950E+0	+5.73690E-1	-1.51853E-2	+7.66438E-2
+2.65420E+0	+5.62090E-1	-1.32016E-2	+7.60911E-2
+2.66900E+0	+5.50298E-1	-2.75449E-2	+7.55114E-2
+2.68370E+0	+5.38476E-1	-4.59317E-2	+7.49345E-2
+2.69840E+0	+5.26547E-1	-5.72995E-2	+7.43262E-2
+2.71320E+0	+5.14432E-1	-4.95176E-2	+7.36871E-2
+2.72790E+0	+5.02295E-1	-5.24930E-2	+7.29929E-2
+2.74270E+0	+4.89976E-1	-4.98990E-2	+7.22902E-2
+2.75740E+0	+4.77642E-1	-5.77573E-2	+7.15191E-2
+2.77220E+0	+4.65128E-1	-5.85202E-2	+7.07274E-2
+2.78690E+0	+4.52606E-1	-6.00461E-2	+6.98776E-2
+2.80170E+0	+4.39908E-1	-5.32560E-2	+6.90235E-2
+2.81640E+0	+4.27208E-1	-7.02695E-2	+6.80757E-2
+2.83120E+0	+4.14336E-1	-5.99698E-2	+6.71125E-2
+2.84590E+0	+4.01469E-1	-7.01169E-2	+6.61063E-2
+2.86060E+0	+3.88522E-1	-8.51468E-2	+6.50575E-2
+2.87540E+0	+3.75408E-1	-8.69016E-2	+6.39023E-2
+2.89010E+0	+3.62309E-1	-9.47599E-2	+6.27245E-2
+2.90490E+0	+3.49048E-1	-8.70542E-2	+6.14810E-2
+2.91960E+0	+3.35806E-1	-8.94956E-2	+6.01939E-2
+2.93440E+0	+3.22408E-1	-7.53049E-2	+5.88619E-2
+2.94910E+0	+3.09035E-1	-8.58335E-2	+5.74778E-2
+2.96390E+0	+2.95510E-1	-9.53702E-2	+5.60370E-2
+2.97860E+0	+2.82017E-1	-9.88034E-2	+5.45127E-2
+2.99340E+0	+2.68376E-1	-1.03763E-1	+5.29364E-2
+3.00810E+0	+2.54773E-1	-1.20776E-1	+5.12857E-2
+3.02280E+0	+2.41120E-1	-1.50531E-1	+4.95715E-2
+3.03760E+0	+2.27325E-1	-1.54803E-1	+4.77001E-2
+3.05230E+0	+2.13579E-1	-1.49081E-1	+4.57931E-2
+3.06710E+0	+1.99696E-1	-1.37103E-1	+4.38405E-2
+3.08180E+0	+1.85867E-1	-1.40002E-1	+4.17951E-2
+3.09660E+0	+1.71906E-1	-1.19250E-1	+3.96872E-2
+3.11130E+0	+1.58006E-1	-1.24209E-1	+3.74876E-2
+3.12610E+0	+1.43980E-1	-1.53354E-1	+3.51952E-2
+3.14080E+0	+1.30019E-1	-1.69909E-1	+3.27648E-2
+3.15560E+0	+1.15938E-1	-1.87838E-1	+3.01970E-2
+3.17030E+0	+1.01928E-1	-1.86847E-1	+2.75846E-2
+3.18500E+0	+8.78986E-2	-1.98291E-1	+2.48357E-2
+3.19980E+0	+7.37558E-2	-1.82574E-1	+2.20769E-2
+3.21450E+0	+5.96939E-2	-1.79828E-1	+1.92911E-2
+3.22930E+0	+4.55243E-2	-1.97986E-1	+1.65093E-2
+3.24400E+0	+3.14414E-2	-1.93561E-1	+1.36354E-2
+3.25880E+0	+1.72564E-2	-2.03784E-1	+1.07651E-2
+3.27350E+0	+3.16383E-3	-1.94781E-1	+7.96573E-3
+3.28830E+0	-1.10253E-2	-1.89670E-1	+5.08033E-3
+3.30300E+0	-2.51163E-2	-1.76318E-1	+2.23518E-3
+3.31780E+0	-3.92981E-2	-1.82116E-1	-5.80930E-4
+3.33250E+0	-5.33763E-2	-2.02868E-1	-3.33530E-3
+3.34730E+0	-6.75396E-2	-1.92950E-1	-6.13037E-3
+3.36200E+0	-8.15937E-2	-1.92187E-1	-8.82661E-3
+3.37670E+0	-9.56316E-2	-1.80285E-1	-1.14187E-2
+3.39150E+0	-1.09746E-1	-1.63272E-1	-1.40414E-2
+3.40620E+0	-1.23743E-1	-1.58923E-1	-1.65208E-2
+3.42100E+0	-1.37810E-1	-1.62280E-1	-1.90046E-2
+3.43570E+0	-1.51755E-1	-1.80438E-1	-2.14118E-2
+3.45050E+0	-1.65764E-1	-1.80209E-1	-2.37778E-2
+3.46520E+0	-1.79646E-1	-1.68994E-1	-2.60937E-2
+3.48000E+0	-1.93586E-1	-1.46716E-1	-2.82850E-2
+3.49470E+0	-2.07393E-1	-1.25125E-1	-3.04456E-2
+3.50950E+0	-2.21252E-1	-1.26117E-1	-3.25024E-2
+3.52420E+0	-2.34974E-1	-1.35577E-1	-3.45142E-2
+3.53890E+0	-2.48649E-1	-1.59839E-1	-3.64923E-2
+3.55370E+0	-2.62367E-1	-1.52133E-1	-3.84625E-2
+3.56840E+0	-2.75940E-1	-1.35196E-1	-4.03571E-2
+3.58320E+0	-2.89551E-1	-1.06814E-1	-4.21301E-2
+3.59790E+0	-3.03011E-1	-9.30051E-2	-4.38553E-2
+3.61270E+0	-3.16502E-1	-8.37735E-2	-4.54827E-2
+3.62740E+0	-3.29839E-1	-9.40732E-2	-4.70788E-2
+3.64220E+0	-3.43201E-1	-1.18106E-1	-4.86447E-2
+3.65690E+0	-3.56404E-1	-1.25354E-1	-5.02171E-2
+3.67170E+0	-3.69625E-1	-1.23370E-1	-5.17270E-2
+3.68640E+0	-3.82683E-1	-9.78116E-2	-5.31516E-2
+3.70110E+0	-3.95666E-1	-8.98008E-2	-5.44874E-2
+3.71590E+0	-4.08657E-1	-8.33921E-2	-5.58273E-2
+3.73060E+0	-4.21479E-1	-7.88144E-2	-5.71146E-2
+3.74540E+0	-4.34303E-1	-6.57682E-2	-5.83191E-2
+3.76010E+0	-4.46955E-1	-6.29453E-2	-5.94973E-2
+3.77490E+0	-4.59602E-1	-7.27109E-2	-6.06254E-2
+3.78960E+0	-4.72073E-1	-5.98935E-2	-6.17210E-2
+3.80440E+0	-4.84534E-1	-7.17191E-2	-6.27394E-2
+3.81910E+0	-4.96814E-1	-5.94358E-2	-6.37557E-2
+3.83390E+0	-5.09078E-1	-6.59970E-2	-6.47103E-2
+3.84860E+0	-5.21157E-1	-5.65366E-2	-6.56540E-2
+3.86330E+0	-5.33133E-1	-5.70707E-2	-6.65183E-2
+3.87810E+0	-5.45084E-1	-4.78391E-2	-6.73855E-2
+3.89280E+0	-5.56845E-1	-5.08908E-2	-6.82018E-2
+3.90760E+0	-5.68574E-1	-3.62424E-2	-6.89940E-2
+3.92230E+0	-5.80111E-1	-4.70761E-2	-6.97385E-2
+3.93710E+0	-5.91610E-1	-3.76157E-2	-7.04691E-2
+3.95180E+0	-6.02914E-1	-5.07383E-2	-7.11657E-2
+3.96660E+0	-6.14173E-1	-5.82151E-2	-7.18342E-2
+3.98130E+0	-6.25234E-1	-5.56211E-2	-7.24335E-2
+3.99610E+0	-6.36244E-1	-4.12778E-2	-7.30171E-2
+4.01080E+0	-6.47054E-1	-1.99155E-2	-7.36301E-2
+4.02550E+0	-6.57734E-1	-2.85367E-2	-7.42074E-2
+4.04030E+0	-6.68356E-1	-5.45530E-2	-7.47388E-2
+4.05500E+0	-6.78773E-1	-4.53977E-2	-7.51991E-2
+4.06980E+0	-6.89124E-1	-1.25913E-2	-7.56942E-2
+4.08450E+0	-6.99268E-1	-2.26621E-2	-7.62078E-2
+4.09930E+0	-7.09340E-1	-4.78391E-2	-7.66324E-2
+4.11400E+0	-7.19204E-1	-2.25858E-2	-7.70391E-2
+4.12880E+0	-7.28990E-1	-2.08310E-2	-7.74776E-2
+4.14350E+0	-7.38564E-1	-3.34958E-2	-7.78585E-2
+4.15830E+0	-7.48056E-1	-2.09073E-2	-7.82573E-2
+4.17300E+0	-7.57334E-1	-2.66294E-2	-7.86044E-2
+4.18780E+0	-7.66524E-1	-1.87711E-2	-7.89637E-2
+4.20250E+0	-7.75498E-1	-2.86893E-2	-7.92920E-2
+4.21720E+0	-7.84319E-1	-2.23569E-2	-7.96189E-2
+4.23200E+0	-7.93042E-1	-2.02207E-2	-7.99218E-2
+4.24670E+0	-8.01548E-1	-1.65586E-2	-8.02291E-2
+4.26150E+0	-8.09951E-1	-1.21335E-2	-8.05175E-2
+4.27620E+0	-8.18136E-1	-2.07547E-2	-8.07908E-2
+4.29100E+0	-8.26213E-1	-1.85422E-2	-8.10622E-2
+4.30570E+0	-8.34070E-1	-1.17521E-2	-8.13239E-2
+4.32050E+0	-8.41814E-1	-1.86948E-2	-8.15655E-2
+4.33520E+0	-8.49337E-1	-1.77793E-2	-8.18135E-2
+4.35000E+0	-8.56741E-1	-2.22043E-2	-8.20461E-2
+4.36470E+0	-8.63925E-1	-1.40409E-2	-8.22656E-2
+4.37940E+0	-8.70936E-1	-3.89378E-3	-8.24627E-2
+4.39420E+0	-8.77821E-1	-1.56430E-2	-8.26506E-2
+4.40890E+0	-8.84484E-1	-1.82370E-2	-8.28634E-2
+4.42370E+0	-8.91015E-1	-1.13706E-2	-8.30490E-2
+4.43840E+0	-8.97325E-1	-9.84470E-3	-8.32271E-2
+4.45320E+0	-9.03497E-1	-9.53953E-3	-8.33930E-2
+4.46790E+0	-9.09447E-1	-1.23624E-2	-8.35623E-2
+4.48270E+0	-9.15256E-1	-5.19077E-3	-8.37214E-2
+4.49740E+0	-9.20842E-1	-1.44986E-2	-8.38671E-2
+4.51220E+0	-9.26283E-1	-1.15995E-2	-8.40045E-2
+4.52690E+0	-9.31501E-1	-1.06076E-2	-8.41577E-2
+4.54160E+0	-9.36535E-1	-2.97825E-3	-8.42827E-2
+4.55640E+0	-9.41415E-1	-1.24387E-2	-8.44142E-2
+4.57110E+0	-9.46074E-1	-1.09128E-2	-8.45261E-2
+4.58590E+0	-9.50575E-1	-1.28965E-2	-8.46373E-2
+4.60060E+0	-9.54857E-1	-3.89378E-3	-8.47541E-2
+4.61540E+0	-9.58976E-1	-5.57224E-3	-8.48587E-2
+4.63010E+0	-9.62876E-1	-1.65586E-2	-8.49539E-2
+4.64490E+0	-9.66609E-1	-2.97825E-3	-8.50513E-2
+4.65960E+0	-9.70124E-1	-5.26707E-3	-8.51297E-2
+4.67440E+0	-9.73469E-1	-9.61582E-3	-8.52188E-2
+4.68910E+0	-9.76597E-1	-9.23435E-3	-8.52937E-2
+4.70380E+0	-9.79531E-1	-1.26676E-2	-8.53722E-2
+4.71860E+0	-9.82289E-1	+3.20156E-3	-8.54402E-2
+4.73330E+0	-9.84832E-1	-1.70926E-2	-8.55138E-2
+4.74810E+0	-9.87195E-1	-6.10630E-3	-8.55889E-2
+4.76280E+0	-9.89345E-1	-9.92100E-3	-8.56397E-2
+4.77760E+0	-9.91311E-1	-2.82566E-3	-8.56786E-2
+4.79230E+0	-9.93066E-1	-1.09128E-2	-8.57205E-2
+4.80710E+0	-9.94634E-1	-1.41172E-2	-8.57698E-2
+4.82180E+0	-9.95993E-1	+1.44680E-3	-8.58051E-2
+4.83660E+0	-9.97162E-1	-4.65672E-3	-8.58483E-2
+4.85130E+0	-9.98124E-1	-3.81748E-3	-8.58766E-2
+4.86600E+0	-9.98888E-1	-7.90790E-5	-8.58975E-2
+4.88080E+0	-9.99456E-1	-4.58042E-3	-8.59261E-2
+4.89550E+0	-9.99822E-1	+2.05715E-3	-8.59366E-2
+4.91030E+0	-9.99989E-1	-4.04636E-3	-8.59604E-2
+4.92500E+0	-9.99956E-1	-6.89431E-4	-8.59729E-2
+4.93980E+0	-9.99722E-1	+5.41409E-3	-8.59763E-2
+4.95450E+0	-9.99290E-1	-3.58860E-3	-8.59887E-2
+4.96930E+0	-9.98655E-1	+5.33779E-3	-8.59983E-2
+4.98400E+0	-9.97825E-1	-5.19077E-3	-8.59987E-2
+4.99880E+0	-9.96790E-1	+3.50674E-3	-8.60042E-2
+5.01350E+0	-9.95562E-1	+8.38955E-3	-8.60048E-2
+5.02820E+0	-9.94137E-1	-1.39646E-2	-8.60005E-2
+5.04300E+0	-9.92503E-1	+1.14162E-3	-8.60080E-2
+5.05770E+0	-9.90682E-1	+4.95632E-3	-8.59975E-2
+5.07250E+0	-9.88650E-1	-6.64036E-3	-8.59990E-2
+5.08720E+0	-9.86434E-1	-8.92918E-3	-8.59856E-2
+5.10200E+0	-9.84006E-1	-1.20572E-2	-8.59835E-2
+5.11670E+0	-9.81398E-1	+2.17410E-2	-8.59758E-2
+5.13150E+0	-9.78575E-1	-1.52616E-2	-8.59375E-2
+5.14620E+0	-9.75576E-1	+2.51492E-3	-8.59353E-2
+5.16100E+0	-9.72361E-1	-4.04636E-3	-8.59196E-2
+5.17570E+0	-9.68974E-1	+4.19338E-3	-8.59005E-2
+5.19050E+0	-9.65369E-1	+7.60154E-4	-8.58794E-2
+5.20520E+0	-9.61597E-1	-2.67307E-3	-8.58534E-2
+5.21990E+0	-9.57633E-1	+1.98086E-3	-8.58259E-2
+5.23470E+0	-9.53451E-1	+4.49856E-3	-8.57984E-2
+5.24940E+0	-9.49106E-1	+2.66750E-3	-8.57647E-2
+5.26420E+0	-9.44542E-1	+1.14162E-3	-8.57290E-2
+5.27890E+0	-9.39820E-1	+1.90456E-3	-8.56882E-2
+5.29370E+0	-9.34878E-1	+3.81191E-3	-8.56508E-2
+5.30840E+0	-9.29782E-1	+1.05258E-2	-8.55995E-2
+5.32320E+0	-9.24465E-1	+1.52309E-3	-8.55520E-2
+5.33790E+0	-9.19000E-1	+3.50674E-3	-8.54980E-2
+5.35270E+0	-9.13314E-1	+6.32961E-3	-8.54416E-2
+5.36740E+0	-9.07484E-1	+4.19338E-3	-8.53841E-2
+5.38210E+0	-9.01473E-1	+4.04079E-3	-8.53193E-2
+5.39690E+0	-8.95241E-1	+1.52309E-3	-8.52509E-2
+5.41160E+0	-8.88873E-1	+5.41409E-3	-8.51757E-2
+5.42640E+0	-8.82283E-1	+4.49856E-3	-8.50951E-2
+5.44110E+0	-8.75561E-1	-1.55373E-4	-8.50137E-2
+5.45590E+0	-8.68618E-1	+1.07547E-2	-8.49320E-2
+5.47060E+0	-8.61549E-1	+7.47402E-3	-8.48362E-2
+5.48540E+0	-8.54259E-1	+6.25332E-3	-8.47351E-2
+5.50010E+0	-8.46848E-1	+9.45766E-3	-8.46316E-2
+5.51490E+0	-8.39217E-1	+5.64297E-3	-8.45198E-2
+5.52960E+0	-8.31470E-1	+1.44168E-2	-8.44054E-2
+5.54430E+0	-8.23557E-1	+2.82009E-3	-8.42760E-2
+5.55910E+0	-8.15426E-1	+1.68582E-2	-8.41503E-2
+5.57380E+0	-8.07187E-1	+9.76284E-3	-8.40152E-2
+5.58860E+0	-7.98730E-1	+8.00808E-3	-8.38597E-2
+5.60330E+0	-7.90171E-1	+1.15939E-2	-8.37077E-2
+5.61810E+0	-7.81396E-1	+1.44168E-2	-8.35396E-2
+5.63280E+0	-7.72524E-1	+1.40353E-2	-8.33737E-2
+5.64760E+0	-7.63436E-1	+1.38827E-2	-8.31945E-2
+5.66230E+0	-7.54258E-1	+1.04495E-2	-8.30057E-2
+5.67710E+0	-7.44866E-1	+1.80789E-2	-8.28056E-2
+5.69180E+0	-7.35389E-1	+1.86892E-2	-8.25944E-2
+5.70650E+0	-7.25766E-1	+1.35012E-2	-8.23641E-2
+5.72130E+0	-7.15932E-1	+1.65530E-2	-8.21424E-2
+5.73600E+0	-7.06021E-1	+1.38827E-2	-8.18785E-2
+5.75080E+0	-6.95902E-1	+1.95285E-2	-8.16246E-2
+5.76550E+0	-6.85712E-1	+2.03677E-2	-8.13555E-2
+5.78030E+0	-6.75315E-1	+1.39590E-2	-8.10598E-2
+5.79500E+0	-6.64854E-1	+2.36483E-2	-8.07540E-2
+5.80980E+0	-6.54189E-1	+2.47927E-2	-8.04471E-2
+5.82450E+0	-6.43465E-1	+1.55612E-2	-8.01041E-2
+5.83930E+0	-6.32539E-1	+1.58664E-2	-7.97160E-2
+5.85400E+0	-6.21560E-1	+3.18881E-2	-7.93351E-2
+5.86870E+0	-6.10459E-1	+4.49343E-2	-7.89580E-2
+5.88350E+0	-5.99159E-1	+3.41006E-2	-7.85553E-2
+5.89820E+0	-5.87816E-1	+1.64767E-2	-7.80940E-2
+5.91300E+0	-5.76278E-1	+9.99172E-3	-7.76018E-2
+5.92770E+0	-5.64704E-1	+3.30325E-2	-7.70899E-2
+5.94250E+0	-5.52937E-1	+5.91250E-2	-7.65772E-2
+5.95720E+0	-5.41139E-1	+6.08035E-2	-7.60524E-2
+5.97200E+0	-5.29153E-1	+5.10379E-2	-7.54795E-2
+5.98670E+0	-5.17142E-1	+4.69180E-2	-7.48591E-2
+6.00150E+0	-5.04946E-1	+6.08798E-2	-7.42010E-2
+6.01620E+0	-4.92731E-1	+5.56155E-2	-7.35192E-2
+6.03100E+0	-4.80335E-1	+5.56155E-2	-7.27884E-2
+6.04570E+0	-4.67926E-1	+5.71414E-2	-7.20286E-2
+6.06040E+0	-4.55425E-1	+7.16372E-2	-7.12373E-2
+6.07520E+0	-4.42747E-1	+6.10324E-2	-7.03602E-2
+6.08990E+0	-4.30067E-1	+7.45364E-2	-6.94766E-2
+6.10470E+0	-4.17214E-1	+6.82040E-2	-6.85256E-2
+6.11940E+0	-4.04365E-1	+7.48416E-2	-6.75349E-2
+6.13420E+0	-3.91347E-1	+7.07217E-2	-6.64756E-2
+6.14890E+0	-3.78339E-1	+7.85800E-2	-6.54089E-2
+6.16370E+0	-3.65167E-1	+8.35391E-2	-6.42582E-2
+6.17840E+0	-3.52011E-1	+8.52938E-2	-6.30771E-2
+6.19320E+0	-3.38695E-1	+8.85745E-2	-6.17894E-2
+6.20790E+0	-3.25401E-1	+7.86563E-2	-6.05034E-2
+6.22260E+0	-3.12043E-1	+7.65200E-2	-5.91459E-2
+6.23740E+0	-2.98531E-1	+9.07870E-2	-5.77245E-2
+6.25210E+0	-2.85051E-1	+9.74246E-2	-5.62510E-2
+6.26690E+0	-2.71422E-1	+1.14972E-1	-5.46887E-2
+6.28160E+0	-2.57831E-1	+1.23365E-1	-5.30657E-2
+6.29640E+0	-2.44096E-1	+1.39234E-1	-5.13133E-2
+6.31110E+0	-2.30405E-1	+1.56781E-1	-4.95204E-2
+6.32590E+0	-2.16575E-1	+1.53043E-1	-4.75907E-2
+6.34060E+0	-2.02795E-1	+1.31452E-1	-4.56311E-2
+6.35540E+0	-1.88880E-1	+1.06961E-1	-4.36133E-2
+6.37010E+0	-1.75022E-1	+1.15277E-1	-4.15562E-2
+6.38480E+0	-1.61129E-1	+1.17566E-1	-3.94027E-2
+6.39960E+0	-1.47110E-1	+1.40454E-1	-3.71023E-2
+6.41430E+0	-1.33156E-1	+1.63343E-1	-3.47486E-2
+6.42910E+0	-1.19080E-1	+1.89588E-1	-3.21341E-2
+6.44380E+0	-1.05075E-1	+1.89206E-1	-2.94719E-2
+6.45860E+0	-9.09542E-2	+1.74329E-1	-2.66985E-2
+6.47330E+0	-7.69106E-2	+1.85468E-1	-2.39167E-2
+6.48810E+0	-6.27561E-2	+1.75168E-1	-2.10755E-2
+6.50280E+0	-4.86846E-2	+1.87833E-1	-1.81800E-2
+6.51760E+0	-3.45077E-2	+2.08814E-1	-1.53026E-2
+6.53230E+0	-2.04197E-2	+2.11866E-1	-1.23261E-2
+6.54700E+0	-6.32763E-3	+2.05533E-1	-9.37383E-3
+6.56180E+0	+7.86157E-3	+1.71582E-1	-6.46833E-3
+6.57650E+0	+2.19533E-2	+1.85773E-1	-3.56017E-3
+6.59130E+0	+3.61366E-2	+1.80280E-1	-6.91144E-4
+6.60600E+0	+5.02167E-2	+1.93936E-1	+2.21089E-3
+6.62080E+0	+6.43826E-2	+2.05304E-1	+5.03500E-3
+6.63550E+0	+7.84400E-2	+1.92945E-1	+7.85275E-3
+6.65030E+0	+9.25772E-2	+1.91190E-1	+1.06124E-2
+6.66500E+0	+1.06600E-1	+1.68912E-1	+1.32630E-2
+6.67980E+0	+1.20698E-1	+1.63953E-1	+1.58788E-2
+6.69450E+0	+1.34676E-1	+1.64563E-1	+1.84105E-2
+6.70920E+0	+1.48627E-1	+1.88214E-1	+2.09496E-2
+6.72400E+0	+1.62643E-1	+1.83713E-1	+2.34062E-2
+6.73870E+0	+1.76532E-1	+1.72422E-1	+2.58266E-2
+6.75350E+0	+1.90481E-1	+1.53882E-1	+2.81612E-2
+6.76820E+0	+2.04297E-1	+1.37555E-1	+3.03530E-2
+6.78300E+0	+2.18166E-1	+1.32825E-1	+3.25069E-2
+6.79770E+0	+2.31898E-1	+1.37860E-1	+3.45671E-2
+6.81250E+0	+2.45676E-1	+1.62274E-1	+3.66660E-2
+6.82720E+0	+2.59313E-1	+1.67615E-1	+3.86678E-2
+6.84200E+0	+2.72990E-1	+1.41370E-1	+4.06593E-2
+6.85670E+0	+2.86521E-1	+1.11920E-1	+4.25177E-2
+6.87140E+0	+2.99995E-1	+8.58279E-2	+4.42630E-2
+6.88620E+0	+3.13500E-1	+9.94082E-2	+4.59405E-2
+6.90090E+0	+3.26851E-1	+1.11997E-1	+4.76012E-2
+6.91570E+0	+3.40228E-1	+1.28705E-1	+4.92745E-2
+6.93040E+0	+3.53446E-1	+1.24738E-1	+5.08766E-2
+6.94520E+0	+3.66684E-1	+1.13446E-1	+5.24403E-2
+6.95990E+0	+3.79759E-1	+9.96371E-2	+5.38973E-2
+6.97470E+0	+3.92846E-1	+9.65091E-2	+5.53330E-2
+6.98940E+0	+4.05767E-1	+9.36099E-2	+5.66600E-2
+7.00420E+0	+4.18695E-1	+8.15554E-2	+5.79747E-2
+7.01890E+0	+4.31451E-1	+7.39260E-2	+5.92091E-2
+7.03370E+0	+4.44208E-1	+6.85855E-2	+6.04354E-2
+7.04840E+0	+4.56790E-1	+6.75937E-2	+6.15534E-2
+7.06310E+0	+4.69282E-1	+6.40078E-2	+6.26826E-2
+7.07790E+0	+4.81764E-1	+6.17953E-2	+6.37423E-2
+7.09260E+0	+4.94066E-1	+5.85147E-2	+6.47789E-2
+7.10740E+0	+5.06352E-1	+5.14193E-2	+6.57341E-2
+7.12210E+0	+5.18454E-1	+5.41659E-2	+6.66832E-2
+7.13690E+0	+5.30535E-1	+5.01986E-2	+6.75876E-2
+7.15160E+0	+5.42429E-1	+4.36374E-2	+6.84539E-2
+7.16640E+0	+5.54294E-1	+4.64602E-2	+6.92768E-2
+7.18110E+0	+5.65969E-1	+3.53213E-2	+7.00858E-2
+7.19590E+0	+5.77610E-1	+4.82913E-2	+7.08456E-2
+7.21060E+0	+5.89057E-1	+5.01986E-2	+7.15731E-2
+7.22530E+0	+6.00386E-1	+5.43948E-2	+7.22405E-2
+7.24010E+0	+6.11673E-1	+5.82095E-2	+7.28915E-2
+7.25480E+0	+6.22761E-1	+3.51687E-2	+7.34938E-2
+7.26960E+0	+6.33800E-1	+2.54794E-2	+7.41222E-2
+7.28430E+0	+6.44638E-1	+2.87600E-2	+7.47167E-2
+7.29910E+0	+6.55420E-1	+5.05801E-2	+7.52663E-2
+7.31380E+0	+6.65999E-1	+5.54629E-2	+7.57655E-2
+7.32860E+0	+6.76516E-1	+2.75393E-2	+7.62554E-2
+7.34330E+0	+6.86828E-1	+7.77920E-3	+7.67882E-2
+7.35810E+0	+6.97071E-1	+3.67709E-2	+7.72544E-2
+7.37280E+0	+7.07107E-1	+3.86782E-2	+7.76542E-2
+7.38750E+0	+7.17002E-1	+1.91470E-2	+7.80791E-2
+7.40230E+0	+7.26820E-1	+3.27273E-2	+7.84962E-2
+7.41700E+0	+7.36428E-1	+1.72396E-2	+7.88653E-2
+7.43180E+0	+7.45952E-1	+2.09018E-2	+7.92537E-2
+7.44650E+0	+7.55264E-1	+2.37246E-2	+7.95893E-2
+7.46130E+0	+7.64488E-1	+1.65530E-2	+7.99397E-2
+7.47600E+0	+7.73497E-1	+2.17410E-2	+8.02495E-2
+7.49080E+0	+7.82412E-1	+1.84603E-2	+8.05832E-2
+7.50550E+0	+7.91111E-1	+2.05203E-2	+8.08542E-2
+7.52030E+0	+7.99710E-1	+2.31906E-2	+8.11434E-2
+7.53500E+0	+8.08092E-1	+1.16702E-2	+8.14108E-2
+7.54970E+0	+8.16313E-1	+1.44168E-2	+8.16533E-2
+7.56450E+0	+8.24427E-1	+1.48745E-2	+8.19104E-2
+7.57920E+0	+8.32321E-1	+1.18228E-2	+8.21456E-2
+7.59400E+0	+8.40102E-1	+1.22805E-2	+8.23609E-2
+7.60870E+0	+8.47663E-1	+2.04440E-2	+8.25768E-2
+7.62350E+0	+8.55105E-1	+1.47219E-2	+8.27974E-2
+7.63820E+0	+8.62327E-1	+1.05258E-2	+8.29808E-2
+7.65300E+0	+8.69425E-1	+1.42642E-2	+8.31765E-2
+7.66770E+0	+8.76301E-1	+5.41409E-3	+8.33507E-2
+7.68250E+0	+8.83049E-1	+1.02969E-2	+8.35182E-2
+7.69720E+0	+8.89574E-1	+1.80026E-2	+8.36789E-2
+7.71190E+0	+8.95924E-1	+1.36538E-2	+8.38382E-2
+7.72670E+0	+9.02136E-1	+1.16702E-2	+8.39926E-2
+7.74140E+0	+9.08127E-1	+8.38955E-3	+8.41315E-2
+7.75620E+0	+9.13976E-1	+1.53323E-2	+8.42623E-2
+7.77090E+0	+9.19604E-1	+9.83913E-3	+8.43921E-2
+7.78570E+0	+9.25086E-1	-3.07961E-4	+8.45137E-2
+7.80040E+0	+9.30346E-1	+1.12887E-2	+8.46403E-2
+7.81520E+0	+9.35455E-1	+5.64297E-3	+8.47464E-2
+7.82990E+0	+9.40343E-1	+4.65115E-3	+8.48522E-2
+7.84470E+0	+9.45076E-1	+4.72744E-3	+8.49451E-2
+7.85940E+0	+9.49588E-1	+3.58303E-3	+8.50315E-2
+7.87420E+0	+9.53941E-1	+4.95632E-3	+8.51322E-2
+7.88890E+0	+9.58074E-1	+6.10073E-3	+8.52174E-2
+7.90360E+0	+9.62017E-1	+1.31961E-2	+8.52848E-2
+7.91840E+0	+9.65793E-1	+3.20156E-3	+8.53650E-2
+7.93310E+0	+9.69352E-1	+2.66750E-3	+8.54271E-2
+7.94790E+0	+9.72740E-1	+9.61025E-3	+8.54969E-2
+7.96260E+0	+9.75912E-1	+9.22878E-3	+8.55614E-2
+7.97740E+0	+9.78909E-1	+7.32143E-3	+8.56168E-2
+7.99210E+0	+9.81691E-1	+4.80373E-3	+8.56520E-2
+8.00690E+0	+9.84295E-1	+1.75198E-3	+8.57111E-2
+8.02160E+0	+9.86685E-1	-1.03025E-2	+8.57453E-2
+8.03640E+0	+9.88893E-1	-8.39512E-3	+8.57832E-2
+8.05110E+0	+9.90890E-1	+8.61843E-3	+8.58145E-2
+8.06580E+0	+9.92689E-1	-3.28342E-3	+8.58327E-2
+8.08060E+0	+9.94302E-1	+1.75198E-3	+8.58556E-2
+8.09530E+0	+9.95706E-1	-2.06272E-3	+8.58764E-2
+8.11010E+0	+9.96919E-1	+1.24331E-2	+8.59038E-2
+8.12480E+0	+9.97925E-1	-2.67307E-3	+8.59024E-2
+8.13960E+0	+9.98738E-1	-5.95371E-3	+8.59090E-2
+8.15430E+0	+9.99347E-1	-1.37608E-3	+8.59090E-2
+8.16910E+0	+9.99759E-1	-9.94606E-4	+8.58989E-2
+8.18380E+0	+9.99969E-1	+9.89036E-4	+8.59142E-2
+8.19860E+0	+9.99980E-1	-1.37608E-3	+8.59017E-2
+8.21330E+0	+9.99791E-1	-2.06272E-3	+8.58803E-2
+8.22800E+0	+9.99404E-1	+2.20974E-3	+8.58798E-2
+8.24280E+0	+9.98814E-1	-8.24253E-3	+8.58578E-2
+8.25750E+0	+9.98029E-1	-8.42018E-4	+8.58480E-2
+8.27230E+0	+9.97038E-1	+2.74380E-3	+8.58254E-2
+8.28700E+0	+9.95855E-1	+2.26097E-4	+8.58038E-2
+8.30180E+0	+9.94464E-1	+3.43044E-3	+8.57968E-2
+8.31650E+0	+9.92885E-1	-4.12266E-3	+8.57645E-2
+8.33130E+0	+9.91095E-1	+1.59939E-3	+8.57453E-2
+8.34600E+0	+9.89120E-1	-5.57224E-3	+8.57163E-2
+8.36080E+0	+9.86933E-1	-6.10630E-3	+8.56951E-2
+8.37550E+0	+9.84564E-1	-9.53953E-3	+8.56641E-2
+8.39020E+0	+9.82000E-1	-1.56430E-2	+8.56168E-2
+8.40500E+0	+9.79221E-1	+2.05966E-2	+8.56025E-2
+8.41970E+0	+9.76266E-1	-4.35154E-3	+8.55579E-2
+8.43450E+0	+9.73095E-1	+5.71926E-3	+8.55218E-2
+8.44920E+0	+9.69751E-1	-6.48777E-3	+8.54850E-2
+8.46400E+0	+9.66190E-1	-2.21531E-3	+8.54413E-2
+8.47870E+0	+9.62460E-1	+7.35089E-5	+8.53920E-2
+8.49350E+0	+9.58512E-1	-3.89378E-3	+8.53454E-2
+8.50820E+0	+9.54400E-1	-3.20713E-3	+8.52985E-2
+8.52300E+0	+9.50068E-1	-3.35972E-3	+8.52421E-2
+8.53770E+0	+9.45576E-1	+1.44680E-3	+8.51834E-2
+8.55240E+0	+9.40896E-1	+1.90456E-3	+8.51241E-2
+8.56720E+0	+9.35996E-1	+9.89036E-4	+8.50633E-2
+8.58190E+0	+9.30942E-1	-4.50413E-3	+8.50000E-2
+8.59670E+0	+9.25667E-1	-4.65672E-3	+8.49269E-2
+8.61140E+0	+9.20243E-1	-2.97825E-3	+8.48540E-2
+8.62620E+0	+9.14598E-1	-9.99729E-3	+8.47735E-2
+8.64090E+0	+9.08808E-1	-9.38694E-3	+8.46959E-2
+8.65570E+0	+9.02797E-1	-8.77659E-3	+8.46144E-2
+8.67040E+0	+8.96646E-1	-6.56406E-3	+8.45239E-2
+8.68520E+0	+8.90274E-1	-7.93736E-3	+8.44303E-2
+8.69990E+0	+8.83767E-1	-5.57224E-3	+8.43328E-2
+8.71460E+0	+8.77085E-1	-1.09128E-2	+8.42255E-2
+8.72940E+0	+8.70181E-1	-5.49595E-3	+8.41153E-2
+8.74410E+0	+8.63151E-1	-6.94553E-3	+8.40030E-2
+8.75890E+0	+8.55900E-1	-1.10654E-2	+8.38890E-2
+8.77360E+0	+8.48526E-1	-1.15995E-2	+8.37597E-2
+8.78840E+0	+8.40933E-1	-1.27439E-2	+8.36338E-2
+8.80310E+0	+8.33223E-1	-9.76841E-3	+8.34886E-2
+8.81790E+0	+8.25294E-1	-1.44986E-2	+8.33560E-2
+8.83260E+0	+8.17253E-1	-8.77659E-3	+8.31936E-2
+8.84740E+0	+8.08994E-1	-1.58719E-2	+8.30403E-2
+8.86210E+0	+8.00630E-1	-1.03788E-2	+8.28795E-2
+8.87690E+0	+7.92048E-1	-6.94553E-3	+8.26975E-2
+8.89160E+0	+7.83366E-1	-1.27439E-2	+8.25220E-2
+8.90630E+0	+7.74529E-1	-1.24387E-2	+8.23272E-2
+8.92110E+0	+7.65476E-1	-1.37357E-2	+8.21263E-2
+8.93580E+0	+7.56331E-1	-1.53379E-2	+8.19198E-2
+8.95060E+0	+7.46973E-1	-1.43460E-2	+8.16913E-2
+8.96530E+0	+7.37529E-1	-1.61771E-2	+8.14583E-2
+8.98010E+0	+7.27873E-1	-1.15232E-2	+8.12254E-2
+8.99480E+0	+7.18137E-1	-2.25858E-2	+8.09545E-2
+9.00960E+0	+7.08191E-1	-1.80845E-2	+8.06982E-2
+9.02430E+0	+6.98170E-1	-1.82370E-2	+8.04137E-2
+9.03910E+0	+6.87942E-1	-2.64768E-2	+8.01137E-2
+9.05380E+0	+6.77645E-1	-2.64005E-2	+7.98139E-2
+9.06850E+0	+6.67214E-1	-1.25913E-2	+7.94816E-2
+9.08330E+0	+6.56578E-1	-2.44168E-2	+7.91261E-2
+9.09800E+0	+6.45883E-1	-3.14359E-2	+7.87781E-2
+9.11280E+0	+6.34986E-1	-2.61716E-2	+7.84197E-2
+9.12750E+0	+6.24036E-1	-1.11417E-2	+7.80107E-2
+9.14230E+0	+6.12886E-1	-1.51090E-2	+7.75805E-2
+9.15700E+0	+6.01689E-1	-3.44114E-2	+7.71279E-2
+9.17180E+0	+5.90295E-1	-4.70761E-2	+7.66905E-2
+9.18650E+0	+5.78861E-1	-4.05149E-2	+7.62275E-2
+9.20130E+0	+5.67233E-1	-2.02207E-2	+7.57095E-2
+9.21600E+0	+5.55570E-1	-9.00547E-3	+7.51407E-2
+9.23070E+0	+5.43797E-1	-2.38828E-2	+7.45477E-2
+9.24550E+0	+5.31835E-1	-3.69291E-2	+7.39426E-2
+9.26020E+0	+5.19847E-1	-4.52451E-2	+7.33218E-2
+9.27500E+0	+5.07674E-1	-4.59317E-2	+7.26543E-2
+9.28970E+0	+4.95482E-1	-4.55503E-2	+7.19592E-2
+9.30450E+0	+4.83107E-1	-5.15012E-2	+7.12247E-2
+9.31920E+0	+4.70720E-1	-5.56211E-2	+7.04456E-2
+9.33400E+0	+4.58154E-1	-4.99753E-2	+6.96263E-2
+9.34870E+0	+4.45582E-1	-5.95884E-2	+6.87736E-2
+9.36350E+0	+4.32835E-1	-4.73813E-2	+6.78615E-2
+9.37820E+0	+4.20087E-1	-6.24875E-2	+6.69372E-2
+9.39290E+0	+4.07256E-1	-5.91306E-2	+6.59367E-2
+9.40770E+0	+3.94256E-1	-6.85910E-2	+6.49214E-2
+9.42240E+0	+3.81266E-1	-7.53049E-2	+6.38044E-2
+9.43720E+0	+3.68110E-1	-7.62967E-2	+6.26767E-2
+9.45190E+0	+3.54970E-1	-8.63675E-2	+6.14579E-2
+9.46670E+0	+3.41670E-1	-8.26291E-2	+6.02091E-2
+9.48140E+0	+3.28391E-1	-9.36917E-2	+5.88938E-2
+9.49620E+0	+3.14956E-1	-1.08340E-1	+5.75072E-2
+9.51090E+0	+3.01549E-1	-1.09637E-1	+5.60621E-2
+9.52570E+0	+2.87990E-1	-1.13147E-1	+5.45687E-2
+9.54040E+0	+2.74466E-1	-1.04602E-1	+5.29918E-2
+9.55510E+0	+2.60887E-1	-9.78879E-2	+5.13612E-2
+9.56990E+0	+2.47163E-1	-9.73539E-2	+4.97042E-2
+9.58460E+0	+2.33483E-1	-9.64383E-2	+4.79436E-2
+9.59940E+0	+2.19662E-1	-1.08111E-1	+4.61469E-2
+9.61410E+0	+2.05892E-1	-1.27337E-1	+4.42471E-2
+9.62890E+0	+1.91986E-1	-1.64035E-1	+4.22607E-2
+9.64360E+0	+1.78136E-1	-1.73266E-1	+4.01120E-2
+9.65840E+0	+1.64157E-1	-1.76928E-1	+3.78605E-2
+9.67310E+0	+1.50238E-1	-1.72275E-1	+3.55860E-2
+9.68790E+0	+1.36196E-1	-1.62585E-1	+3.31311E-2
+9.70260E+0	+1.22220E-1	-1.58084E-1	+3.06720E-2
+9.71740E+0	+1.08126E-1	-1.62585E-1	+2.80922E-2
+9.73210E+0	+9.41045E-2	-1.83413E-1	+2.54730E-2
+9.74680E+0	+8.00647E-2	-1.87610E-1	+2.26884E-2
+9.76160E+0	+6.59134E-2	-1.97604E-1	+1.98547E-2
+9.77630E+0	+5.18445E-2	-1.93408E-1	+1.70563E-2
+9.79110E+0	+3.76695E-2	-1.87533E-1	+1.41613E-2
+9.80580E+0	+2.35828E-2	-1.80896E-1	+1.13747E-2
+9.82060E+0	+9.39549E-3	-1.82498E-1	+8.49794E-3
+9.83530E+0	-4.69780E-3	-1.97070E-1	+5.66094E-3
+9.85010E+0	-1.88860E-2	-1.99511E-1	+2.76519E-3
+9.86480E+0	-3.29746E-2	-2.08514E-1	-9.65773E-5
+9.87960E+0	-4.71524E-2	-1.87762E-1	-2.91354E-3
+9.89430E+0	-6.12250E-2	-1.73266E-1	-5.70287E-3
+9.90900E+0	-7.52855E-2	-1.74640E-1	-8.36550E-3
+9.92380E+0	-8.94265E-2	-1.76928E-1	-1.10212E-2
+9.93850E+0	-1.03454E-1	-1.88220E-1	-1.36097E-2
+9.95330E+0	-1.17556E-1	-1.81659E-1	-1.62200E-2
+9.96800E+0	-1.31540E-1	-1.76776E-1	-1.87787E-2
+9.98280E+0	-1.45592E-1	-1.55261E-1	-2.11759E-2
+9.99750E+0	-1.59521E-1	-1.30160E-1	-2.35652E-2
+1.00123E+1	-1.73512E-1	-1.41375E-1	-2.58450E-2
+1.00270E+1	-1.87374E-1	-1.48852E-1	-2.80907E-2
+1.00418E+1	-2.01292E-1	-1.66552E-1	-3.02843E-2
+1.00565E+1	-2.15077E-1	-1.58389E-1	-3.24559E-2
+1.00712E+1	-2.28819E-1	-1.47784E-1	-3.45607E-2
+1.00860E+1	-2.42608E-1	-1.23065E-1	-3.65418E-2
+1.01007E+1	-2.56256E-1	-9.94901E-2	-3.84633E-2
+1.01155E+1	-2.69945E-1	-1.06280E-1	-4.02817E-2
+1.01302E+1	-2.83488E-1	-1.30084E-1	-4.20957E-2
+1.01450E+1	-2.97066E-1	-1.58160E-1	-4.38764E-2
+1.01597E+1	-3.10494E-1	-1.45801E-1	-4.56677E-2
+1.01745E+1	-3.23950E-1	-1.15970E-1	-4.73709E-2
+1.01892E+1	-3.37251E-1	-8.59098E-2	-4.89306E-2
+1.02040E+1	-3.50575E-1	-7.52286E-2	-5.04455E-2
+1.02187E+1	-3.63738E-1	-9.20896E-2	-5.18878E-2
+1.02334E+1	-3.76830E-1	-9.66672E-2	-5.33331E-2
+1.02482E+1	-3.89935E-1	-9.70487E-2	-5.47207E-2
+1.02629E+1	-4.02873E-1	-8.91904E-2	-5.60914E-2
+1.02777E+1	-4.15819E-1	-8.60624E-2	-5.73836E-2
+1.02924E+1	-4.28595E-1	-8.69016E-2	-5.86393E-2
+1.03072E+1	-4.41371E-1	-8.60624E-2	-5.98355E-2
+1.03219E+1	-4.53973E-1	-8.14847E-2	-6.10141E-2
+1.03367E+1	-4.66570E-1	-8.36972E-2	-6.21114E-2
+1.03514E+1	-4.78989E-1	-7.80515E-2	-6.31809E-2
+1.03662E+1	-4.91396E-1	-7.97300E-2	-6.41785E-2
+1.03809E+1	-5.03621E-1	-7.88144E-2	-6.51855E-2
+1.03956E+1	-5.15746E-1	-7.27109E-2	-6.61195E-2
+1.04104E+1	-5.27851E-1	-6.72178E-2	-6.70261E-2
+1.04251E+1	-5.39768E-1	-7.08799E-2	-6.78808E-2
+1.04399E+1	-5.51658E-1	-5.62314E-2	-6.87118E-2
+1.04546E+1	-5.63358E-1	-5.66892E-2	-6.95004E-2
+1.04694E+1	-5.75024E-1	-4.21933E-2	-7.02655E-2
+1.04841E+1	-5.86497E-1	-3.52506E-2	-7.09811E-2
+1.04989E+1	-5.97930E-1	-4.31089E-2	-7.17115E-2
+1.05136E+1	-6.09167E-1	-3.99045E-2	-7.23811E-2
+1.05284E+1	-6.20358E-1	-5.28745E-2	-7.30378E-2
+1.05431E+1	-6.31350E-1	-5.27219E-2	-7.36154E-2
+1.05578E+1	-6.42216E-1	-3.54795E-2	-7.42022E-2
+1.05726E+1	-6.53028E-1	-1.38120E-2	-7.47932E-2
+1.05873E+1	-6.63636E-1	-2.28147E-2	-7.53712E-2
+1.06021E+1	-6.74183E-1	-5.48581E-2	-7.58746E-2
+1.06168E+1	-6.84525E-1	-4.53977E-2	-7.63037E-2
+1.06316E+1	-6.94799E-1	-9.76841E-3	-7.68049E-2
+1.06463E+1	-7.04866E-1	-2.76975E-2	-7.72963E-2
+1.06611E+1	-7.14860E-1	-4.34903E-2	-7.77151E-2
+1.06758E+1	-7.24644E-1	-1.74741E-2	-7.81300E-2
+1.06906E+1	-7.34349E-1	-3.31907E-2	-7.85436E-2
+1.07053E+1	-7.43842E-1	-2.60190E-2	-7.89119E-2
+1.07201E+1	-7.53250E-1	-2.04496E-2	-7.93002E-2
+1.07348E+1	-7.62444E-1	-2.28147E-2	-7.96359E-2
+1.07495E+1	-7.71488E-1	-2.06784E-2	-7.99888E-2
+1.07643E+1	-7.80438E-1	-1.92289E-2	-8.02965E-2
+1.07790E+1	-7.89172E-1	-1.85422E-2	-8.06296E-2
+1.07938E+1	-7.97806E-1	-1.45749E-2	-8.09235E-2
+1.08085E+1	-8.06224E-1	-2.46457E-2	-8.12095E-2
+1.08233E+1	-8.14537E-1	-1.77793E-2	-8.15006E-2
+1.08380E+1	-8.22632E-1	-1.79319E-2	-8.17614E-2
+1.08528E+1	-8.30616E-1	-1.91526E-2	-8.20177E-2
+1.08675E+1	-8.38382E-1	-2.00681E-2	-8.22734E-2
+1.08823E+1	-8.46031E-1	-1.57193E-2	-8.25190E-2
+1.08970E+1	-8.53461E-1	-1.31253E-2	-8.27317E-2
+1.09117E+1	-8.60721E-1	-1.78556E-2	-8.29609E-2
+1.09265E+1	-8.67857E-1	-8.54771E-3	-8.31667E-2
+1.09412E+1	-8.74773E-1	-1.13706E-2	-8.33623E-2
+1.09560E+1	-8.81559E-1	-1.26676E-2	-8.35672E-2
+1.09707E+1	-8.88125E-1	-1.24387E-2	-8.37536E-2
+1.09855E+1	-8.94557E-1	-6.03001E-3	-8.39282E-2
+1.10002E+1	-9.00767E-1	-5.87742E-3	-8.40948E-2
+1.10150E+1	-9.06838E-1	-1.08365E-2	-8.42616E-2
+1.10297E+1	-9.12688E-1	-9.38694E-3	-8.44237E-2
+1.10445E+1	-9.18395E-1	-7.93736E-3	-8.45664E-2
+1.10592E+1	-9.23880E-1	-1.18283E-2	-8.47198E-2
+1.10739E+1	-9.29181E-1	-1.74741E-2	-8.48517E-2
+1.10887E+1	-9.34332E-1	-6.86924E-3	-8.49821E-2
+1.11034E+1	-9.39262E-1	-1.06839E-2	-8.51121E-2
+1.11182E+1	-9.44037E-1	-1.45237E-3	-8.52320E-2
+1.11329E+1	-9.48592E-1	-4.80930E-3	-8.53486E-2
+1.11477E+1	-9.52987E-1	-1.06076E-2	-8.54567E-2
+1.11624E+1	-9.57163E-1	-4.96189E-3	-8.55666E-2
+1.11772E+1	-9.61175E-1	-1.12180E-2	-8.56562E-2
+1.11919E+1	-9.64968E-1	-3.74119E-3	-8.57523E-2
+1.12067E+1	-9.68594E-1	-4.12266E-3	-8.58351E-2
+1.12214E+1	-9.72002E-1	-1.33542E-2	-8.59291E-2
+1.12361E+1	-9.75217E-1	-4.88560E-3	-8.60062E-2
+1.12509E+1	-9.78258E-1	-6.71665E-3	-8.60864E-2
+1.12656E+1	-9.81083E-1	-1.38883E-2	-8.61535E-2
+1.12804E+1	-9.83731E-1	+4.95632E-3	-8.62242E-2
+1.12951E+1	-9.86165E-1	-5.72483E-3	-8.62835E-2
+1.13099E+1	-9.88418E-1	-1.35068E-2	-8.63440E-2
+1.13246E+1	-9.90459E-1	+1.14162E-3	-8.63977E-2
+1.13394E+1	-9.92314E-1	-4.50413E-3	-8.64511E-2
+1.13541E+1	-9.93960E-1	-3.35972E-3	-8.64970E-2
+1.13689E+1	-9.95417E-1	-8.77659E-3	-8.65333E-2
+1.13836E+1	-9.96666E-1	+3.58303E-3	-8.65717E-2
+1.13983E+1	-9.97717E-1	+1.14162E-3	-8.66106E-2
+1.14131E+1	-9.98574E-1	-1.07090E-3	-8.66279E-2
+1.14278E+1	-9.99228E-1	+3.27785E-3	-8.66585E-2
+1.14426E+1	-9.99685E-1	-2.67307E-3	-8.66707E-2
+1.14573E+1	-9.99939E-1	+2.20974E-3	-8.66980E-2
+1.14721E+1	-9.99995E-1	-8.42018E-4	-8.67059E-2
+1.14868E+1	-9.99851E-1	-2.44419E-3	-8.67185E-2
+1.15016E+1	-9.99506E-1	+4.34597E-3	-8.67271E-2
+1.15163E+1	-9.98963E-1	-4.96189E-3	-8.67224E-2
+1.15311E+1	-9.98217E-1	+2.28603E-3	-8.67383E-2
+1.15458E+1	-9.97276E-1	-6.86924E-3	-8.67437E-2
+1.15606E+1	-9.96129E-1	-1.14719E-3	-8.67503E-2
+1.15753E+1	-9.94792E-1	+5.33779E-3	-8.67506E-2
+1.15900E+1	-9.93256E-1	-5.41966E-3	-8.67443E-2
+1.16048E+1	-9.91511E-1	+1.21792E-3	-8.67487E-2
+1.16195E+1	-9.89581E-1	-2.21531E-3	-8.67326E-2
+1.16343E+1	-9.87438E-1	+1.29421E-3	-8.67261E-2
+1.16490E+1	-9.85113E-1	+7.85549E-3	-8.67158E-2
+1.16638E+1	-9.82575E-1	-1.63297E-2	-8.67040E-2
+1.16785E+1	-9.79858E-1	+8.31325E-3	-8.67171E-2
+1.16933E+1	-9.76926E-1	-1.25913E-2	-8.66785E-2
+1.17080E+1	-9.73819E-1	-5.80112E-3	-8.66716E-2
+1.17228E+1	-9.70495E-1	+5.87185E-3	-8.66546E-2
+1.17375E+1	-9.67001E-1	+7.35089E-5	-8.66333E-2
+1.17522E+1	-9.63314E-1	-7.90790E-5	-8.66082E-2
+1.17670E+1	-9.59409E-1	+5.31273E-4	-8.65842E-2
+1.17817E+1	-9.55340E-1	-7.90790E-5	-8.65571E-2
+1.17965E+1	-9.51051E-1	-1.14719E-3	-8.65216E-2
+1.18112E+1	-9.46601E-1	+3.58303E-3	-8.64841E-2
+1.18260E+1	-9.41931E-1	+1.21792E-3	-8.64446E-2
+1.18407E+1	-9.37105E-1	-2.59678E-3	-8.64059E-2
+1.18555E+1	-9.32058E-1	-1.29978E-3	-8.63661E-2
+1.18702E+1	-9.26859E-1	+2.43862E-3	-8.63175E-2
+1.18850E+1	-9.21440E-1	+2.20974E-3	-8.62652E-2
+1.18997E+1	-9.15873E-1	+3.73562E-3	-8.62132E-2
+1.19144E+1	-9.10124E-1	+5.33779E-3	-8.61577E-2
+1.19292E+1	-9.04153E-1	+2.97268E-3	-8.60923E-2
+1.19439E+1	-8.98043E-1	+2.74380E-3	-8.60235E-2
+1.19587E+1	-8.91711E-1	+3.88821E-3	-8.59523E-2
+1.19734E+1	-8.85243E-1	+4.19338E-3	-8.58763E-2
+1.19882E+1	-8.78555E-1	+5.18520E-3	-8.57922E-2
+1.20029E+1	-8.71736E-1	+9.15249E-3	-8.57138E-2
+1.20177E+1	-8.64696E-1	+1.52309E-3	-8.56222E-2
+1.20324E+1	-8.57531E-1	+4.72744E-3	-8.55282E-2
+1.20472E+1	-8.50146E-1	+5.10891E-3	-8.54269E-2
+1.20619E+1	-8.42641E-1	+5.87185E-3	-8.53140E-2
+1.20766E+1	-8.34968E-1	+8.31325E-3	-8.52072E-2
+1.20914E+1	-8.27076E-1	+7.77920E-3	-8.50779E-2
+1.21061E+1	-8.19073E-1	+1.34249E-2	-8.49617E-2
+1.21209E+1	-8.10850E-1	+8.61843E-3	-8.48165E-2
+1.21356E+1	-8.02522E-1	+1.21280E-2	-8.46755E-2
+1.21504E+1	-7.93975E-1	+1.57901E-2	-8.45272E-2
+1.21651E+1	-7.85329E-1	+6.78738E-3	-8.43658E-2
+1.21799E+1	-7.76466E-1	+1.33487E-2	-8.41955E-2
+1.21946E+1	-7.67508E-1	+6.63479E-3	-8.40208E-2
+1.22094E+1	-7.58335E-1	+1.35775E-2	-8.38461E-2
+1.22241E+1	-7.49073E-1	+1.57138E-2	-8.36447E-2
+1.22388E+1	-7.39662E-1	+1.49508E-2	-8.34394E-2
+1.22536E+1	-7.30039E-1	+8.31325E-3	-8.32139E-2
+1.22683E+1	-7.20335E-1	+1.98336E-2	-8.29953E-2
+1.22831E+1	-7.10421E-1	+1.73159E-2	-8.27551E-2
+1.22978E+1	-7.00432E-1	+1.30435E-2	-8.24908E-2
+1.23126E+1	-6.90235E-1	+2.36483E-2	-8.22249E-2
+1.23273E+1	-6.79969E-1	+1.21280E-2	-8.19492E-2
+1.23421E+1	-6.69496E-1	+1.56375E-2	-8.16417E-2
+1.23568E+1	-6.58961E-1	+3.13540E-2	-8.13298E-2
+1.23716E+1	-6.48222E-1	+2.93704E-2	-8.10107E-2
+1.23863E+1	-6.37427E-1	+1.86892E-2	-8.06562E-2
+1.24010E+1	-6.26505E-1	+1.58664E-2	-8.02724E-2
+1.24158E+1	-6.15383E-1	+3.44058E-2	-7.98693E-2
+1.24305E+1	-6.04213E-1	+5.10379E-2	-7.94804E-2
+1.24453E+1	-5.92846E-1	+4.00515E-2	-7.90648E-2
+1.24600E+1	-5.81438E-1	+1.17465E-2	-7.86051E-2
+1.24748E+1	-5.69836E-1	+5.56667E-3	-7.80984E-2
+1.24895E+1	-5.58198E-1	+1.89944E-2	-7.75554E-2
+1.25043E+1	-5.46369E-1	+5.04275E-2	-7.70276E-2
+1.25190E+1	-5.34512E-1	+6.24820E-2	-7.64673E-2
+1.25338E+1	-5.22466E-1	+5.52340E-2	-7.58942E-2
+1.25485E+1	-5.10397E-1	+4.91305E-2	-7.52440E-2
+1.25633E+1	-4.98145E-1	+6.43130E-2	-7.45735E-2
+1.25780E+1	-4.85875E-1	+5.48526E-2	-7.38608E-2
+1.25927E+1	-4.73509E-1	+6.17190E-2	-7.31408E-2
+1.26075E+1	-4.60964E-1	+5.89724E-2	-7.23318E-2
+1.26222E+1	-4.48412E-1	+5.70651E-2	-7.15245E-2
+1.26370E+1	-4.35684E-1	+5.53866E-2	-7.06123E-2
+1.26517E+1	-4.22956E-1	+5.44711E-2	-6.97330E-2
+1.26665E+1	-4.10056E-1	+5.40896E-2	-6.87436E-2
+1.26812E+1	-3.97162E-1	+6.20242E-2	-6.77428E-2
+1.26960E+1	-3.84100E-1	+6.60678E-2	-6.66735E-2
+1.27107E+1	-3.71050E-1	+7.66726E-2	-6.55787E-2
+1.27255E+1	-3.57837E-1	+8.55227E-2	-6.44114E-2
+1.27402E+1	-3.44641E-1	+9.84927E-2	-6.31733E-2
+1.27549E+1	-3.31378E-1	+9.11685E-2	-6.19001E-2
+1.27697E+1	-3.17957E-1	+1.02002E-1	-6.05463E-2
+1.27844E+1	-3.04564E-1	+1.06427E-1	-5.91458E-2
+1.27992E+1	-2.91019E-1	+1.06580E-1	-5.76318E-2
+1.28139E+1	-2.77507E-1	+1.02384E-1	-5.61245E-2
+1.28287E+1	-2.63847E-1	+9.13974E-2	-5.45127E-2
+1.28434E+1	-2.50227E-1	+9.59750E-2	-5.28780E-2
+1.28582E+1	-2.36465E-1	+9.25418E-2	-5.11428E-2
+1.28729E+1	-2.22748E-1	+1.17337E-1	-4.93566E-2
+1.28877E+1	-2.08893E-1	+1.32367E-1	-4.74483E-2
+1.29024E+1	-1.95090E-1	+1.59528E-1	-4.54272E-2
+1.29171E+1	-1.81249E-1	+1.76541E-1	-4.33715E-2
+1.29319E+1	-1.67277E-1	+1.85697E-1	-4.11340E-2
+1.29466E+1	-1.53366E-1	+1.73261E-1	-3.88465E-2
+1.29614E+1	-1.39329E-1	+1.57010E-1	-3.64419E-2
+1.29761E+1	-1.25360E-1	+1.63724E-1	-3.40052E-2
+1.29909E+1	-1.11270E-1	+1.63495E-1	-3.14303E-2
+1.30056E+1	-9.72538E-2	+1.83179E-1	-2.87218E-2
+1.30204E+1	-8.31224E-2	+2.05304E-1	-2.59893E-2
+1.30351E+1	-6.90700E-2	+2.06525E-1	-2.31301E-2
+1.30499E+1	-5.49081E-2	+2.08661E-1	-2.02341E-2
+1.30646E+1	-4.08309E-2	+1.89435E-1	-1.73242E-2
+1.30793E+1	-2.67456E-2	+1.92716E-1	-1.44203E-2
+1.30941E+1	-1.25591E-2	+1.88977E-1	-1.14789E-2
+1.31088E+1	+1.53398E-3	+2.11942E-1	-8.48290E-3
+1.31236E+1	+1.57227E-2	+2.17511E-1	-5.62892E-3
+1.31383E+1	+2.98123E-2	+2.00727E-1	-2.69413E-3
+1.31531E+1	+4.39919E-2	+2.03702E-1	+2.15115E-4
+1.31678E+1	+5.80668E-2	+1.82950E-1	+3.05610E-3
+1.31826E+1	+7.22259E-2	+1.74329E-1	+5.88863E-3
+1.31973E+1	+8.62749E-2	+1.85773E-1	+8.61699E-3
+1.32121E+1	+1.00402E-1	+1.93021E-1	+1.13881E-2
+1.32268E+1	+1.14414E-1	+1.88367E-1	+1.40070E-2
+1.32415E+1	+1.28403E-1	+1.73871E-1	+1.66272E-2
+1.32563E+1	+1.42461E-1	+1.59528E-1	+1.91704E-2
+1.32710E+1	+1.56397E-1	+1.40454E-1	+2.16386E-2
+1.32858E+1	+1.70395E-1	+1.39081E-1	+2.40382E-2
+1.33005E+1	+1.84265E-1	+1.53577E-1	+2.63550E-2
+1.33153E+1	+1.98192E-1	+1.59223E-1	+2.86993E-2
+1.33300E+1	+2.11986E-1	+1.55866E-1	+3.08888E-2
+1.33448E+1	+2.25831E-1	+1.36640E-1	+3.30514E-2
+1.33595E+1	+2.39538E-1	+1.27179E-1	+3.51102E-2
+1.33743E+1	+2.53289E-1	+1.08182E-1	+3.70955E-2
+1.33890E+1	+2.66898E-1	+1.12531E-1	+3.89929E-2
+1.34038E+1	+2.80545E-1	+1.29163E-1	+4.08770E-2
+1.34185E+1	+2.94044E-1	+1.52509E-1	+4.27534E-2
+1.34332E+1	+3.07485E-1	+1.52509E-1	+4.45519E-2
+1.34480E+1	+3.20955E-1	+1.18863E-1	+4.63159E-2
+1.34627E+1	+3.34271E-1	+8.82693E-2	+4.79328E-2
+1.34775E+1	+3.47610E-1	+7.17135E-2	+4.94980E-2
+1.34922E+1	+3.60789E-1	+8.82693E-2	+5.09886E-2
+1.35070E+1	+3.73986E-1	+1.02613E-1	+5.24895E-2
+1.35217E+1	+3.87019E-1	+1.11463E-1	+5.39619E-2
+1.35365E+1	+4.00064E-1	+9.81112E-2	+5.53453E-2
+1.35512E+1	+4.12940E-1	+9.78823E-2	+5.66705E-2
+1.35660E+1	+4.25821E-1	+8.96426E-2	+5.79430E-2
+1.35807E+1	+4.38530E-1	+8.33102E-2	+5.91758E-2
+1.35954E+1	+4.51152E-1	+8.46072E-2	+6.03482E-2
+1.36102E+1	+4.63770E-1	+7.06454E-2	+6.14890E-2
+1.36249E+1	+4.76209E-1	+7.54519E-2	+6.25612E-2
+1.36397E+1	+4.88638E-1	+6.41604E-2	+6.36332E-2
+1.36544E+1	+5.00885E-1	+6.36264E-2	+6.45918E-2
+1.36692E+1	+5.13116E-1	+6.33975E-2	+6.55660E-2
+1.36839E+1	+5.25161E-1	+6.02694E-2	+6.64641E-2
+1.36987E+1	+5.37183E-1	+6.03457E-2	+6.73591E-2
+1.37134E+1	+5.49016E-1	+4.48581E-2	+6.81961E-2
+1.37282E+1	+5.60820E-1	+5.07327E-2	+6.89950E-2
+1.37429E+1	+5.72433E-1	+4.44766E-2	+6.97744E-2
+1.37576E+1	+5.83931E-1	+4.54684E-2	+7.05217E-2
+1.37724E+1	+5.95391E-1	+5.09616E-2	+7.12216E-2
+1.37871E+1	+6.06655E-1	+5.92013E-2	+7.18737E-2
+1.38019E+1	+6.17873E-1	+5.28689E-2	+7.24958E-2
+1.38166E+1	+6.28893E-1	+3.70761E-2	+7.31048E-2
+1.38314E+1	+6.39862E-1	+1.71634E-2	+7.37089E-2
+1.38461E+1	+6.50628E-1	+2.38772E-2	+7.42986E-2
+1.38609E+1	+6.61338E-1	+5.05801E-2	+7.48507E-2
+1.38756E+1	+6.71843E-1	+5.69125E-2	+7.53117E-2
+1.38904E+1	+6.82285E-1	+2.05203E-2	+7.58002E-2
+1.39051E+1	+6.92520E-1	+1.41879E-2	+7.63003E-2
+1.39198E+1	+7.02618E-1	+4.08145E-2	+7.67425E-2
+1.39346E+1	+7.12644E-1	+3.07437E-2	+7.71420E-2
+1.39493E+1	+7.22460E-1	+1.89181E-2	+7.75816E-2
+1.39641E+1	+7.32197E-1	+3.57028E-2	+7.79686E-2
+1.39788E+1	+7.41723E-1	+2.33432E-2	+7.83331E-2
+1.39936E+1	+7.51165E-1	+2.75393E-2	+7.87017E-2
+1.40083E+1	+7.60394E-1	+1.41116E-2	+7.90342E-2
+1.40231E+1	+7.69532E-1	+2.52505E-2	+7.93768E-2
+1.40378E+1	+7.78456E-1	+2.23513E-2	+7.96858E-2
+1.40526E+1	+7.87284E-1	+2.57846E-2	+7.99936E-2
+1.40673E+1	+7.95895E-1	+1.81552E-2	+8.02714E-2
+1.40820E+1	+8.04348E-1	+1.70108E-2	+8.05373E-2
+1.40968E+1	+8.12698E-1	+1.18991E-2	+8.08062E-2
+1.41115E+1	+8.20829E-1	+1.24331E-2	+8.10508E-2
+1.41263E+1	+8.28850E-1	+1.64767E-2	+8.12858E-2
+1.41410E+1	+8.36653E-1	+1.35012E-2	+8.15200E-2
+1.41558E+1	+8.44340E-1	+1.30435E-2	+8.17383E-2
+1.41705E+1	+8.51808E-1	+9.61025E-3	+8.19481E-2
+1.41853E+1	+8.59155E-1	+1.14413E-2	+8.21477E-2
+1.42000E+1	+8.66281E-1	+1.47219E-2	+8.23457E-2
+1.42148E+1	+8.73282E-1	+1.11361E-2	+8.25312E-2
+1.42295E+1	+8.80061E-1	+7.70290E-3	+8.27078E-2
+1.42442E+1	+8.86666E-1	+1.35012E-2	+8.28645E-2
+1.42590E+1	+8.93138E-1	+9.91543E-3	+8.30270E-2
+1.42737E+1	+8.99388E-1	+1.24331E-2	+8.31759E-2
+1.42885E+1	+9.05500E-1	+7.77920E-3	+8.33209E-2
+1.43032E+1	+9.11391E-1	+6.17702E-3	+8.34556E-2
+1.43180E+1	+9.17138E-1	+8.38955E-3	+8.35934E-2
+1.43327E+1	+9.22664E-1	+1.19754E-2	+8.37157E-2
+1.43475E+1	+9.28043E-1	+1.04495E-2	+8.38429E-2
+1.43622E+1	+9.33200E-1	+7.39773E-3	+8.39466E-2
+1.43770E+1	+9.38205E-1	+1.05258E-2	+8.40528E-2
+1.43917E+1	+9.42989E-1	+1.59939E-3	+8.41547E-2
+1.44065E+1	+9.47616E-1	+7.55032E-3	+8.42473E-2
+1.44212E+1	+9.52024E-1	+9.83913E-3	+8.43445E-2
+1.44359E+1	+9.56242E-1	+8.77102E-3	+8.44294E-2
+1.44507E+1	+9.60297E-1	+6.55849E-3	+8.45014E-2
+1.44654E+1	+9.64133E-1	+1.29421E-3	+8.45834E-2
+1.44802E+1	+9.67802E-1	+1.21792E-3	+8.46440E-2
+1.44949E+1	+9.71253E-1	+1.02969E-2	+8.47197E-2
+1.45097E+1	+9.74533E-1	+5.31273E-4	+8.47826E-2
+1.45244E+1	+9.77597E-1	+9.89036E-4	+8.48385E-2
+1.45392E+1	+9.80485E-1	+5.71926E-3	+8.48887E-2
+1.45539E+1	+9.83158E-1	+3.96450E-3	+8.49253E-2
+1.45687E+1	+9.85652E-1	+1.07547E-2	+8.49792E-2
+1.45834E+1	+9.87933E-1	+5.87185E-3	+8.50301E-2
+1.45981E+1	+9.90018E-1	+6.86367E-3	+8.50482E-2
+1.46129E+1	+9.91918E-1	-1.37608E-3	+8.50670E-2
+1.46276E+1	+9.93608E-1	+1.14162E-3	+8.50898E-2
+1.46424E+1	+9.95109E-1	+6.83860E-4	+8.51103E-2
+1.46571E+1	+9.96403E-1	-3.58860E-3	+8.51329E-2
+1.46719E+1	+9.97505E-1	+4.72744E-3	+8.51456E-2
+1.46866E+1	+9.98401E-1	+1.16702E-2	+8.51580E-2
+1.47014E+1	+9.99102E-1	+2.36233E-3	+8.51550E-2
+1.47161E+1	+9.99600E-1	-3.07961E-4	+8.51527E-2
+1.47309E+1	+9.99901E-1	-4.96189E-3	+8.51601E-2
