+1.43282E+2	+3.21351E-1
+1.43280E+2	+2.98696E-1
+1.43281E+2	+2.88503E-1
+1.43280E+2	+2.73556E-1
+1.43283E+2	+2.56699E-1
+1.43281E+2	+2.37718E-1
+1.43278E+2	+2.12685E-1
+1.43279E+2	+1.81062E-1
+1.43281E+2	+1.35391E-1
+1.43281E+2	+8.58666E-2
+1.43283E+2	+4.79758E-2
+1.43278E+2	+3.68823E-2
+1.43279E+2	+3.59458E-2
+1.43280E+2	+3.20919E-2
+1.43281E+2	+3.40729E-2
+1.43281E+2	+3.43971E-2
+1.43279E+2	+3.34966E-2
+1.43277E+2	+3.25241E-2
+1.43280E+2	+2.91745E-2
+1.43280E+2	+2.63291E-2
+1.43279E+2	+3.38208E-2
+1.43280E+2	+3.17317E-2
+1.43281E+2	+3.82870E-2
+1.43282E+2	+3.29203E-2
+1.43279E+2	+3.38568E-2
+1.43280E+2	+3.97997E-2
+1.43281E+2	+3.34246E-2
+1.43282E+2	+4.10243E-2
+1.43284E+2	+4.50223E-2
+1.43281E+2	+4.06282E-2
+1.43282E+2	+4.25011E-2
+1.43282E+2	+4.46622E-2
+1.43279E+2	+4.67872E-2
+1.43282E+2	+4.29333E-2
+1.43283E+2	+4.75796E-2
+1.43281E+2	+4.86241E-2
+1.43279E+2	+5.25140E-2
+1.43282E+2	+5.09293E-2
+1.43281E+2	+5.06771E-2
+1.43316E+2	+4.78317E-2
+1.43316E+2	+4.70033E-2
+1.43314E+2	+4.70033E-2
+1.43313E+2	+5.34505E-2
+1.43306E+2	+5.01009E-2
+1.43304E+2	+5.29463E-2
+1.43304E+2	+5.75565E-2
+1.43235E+2	+5.37026E-2
+1.43226E+2	+4.90203E-2
+1.43139E+2	+6.01859E-2
+1.43069E+2	+6.07261E-2
+1.42769E+2	+6.68492E-2
+1.42491E+2	+7.23959E-2
+1.42451E+2	+6.94064E-2
+1.42453E+2	+6.76055E-2
+1.42453E+2	+6.02579E-2
+1.42480E+2	+5.19378E-2
+1.42476E+2	+5.68002E-2
+1.42474E+2	+5.19017E-2
+1.42474E+2	+5.57917E-2
+1.42478E+2	+5.14695E-2
+1.42477E+2	+5.42069E-2
+1.42476E+2	+5.81328E-2
+1.42476E+2	+5.31264E-2
+1.42478E+2	+5.37747E-2
+1.42477E+2	+5.10013E-2
+1.42477E+2	+5.01369E-2
+1.42479E+2	+5.10013E-2
+1.42479E+2	+5.04970E-2
+1.42482E+2	+5.58277E-2
+1.42477E+2	+5.77366E-2
+1.42476E+2	+5.08212E-2
+1.42477E+2	+5.62599E-2
+1.42478E+2	+5.00288E-2
+1.42476E+2	+5.44950E-2
+1.42477E+2	+5.09653E-2
+1.42476E+2	+5.17937E-2
+1.42480E+2	+5.31624E-2
+1.42475E+2	+5.31264E-2
+1.42479E+2	+5.03530E-2
+1.42480E+2	+4.99568E-2
+1.42478E+2	+4.59948E-2
+1.42479E+2	+4.97767E-2
+1.42476E+2	+5.02449E-2
+1.42476E+2	+5.12534E-2
+1.42479E+2	+5.25861E-2
+1.42475E+2	+5.10373E-2
+1.42473E+2	+5.03890E-2
+1.42478E+2	+5.24060E-2
+1.42477E+2	+5.54315E-2
+1.42475E+2	+4.94525E-2
+1.42469E+2	+5.72684E-2
+1.42020E+2	+6.40398E-2
+1.41782E+2	+7.12433E-2
+1.41565E+2	+7.52773E-2
+1.41370E+2	+7.69702E-2
+1.41258E+2	+8.04279E-2
+1.41051E+2	+7.54934E-2
+1.40511E+2	+8.18686E-2
+1.40267E+2	+8.17966E-2
+1.40061E+2	+7.94194E-2
+1.39815E+2	+7.38006E-2
+1.39658E+2	+7.17476E-2
+1.39429E+2	+6.00418E-2
+1.38923E+2	+4.78317E-2
+1.38606E+2	+4.44100E-2
+1.38397E+2	+3.63060E-2
+1.38246E+2	+3.39648E-2
+1.38091E+2	+3.32805E-2
+1.37937E+2	+2.68333E-2
+1.37766E+2	+2.53206E-2
+1.37506E+2	+2.39159E-2
+1.37272E+2	+2.09624E-2
+1.36968E+2	+2.58968E-2
+1.36871E+2	+1.93776E-2
+1.36705E+2	+2.04581E-2
+1.36513E+2	+1.61000E-2
+1.36412E+2	+1.76127E-2
+1.36279E+2	+2.37358E-2
+1.36183E+2	+2.86702E-2
+1.35982E+2	+2.56087E-2
+1.35807E+2	+2.56807E-2
+1.35532E+2	+2.55006E-2
+1.35326E+2	+2.67973E-2
+1.35149E+2	+2.43841E-2
+1.34999E+2	+2.50684E-2
+1.34838E+2	+2.65452E-2
+1.34753E+2	+2.09264E-2
+1.34626E+2	+2.78418E-2
+1.34390E+2	+1.88373E-2
+1.34038E+2	+2.08543E-2
+1.33911E+2	+2.36637E-2
+1.33849E+2	+2.16828E-2
+1.33696E+2	+2.15387E-2
+1.33625E+2	+2.11425E-2
+1.33478E+2	+2.33756E-2
+1.33267E+2	+3.05071E-2
+1.33117E+2	+3.05431E-2
+1.33021E+2	+3.91514E-2
+1.32947E+2	+4.08803E-2
+1.32779E+2	+5.52154E-2
+1.32696E+2	+5.36666E-2
+1.32387E+2	+7.63939E-2
+1.32063E+2	+1.14645E-1
+1.31935E+2	+1.29808E-1
+1.31805E+2	+1.46557E-1
+1.31669E+2	+1.56245E-1
+1.31553E+2	+1.74543E-1
+1.31358E+2	+2.03357E-1
+1.31155E+2	+2.40023E-1
+1.30962E+2	+2.69882E-1
+1.30828E+2	+2.85478E-1
+1.30686E+2	+3.11302E-1
+1.30461E+2	+3.45123E-1
+1.30189E+2	+3.77827E-1
+1.29927E+2	+4.07830E-1
+1.29840E+2	+4.17447E-1
+1.29687E+2	+4.29873E-1
+1.29573E+2	+4.43092E-1
+1.29413E+2	+4.48855E-1
+1.28999E+2	+4.55770E-1
+1.28767E+2	+4.47846E-1
+1.28628E+2	+4.42191E-1
+1.28501E+2	+4.28108E-1
+1.28379E+2	+4.17591E-1
+1.28214E+2	+4.03040E-1
+1.28082E+2	+3.92090E-1
+1.27944E+2	+3.74946E-1
+1.27791E+2	+3.55496E-1
+1.27715E+2	+3.45267E-1
+1.27623E+2	+3.22684E-1
+1.27406E+2	+3.00389E-1
+1.27098E+2	+2.46362E-1
+1.26888E+2	+2.12974E-1
+1.26794E+2	+1.94064E-1
+1.26640E+2	+1.81206E-1
+1.26487E+2	+1.58154E-1
+1.26362E+2	+1.42090E-1
+1.26136E+2	+1.10611E-1
+1.25991E+2	+9.98775E-2
+1.25975E+2	+9.79686E-2
+1.25768E+2	+7.82668E-2
+1.25662E+2	+6.87581E-2
+1.25491E+2	+6.22389E-2
+1.25111E+2	+4.68592E-2
+1.24992E+2	+4.94165E-2
+1.24881E+2	+4.51304E-2
+1.24752E+2	+5.08572E-2
+1.24574E+2	+4.89843E-2
+1.24285E+2	+5.28382E-2
+1.24180E+2	+5.56836E-2
+1.24078E+2	+6.15905E-2
+1.23906E+2	+6.83979E-2
+1.23760E+2	+6.85420E-2
+1.23465E+2	+8.06800E-2
+1.23152E+2	+7.77266E-2
+1.23049E+2	+8.00317E-2
+1.22930E+2	+8.52903E-2
+1.22817E+2	+8.21567E-2
+1.22633E+2	+7.39807E-2
+1.22481E+2	+7.15675E-2
+1.22201E+2	+6.32474E-2
+1.22106E+2	+5.84570E-2
+1.21898E+2	+4.73275E-2
+1.21841E+2	+4.97047E-2
+1.21478E+2	+4.31134E-2
+1.21287E+2	+3.85751E-2
+1.21083E+2	+3.40729E-2
+1.21066E+2	+3.45772E-2
+1.20950E+2	+3.63780E-2
+1.20801E+2	+4.38698E-2
+1.20643E+2	+5.05691E-2
+1.20349E+2	+7.45930E-2
+1.20176E+2	+9.10892E-2
+1.20098E+2	+1.11511E-1
+1.19964E+2	+1.29520E-1
+1.19809E+2	+1.58515E-1
+1.19571E+2	+2.15819E-1
+1.19345E+2	+2.79499E-1
+1.19338E+2	+2.85550E-1
+1.19257E+2	+3.10078E-1
+1.19134E+2	+3.50922E-1
+1.19033E+2	+3.91334E-1
+1.18889E+2	+4.27244E-1
+1.18717E+2	+4.93517E-1
+1.18494E+2	+5.79455E-1
+1.18363E+2	+6.38489E-1
+1.18343E+2	+6.43135E-1
+1.18277E+2	+6.75731E-1
+1.18175E+2	+7.25940E-1
+1.17986E+2	+7.94266E-1
+1.17901E+2	+8.34282E-1
+1.17802E+2	+8.71704E-1
+1.17677E+2	+9.15178E-1
+1.17610E+2	+9.28108E-1
+1.17519E+2	+9.67368E-1
+1.17373E+2	+1.01142E+0
+1.17194E+2	+1.05802E+0
+1.17034E+2	+1.08950E+0
+1.16836E+2	+1.11983E+0
+1.16677E+2	+1.14558E+0
+1.16490E+2	+1.16305E+0
+1.16311E+2	+1.16550E+0
+1.16219E+2	+1.16428E+0
+1.16040E+2	+1.14785E+0
+1.15873E+2	+1.13518E+0
+1.15764E+2	+1.11472E+0
+1.15579E+2	+1.08201E+0
+1.15357E+2	+1.01369E+0
+1.15224E+2	+9.66251E-1
+1.15035E+2	+8.96629E-1
+1.14865E+2	+8.25962E-1
+1.14778E+2	+7.93402E-1
+1.14774E+2	+7.87026E-1
+1.14502E+2	+6.82899E-1
+1.14338E+2	+6.08558E-1
+1.14187E+2	+5.43438E-1
+1.14088E+2	+5.00864E-1
+1.13940E+2	+4.52132E-1
+1.13873E+2	+4.18167E-1
+1.13791E+2	+3.89029E-1
+1.13654E+2	+3.43070E-1
+1.13507E+2	+3.01902E-1
+1.13297E+2	+2.39591E-1
+1.13171E+2	+1.99791E-1
+1.12905E+2	+1.55561E-1
+1.12740E+2	+1.27719E-1
+1.12588E+2	+1.18715E-1
+1.12439E+2	+1.11295E-1
+1.12415E+2	+1.05820E-1
+1.12293E+2	+1.04308E-1
+1.12207E+2	+1.11439E-1
+1.11991E+2	+1.07297E-1
+1.11901E+2	+1.17238E-1
+1.11678E+2	+1.27467E-1
+1.11468E+2	+1.44071E-1
+1.11266E+2	+1.61000E-1
+1.11089E+2	+1.72309E-1
+1.11050E+2	+1.73966E-1
+1.10919E+2	+1.84520E-1
+1.10842E+2	+1.86609E-1
+1.10757E+2	+1.90426E-1
+1.10575E+2	+1.93092E-1
+1.10396E+2	+1.96658E-1
+1.10253E+2	+1.90390E-1
+1.10028E+2	+1.75551E-1
+1.09861E+2	+1.70725E-1
+1.09727E+2	+1.57758E-1
+1.09579E+2	+1.45944E-1
+1.09433E+2	+1.33698E-1
+1.09294E+2	+1.20048E-1
+1.09201E+2	+1.14753E-1
+1.09122E+2	+1.03407E-1
+1.09039E+2	+9.91572E-2
+1.08921E+2	+9.22778E-2
+1.08791E+2	+8.92523E-2
+1.08669E+2	+9.06570E-2
+1.08442E+2	+8.74874E-2
+1.08358E+2	+9.40787E-2
+1.08183E+2	+1.08378E-1
+1.08072E+2	+1.30637E-1
+1.08006E+2	+1.38056E-1
+1.07866E+2	+1.69392E-1
+1.07684E+2	+2.22626E-1
+1.07531E+2	+2.72079E-1
+1.07449E+2	+3.10330E-1
+1.07315E+2	+3.60935E-1
+1.07135E+2	+4.53393E-1
+1.07090E+2	+4.67332E-1
+1.07022E+2	+5.02485E-1
+1.06863E+2	+5.89540E-1
+1.06724E+2	+6.62801E-1
+1.06578E+2	+7.56627E-1
+1.06401E+2	+8.71776E-1
+1.06256E+2	+9.64775E-1
+1.06180E+2	+1.00904E+0
+1.06026E+2	+1.10409E+0
+1.05883E+2	+1.19518E+0
+1.05781E+2	+1.25648E+0
+1.05634E+2	+1.34350E+0
+1.05554E+2	+1.39461E+0
+1.05409E+2	+1.47241E+0
+1.05304E+2	+1.54369E+0
+1.05191E+2	+1.60377E+0
+1.05082E+2	+1.65942E+0
+1.04950E+2	+1.71215E+0
+1.04705E+2	+1.79978E+0
+1.04519E+2	+1.83778E+0
+1.04495E+2	+1.84091E+0
+1.04355E+2	+1.86248E+0
+1.04154E+2	+1.87516E+0
+1.03973E+2	+1.87340E+0
+1.03831E+2	+1.86461E+0
+1.03674E+2	+1.83561E+0
+1.03585E+2	+1.80280E+0
+1.03470E+2	+1.76621E+0
+1.03317E+2	+1.69594E+0
+1.03036E+2	+1.55849E+0
+1.02892E+2	+1.47306E+0
+1.02757E+2	+1.39332E+0
+1.02557E+2	+1.28080E+0
+1.02343E+2	+1.14357E+0
+1.02236E+2	+1.06696E+0
+1.02168E+2	+1.03998E+0
+1.01974E+2	+9.14566E-1
+1.01819E+2	+8.08637E-1
+1.01701E+2	+7.24751E-1
+1.01616E+2	+6.65538E-1
+1.01471E+2	+5.77366E-1
+1.01267E+2	+4.71762E-1
+1.01121E+2	+4.00987E-1
+1.00952E+2	+3.29167E-1
+1.00770E+2	+2.69846E-1
+1.00584E+2	+2.14919E-1
+1.00495E+2	+2.04149E-1
+1.00408E+2	+1.84952E-1
+1.00270E+2	+1.67267E-1
+1.00178E+2	+1.63593E-1
+1.00106E+2	+1.60063E-1
+9.99971E+1	+1.53256E-1
+9.99117E+1	+1.52356E-1
+9.97003E+1	+1.59091E-1
+9.95498E+1	+1.74326E-1
+9.94537E+1	+1.82250E-1
+9.92415E+1	+2.05698E-1
+9.90291E+1	+2.32819E-1
+9.88904E+1	+2.44957E-1
+9.87701E+1	+2.58896E-1
+9.86450E+1	+2.66244E-1
+9.85839E+1	+2.72007E-1
+9.84831E+1	+2.82920E-1
+9.83471E+1	+2.92141E-1
+9.81605E+1	+2.93257E-1
+9.79657E+1	+2.99597E-1
+9.77690E+1	+2.95130E-1
+9.75862E+1	+2.80723E-1
+9.74556E+1	+2.66712E-1
+9.74344E+1	+2.65848E-1
+9.72974E+1	+2.54250E-1
+9.72103E+1	+2.43373E-1
+9.71071E+1	+2.31343E-1
+9.70529E+1	+2.23887E-1
+9.69933E+1	+2.15459E-1
+9.69072E+1	+2.01268E-1
+9.68385E+1	+1.96441E-1
+9.66805E+1	+1.76560E-1
+9.65178E+1	+1.60460E-1
+9.63307E+1	+1.47817E-1
+9.61285E+1	+1.40866E-1
+9.59555E+1	+1.46413E-1
+9.58586E+1	+1.49366E-1
+9.57827E+1	+1.58299E-1
+9.57012E+1	+1.60712E-1
+9.56253E+1	+1.76776E-1
+9.55416E+1	+1.93200E-1
+9.54643E+1	+2.06490E-1
+9.54634E+1	+2.14630E-1
+9.53330E+1	+2.41032E-1
+9.51817E+1	+2.90340E-1
+9.50210E+1	+3.42602E-1
+9.49367E+1	+3.88525E-1
+9.47207E+1	+4.72915E-1
+9.45607E+1	+5.53378E-1
+9.43659E+1	+6.79981E-1
+9.42105E+1	+7.77085E-1
+9.41083E+1	+8.50526E-1
+9.39497E+1	+9.53285E-1
+9.38675E+1	+1.02485E+0
+9.37941E+1	+1.08176E+0
+9.37014E+1	+1.14775E+0
+9.35781E+1	+1.22209E+0
+9.34332E+1	+1.33093E+0
+9.32543E+1	+1.46571E+0
+9.30522E+1	+1.60287E+0
+9.28818E+1	+1.71438E+0
+9.27231E+1	+1.80975E+0
+9.25793E+1	+1.89681E+0
+9.24450E+1	+1.95044E+0
+9.23595E+1	+1.98765E+0
+9.21636E+1	+2.04693E+0
+9.19921E+1	+2.08724E+0
+9.19040E+1	+2.10344E+0
+9.18301E+1	+2.11929E+0
+9.17444E+1	+2.14076E+0
+9.15718E+1	+2.15999E+0
+9.14519E+1	+2.15729E+0
+9.13016E+1	+2.15189E+0
+9.11085E+1	+2.11879E+0
+9.09422E+1	+2.08000E+0
+9.07839E+1	+2.01560E+0
+9.05895E+1	+1.92613E+0
+9.04688E+1	+1.86940E+0
+9.03220E+1	+1.79776E+0
+9.01790E+1	+1.72522E+0
+9.00996E+1	+1.66687E+0
+9.00056E+1	+1.59213E+0
+8.99182E+1	+1.54077E+0
+8.98552E+1	+1.51153E+0
+8.96979E+1	+1.42123E+0
+8.94902E+1	+1.27673E+0
+8.92490E+1	+1.09325E+0
+8.90810E+1	+9.66503E-1
+8.89380E+1	+8.60179E-1
+8.87975E+1	+7.65560E-1
+8.86596E+1	+6.76776E-1
+8.85739E+1	+6.26171E-1
+8.84831E+1	+5.72756E-1
+8.83536E+1	+5.08068E-1
+8.82123E+1	+4.28865E-1
+8.80353E+1	+3.54956E-1
+8.79026E+1	+3.03703E-1
+8.77861E+1	+2.65200E-1
+8.75742E+1	+2.11893E-1
+8.73971E+1	+1.81818E-1
+8.72615E+1	+1.60928E-1
+8.71259E+1	+1.48358E-1
+8.70398E+1	+1.49834E-1
+8.68992E+1	+1.48358E-1
+8.67508E+1	+1.52103E-1
+8.65916E+1	+1.59523E-1
+8.63399E+1	+1.87473E-1
+8.61266E+1	+2.11785E-1
+8.60492E+1	+2.22518E-1
+8.60514E+1	+2.24247E-1
+8.59175E+1	+2.39123E-1
+8.57848E+1	+2.50720E-1
+8.56761E+1	+2.61238E-1
+8.55423E+1	+2.76941E-1
+8.54453E+1	+2.82704E-1
+8.53352E+1	+2.91349E-1
+8.50420E+1	+2.98912E-1
+8.49160E+1	+2.98228E-1
+8.48418E+1	+2.92501E-1
+8.46867E+1	+2.88323E-1
+8.45546E+1	+2.83425E-1
+8.45316E+1	+2.80759E-1
+8.43457E+1	+2.67973E-1
+8.42435E+1	+2.58932E-1
+8.41448E+1	+2.44129E-1
+8.40598E+1	+2.35233E-1
+8.39065E+1	+2.13262E-1
+8.37247E+1	+1.99359E-1
+8.34742E+1	+1.79549E-1
+8.32967E+1	+1.67519E-1
+8.31749E+1	+1.64205E-1
+8.30999E+1	+1.63089E-1
+8.30914E+1	+1.64674E-1
+8.28894E+1	+1.71409E-1
+8.27226E+1	+1.90282E-1
+8.26375E+1	+2.06022E-1
+8.25618E+1	+2.18989E-1
+8.24832E+1	+2.34116E-1
+8.23866E+1	+2.66856E-1
+8.22402E+1	+3.09105E-1
+8.20492E+1	+3.82114E-1
+8.18513E+1	+4.68592E-1
+8.16597E+1	+5.75674E-1
+8.15265E+1	+6.38020E-1
+8.14375E+1	+7.01808E-1
+8.12820E+1	+8.09862E-1
+8.12045E+1	+8.88525E-1
+8.11348E+1	+9.31530E-1
+8.09836E+1	+1.02132E+0
+8.09041E+1	+1.09700E+0
+8.07783E+1	+1.16683E+0
+8.06299E+1	+1.26131E+0
+8.03345E+1	+1.45566E+0
+8.01188E+1	+1.60006E+0
+7.99325E+1	+1.69378E+0
+7.97849E+1	+1.75223E+0
+7.97208E+1	+1.76581E+0
+7.96967E+1	+1.78108E+0
+7.95382E+1	+1.84682E+0
+7.93945E+1	+1.89955E+0
+7.92004E+1	+1.93218E+0
+7.90956E+1	+1.94414E+0
+7.89483E+1	+1.95274E+0
+7.87924E+1	+1.95851E+0
+7.86355E+1	+1.94349E+0
+7.85488E+1	+1.93279E+0
+7.83942E+1	+1.88543E+0
+7.82713E+1	+1.86648E+0
+7.82691E+1	+1.85946E+0
+7.81197E+1	+1.78231E+0
+7.80088E+1	+1.72090E+0
+7.78913E+1	+1.68362E+0
+7.76937E+1	+1.58014E+0
+7.75784E+1	+1.51286E+0
+7.74290E+1	+1.40502E+0
+7.72729E+1	+1.30035E+0
+7.71277E+1	+1.22237E+0
+7.69847E+1	+1.15398E+0
+7.68885E+1	+1.06768E+0
+7.67012E+1	+9.39994E-1
+7.65349E+1	+8.27871E-1
+7.64443E+1	+7.62066E-1
+7.63812E+1	+7.38834E-1
+7.62820E+1	+6.63089E-1
+7.61392E+1	+5.76070E-1
+7.59464E+1	+4.76768E-1
+7.58319E+1	+4.13377E-1
+7.57030E+1	+3.66230E-1
+7.55399E+1	+2.87711E-1
+7.54016E+1	+2.45606E-1
+7.52393E+1	+1.99683E-1
+7.51187E+1	+1.71805E-1
+7.50264E+1	+1.50411E-1
+7.49428E+1	+1.35823E-1
+7.47828E+1	+1.13240E-1
+7.46057E+1	+1.01102E-1
+7.44489E+1	+9.47270E-2
+7.42286E+1	+9.69961E-2
+7.40992E+1	+1.00490E-1
+7.39746E+1	+1.10035E-1
+7.38628E+1	+1.19795E-1
+7.36031E+1	+1.44035E-1
+7.34607E+1	+1.56642E-1
+7.33402E+1	+1.66511E-1
+7.31085E+1	+1.84015E-1
+7.28848E+1	+1.97414E-1
+7.26818E+1	+2.02276E-1
+7.25059E+1	+2.04365E-1
+7.23194E+1	+2.01160E-1
+7.22145E+1	+1.98278E-1
+7.20357E+1	+1.90318E-1
+7.19250E+1	+1.85492E-1
+7.18288E+1	+1.78577E-1
+7.17561E+1	+1.79765E-1
+7.15642E+1	+1.66907E-1
+7.13516E+1	+1.43783E-1
+7.11671E+1	+1.29736E-1
+7.10243E+1	+1.30709E-1
+7.09244E+1	+1.28188E-1
+7.07718E+1	+1.25018E-1
+7.06925E+1	+1.22029E-1
+7.06229E+1	+1.28188E-1
+7.04625E+1	+1.32906E-1
+7.02911E+1	+1.52464E-1
+7.01595E+1	+1.67411E-1
+7.00426E+1	+1.83043E-1
+6.99375E+1	+2.05374E-1
+6.97271E+1	+2.53530E-1
+6.95547E+1	+3.01902E-1
+6.94949E+1	+3.18686E-1
+6.93554E+1	+3.63060E-1
+6.92796E+1	+3.88993E-1
+6.90697E+1	+4.65891E-1
+6.89482E+1	+5.12966E-1
+6.88085E+1	+5.70739E-1
+6.86510E+1	+6.27575E-1
+6.85683E+1	+6.70328E-1
+6.84949E+1	+6.99971E-1
+6.83402E+1	+7.66352E-1
+6.81348E+1	+8.49950E-1
+6.79361E+1	+9.27136E-1
+6.77328E+1	+9.94381E-1
+6.75904E+1	+1.03638E+0
+6.74638E+1	+1.07765E+0
+6.72932E+1	+1.12783E+0
+6.71459E+1	+1.16194E+0
+6.69377E+1	+1.19954E+0
+6.68209E+1	+1.22097E+0
+6.66266E+1	+1.23491E+0
+6.64252E+1	+1.23984E+0
+6.61586E+1	+1.21791E+0
+6.57966E+1	+1.16709E+0
+6.55501E+1	+1.10524E+0
+6.54001E+1	+1.06249E+0
+6.52279E+1	+1.00047E+0
+6.51557E+1	+9.85953E-1
+6.49366E+1	+9.20437E-1
+6.46893E+1	+8.26142E-1
+6.45990E+1	+7.82524E-1
+6.44256E+1	+7.13838E-1
+6.41958E+1	+6.25450E-1
+6.39861E+1	+5.39620E-1
+6.38138E+1	+4.63658E-1
+6.35935E+1	+3.86292E-1
+6.34236E+1	+3.28123E-1
+6.32881E+1	+2.90376E-1
+6.32497E+1	+2.70494E-1
+6.30393E+1	+2.11893E-1
+6.29782E+1	+1.99143E-1
+6.28629E+1	+1.73390E-1
+6.27280E+1	+1.41910E-1
+6.25551E+1	+1.15293E-1
+6.22753E+1	+8.23368E-2
+6.20596E+1	+5.52874E-2
+6.18864E+1	+4.93085E-2
+6.17402E+1	+4.30413E-2
+6.16133E+1	+4.15286E-2
+6.14399E+1	+4.18528E-2
+6.12112E+1	+4.03400E-2
+6.11276E+1	+4.26812E-2
+6.09355E+1	+5.01009E-2
+6.07480E+1	+5.75926E-2
+6.05059E+1	+6.62729E-2
+6.03547E+1	+6.95145E-2
+6.02256E+1	+7.52053E-2
+6.00785E+1	+7.50972E-2
+5.99030E+1	+8.30572E-2
+5.97401E+1	+8.77035E-2
+5.96291E+1	+8.24809E-2
+5.95525E+1	+8.28771E-2
+5.95349E+1	+8.25169E-2
+5.94174E+1	+8.41738E-2
+5.93313E+1	+8.28411E-2
+5.90912E+1	+7.94914E-2
+5.87250E+1	+7.28641E-2
+5.85293E+1	+7.03429E-2
+5.83174E+1	+6.16626E-2
+5.81824E+1	+6.24550E-2
+5.81131E+1	+6.15545E-2
+5.79320E+1	+5.91413E-2
+5.77781E+1	+5.41349E-2
+5.76373E+1	+5.71604E-2
+5.75223E+1	+6.08342E-2
+5.73378E+1	+6.15185E-2
+5.71227E+1	+7.26480E-2
+5.68041E+1	+8.63708E-2
+5.66230E+1	+1.03912E-1
+5.64932E+1	+1.15761E-1
+5.63396E+1	+1.29304E-1
+5.61784E+1	+1.48970E-1
+5.59856E+1	+1.70689E-1
+5.58665E+1	+1.83511E-1
+5.57848E+1	+1.95433E-1
+5.57026E+1	+2.12722E-1
+5.54812E+1	+2.42580E-1
+5.52513E+1	+2.79967E-1
+5.49645E+1	+3.16633E-1
+5.47163E+1	+3.51102E-1
+5.46009E+1	+3.69939E-1
+5.44368E+1	+3.83374E-1
+5.42627E+1	+3.94216E-1
+5.41573E+1	+4.19284E-1
+5.41449E+1	+4.27712E-1
+5.39605E+1	+4.40210E-1
+5.37577E+1	+4.46405E-1
+5.35625E+1	+4.56058E-1
+5.33138E+1	+4.66143E-1
+5.30666E+1	+4.64054E-1
+5.30355E+1	+4.59300E-1
+5.28316E+1	+4.44893E-1
+5.26539E+1	+4.34988E-1
+5.25219E+1	+4.27532E-1
+5.23696E+1	+4.11000E-1
+5.21346E+1	+3.80997E-1
+5.18950E+1	+3.51426E-1
+5.15724E+1	+3.12239E-1
+5.14097E+1	+2.85694E-1
+5.12855E+1	+2.70818E-1
+5.12746E+1	+2.65019E-1
+5.10894E+1	+2.40059E-1
+5.08647E+1	+2.06815E-1
+5.07332E+1	+1.89670E-1
+5.05796E+1	+1.74867E-1
+5.03674E+1	+1.45152E-1
+5.01512E+1	+1.19399E-1
+4.98134E+1	+8.42818E-2
+4.95505E+1	+6.27071E-2
+4.94212E+1	+5.88892E-2
+4.94198E+1	+5.68362E-2
+4.93365E+1	+5.29463E-2
+4.91222E+1	+4.22490E-2
+4.90046E+1	+3.63780E-2
+4.88645E+1	+3.26682E-2
+4.87224E+1	+3.33525E-2
+4.86410E+1	+2.75176E-2
+4.84359E+1	+2.20069E-2
+4.82399E+1	+1.71805E-2
+4.79837E+1	+2.32675E-2
+4.77993E+1	+2.12866E-2
+4.76363E+1	+1.92335E-2
+4.74142E+1	+2.30875E-2
+4.73235E+1	+2.56447E-2
+4.71994E+1	+2.54286E-2
+4.70638E+1	+2.47443E-2
+4.69093E+1	+2.61850E-2
+4.68120E+1	+2.15387E-2
+4.67333E+1	+2.42400E-2
+4.65506E+1	+2.64731E-2
+4.62085E+1	+2.51045E-2
+4.59732E+1	+2.36998E-2
+4.57775E+1	+2.57168E-2
+4.55139E+1	+2.56087E-2
+4.54080E+1	+2.58248E-2
+4.53040E+1	+2.53926E-2
+4.51944E+1	+2.24031E-2
+4.50292E+1	+2.30514E-2
+4.48974E+1	+2.26913E-2
+4.46184E+1	+2.44201E-2
+4.43973E+1	+2.39159E-2
+4.41743E+1	+2.50684E-2
+4.39395E+1	+2.46002E-2
+4.38092E+1	+2.82020E-2
+4.37740E+1	+2.70134E-2
+4.36129E+1	+2.83100E-2
+4.33915E+1	+3.72425E-2
+4.32277E+1	+3.50814E-2
+4.30056E+1	+3.56217E-2
+4.27398E+1	+4.26091E-2
+4.25027E+1	+4.66792E-2
+4.24591E+1	+4.79758E-2
+4.22467E+1	+5.32344E-2
+4.19975E+1	+5.48552E-2
+4.19209E+1	+5.32344E-2
+4.18272E+1	+5.83129E-2
+4.14642E+1	+6.09062E-2
+4.12469E+1	+6.69932E-2
+4.10523E+1	+6.36436E-2
+4.09425E+1	+6.87941E-2
+4.07982E+1	+6.82178E-2
+4.06597E+1	+6.71013E-2
+4.05235E+1	+6.59847E-2
+4.03398E+1	+6.95505E-2
+4.01243E+1	+6.77496E-2
+3.98473E+1	+6.66330E-2
+3.95289E+1	+6.87221E-2
+3.92530E+1	+6.22389E-2
+3.90450E+1	+6.05460E-2
+3.89454E+1	+5.82049E-2
+3.88344E+1	+6.16986E-2
+3.87290E+1	+6.07982E-2
+3.85623E+1	+5.66561E-2
+3.83265E+1	+5.60438E-2
+3.80205E+1	+5.27662E-2
+3.77167E+1	+5.19378E-2
+3.73922E+1	+4.22490E-2
+3.72284E+1	+4.39418E-2
+3.70809E+1	+4.04841E-2
+3.68989E+1	+4.14205E-2
+3.66867E+1	+3.79268E-2
+3.63365E+1	+3.45772E-2
+3.60052E+1	+3.16597E-2
+3.56920E+1	+3.03991E-2
+3.54625E+1	+2.64011E-2
+3.52999E+1	+2.80939E-2
+3.50797E+1	+2.67973E-2
+3.48804E+1	+2.64731E-2
+3.46181E+1	+2.20429E-2
+3.41812E+1	+2.13946E-2
+3.38970E+1	+2.08183E-2
+3.35984E+1	+1.86573E-2
+3.33620E+1	+2.34836E-2
+3.31144E+1	+2.22951E-2
+3.29497E+1	+2.08543E-2
+3.27422E+1	+2.29074E-2
+3.23810E+1	+2.23311E-2
+3.20396E+1	+2.39519E-2
+3.18515E+1	+2.36277E-2
+3.17119E+1	+2.27993E-2
+3.15357E+1	+2.26913E-2
+3.13137E+1	+2.43481E-2
+3.11521E+1	+2.18989E-2
+3.09186E+1	+2.58248E-2
+3.05279E+1	+2.36277E-2
+3.01828E+1	+2.48163E-2
+2.99245E+1	+2.48883E-2
+2.96335E+1	+3.01470E-2
+2.93653E+1	+3.07232E-2
+2.91437E+1	+3.16957E-2
+2.89681E+1	+3.10834E-2
+2.86384E+1	+3.37127E-2
+2.82961E+1	+3.60899E-2
+2.80911E+1	+3.80349E-2
+2.78358E+1	+3.91514E-2
+2.75054E+1	+4.37257E-2
+2.72089E+1	+4.40138E-2
+2.70535E+1	+4.23210E-2
+2.67627E+1	+4.96326E-2
+2.64323E+1	+4.59948E-2
+2.61903E+1	+4.60308E-2
+2.59288E+1	+4.31494E-2
+2.56912E+1	+4.92364E-2
+2.54349E+1	+4.42660E-2
+2.52254E+1	+4.60668E-2
+2.49301E+1	+4.03400E-2
+2.45695E+1	+3.81789E-2
+2.43116E+1	+3.81789E-2
+2.40419E+1	+3.82870E-2
+2.38164E+1	+3.30284E-2
+2.35542E+1	+3.25962E-2
+2.34254E+1	+3.16957E-2
+2.32323E+1	+3.60899E-2
+2.29362E+1	+2.59329E-2
+2.25940E+1	+2.97508E-2
+2.22897E+1	+3.14076E-2
+2.20720E+1	+3.19118E-2
+2.18293E+1	+2.69053E-2
+2.16248E+1	+3.01109E-2
+2.14729E+1	+3.25601E-2
+2.11263E+1	+2.70134E-2
+2.07717E+1	+3.27402E-2
+2.04623E+1	+2.97147E-2
+2.02188E+1	+3.04711E-2
+1.99462E+1	+2.90304E-2
+1.97309E+1	+2.89584E-2
+1.94701E+1	+2.76977E-2
+1.91522E+1	+2.85982E-2
+1.88765E+1	+2.86342E-2
+1.86631E+1	+2.85622E-2
+1.84148E+1	+2.97508E-2
+1.81345E+1	+3.36407E-2
+1.78266E+1	+2.98588E-2
+1.75413E+1	+3.92955E-2
+1.74243E+1	+4.28973E-2
+1.70689E+1	+4.65351E-2
+1.67824E+1	+4.88762E-2
+1.65260E+1	+5.42069E-2
+1.63299E+1	+5.84210E-2
+1.61067E+1	+6.38237E-2
+1.58810E+1	+6.94785E-2
+1.57171E+1	+7.28641E-2
+1.53523E+1	+7.80867E-2
+1.49708E+1	+8.59026E-2
+1.47183E+1	+9.15934E-2
+1.45412E+1	+9.06570E-2
+1.42689E+1	+9.71042E-2
+1.40904E+1	+9.48350E-2
+1.40052E+1	+9.21697E-2
+1.39031E+1	+9.50872E-2
+1.38583E+1	+9.04769E-2
+1.38584E+1	+9.93013E-2
+1.38237E+1	+1.27143E-1
+1.37371E+1	+1.52824E-1
+1.37134E+1	+1.83151E-1
+1.37095E+1	+1.97738E-1
+1.37088E+1	+2.13442E-1
+1.37029E+1	+2.32495E-1
+1.37047E+1	+2.45858E-1
+1.37043E+1	+2.63579E-1
+1.37040E+1	+2.87747E-1
+1.37048E+1	+3.17353E-1
+1.36339E+1	+3.46528E-1
+1.36285E+1	+3.73541E-1
+1.36271E+1	+3.98538E-1
+1.36269E+1	+4.26812E-1
+1.36279E+1	+4.57427E-1
+1.36272E+1	+5.02161E-1
+1.36277E+1	+5.37387E-1
+1.36281E+1	+5.42429E-1
+1.36276E+1	+5.09725E-1
+1.36277E+1	+4.66035E-1
+1.36279E+1	+4.27028E-1
+1.36278E+1	+3.80637E-1
+1.36275E+1	+3.44331E-1
+1.36274E+1	+2.99128E-1
+1.36283E+1	+2.51945E-1
+1.36284E+1	+1.99539E-1
+1.36272E+1	+1.44864E-1
+1.36260E+1	+1.07693E-1
+1.36278E+1	+9.19176E-2
+1.36283E+1	+9.53753E-2
+1.36280E+1	+8.88561E-2
+1.36271E+1	+9.11612E-2
+1.36261E+1	+9.50151E-2
+1.36269E+1	+9.34664E-2
+1.36261E+1	+9.21337E-2
+1.36271E+1	+9.20256E-2
+1.36269E+1	+9.55914E-2
+1.36278E+1	+9.50511E-2
+1.36269E+1	+9.63118E-2
+1.36285E+1	+9.48350E-2
+1.36282E+1	+9.37905E-2
+1.36257E+1	+9.46549E-2
+1.36264E+1	+9.22057E-2
+1.36278E+1	+9.16294E-2
+1.36254E+1	+9.24939E-2
+1.36276E+1	+9.81127E-2
+1.36283E+1	+9.81487E-2
+1.36283E+1	+9.62037E-2
+1.36274E+1	+9.30702E-2
+1.36285E+1	+9.52673E-2
+1.36276E+1	+9.56634E-2
+1.36266E+1	+9.44028E-2
+1.36269E+1	+9.53393E-2
+1.36283E+1	+9.42948E-2
