+5.00000E+6	+4.97018E+6	+4.66135E-1
+5.10000E+6	+5.09684E+6	+5.00094E-1
+5.20000E+6	+5.15464E+6	+5.40079E-1
+5.30000E+6	+5.29661E+6	+5.90932E-1
+5.40000E+6	+5.38793E+6	+6.53910E-1
+5.50000E+6	+5.48246E+6	+7.28581E-1
+5.60000E+6	+5.58036E+6	+8.19933E-1
+5.70000E+6	+5.68828E+6	+9.24120E-1
+5.80000E+6	+5.80046E+6	+1.04064E+0
+5.90000E+6	+5.91017E+6	+1.17168E+0
+6.00000E+6	+6.00240E+6	+1.30748E+0
+6.10000E+6	+6.09756E+6	+1.42727E+0
+6.20000E+6	+6.16523E+6	+1.50303E+0
+6.30000E+6	+6.31313E+6	+1.51059E+0
+6.40000E+6	+6.41026E+6	+1.44117E+0
+6.50000E+6	+6.51890E+6	+1.32248E+0
+6.60000E+6	+6.59631E+6	+1.18722E+0
+6.70000E+6	+6.70241E+6	+1.05684E+0
+6.80000E+6	+6.79348E+6	+9.16518E-1
+6.90000E+6	+6.91563E+6	+8.20849E-1
+7.00000E+6	+7.03235E+6	+7.43084E-1
