+3.00000E+6	+3.03767E+6	+1.51588E-1
+3.20000E+6	+3.17259E+6	+1.61073E-1
+3.40000E+6	+3.44116E+6	+1.74158E-1
+3.60000E+6	+3.62319E+6	+1.92769E-1
+3.80000E+6	+3.77074E+6	+2.08517E-1
+4.00000E+6	+4.03877E+6	+2.20608E-1
+4.20000E+6	+4.17711E+6	+2.34131E-1
+4.40000E+6	+4.39367E+6	+2.54663E-1
+4.60000E+6	+4.63822E+6	+2.78863E-1
+4.80000E+6	+4.82626E+6	+3.01095E-1
+5.00000E+6	+4.99002E+6	+3.17763E-1
+5.20000E+6	+5.24109E+6	+3.34365E-1
+5.40000E+6	+5.40541E+6	+3.54751E-1
+5.60000E+6	+5.60538E+6	+3.78097E-1
+5.80000E+6	+5.74713E+6	+3.93221E-1
+6.00000E+6	+6.00962E+6	+3.97375E-1
+6.20000E+6	+6.22665E+6	+3.94415E-1
+6.40000E+6	+6.37755E+6	+3.92474E-1
+6.60000E+6	+6.57895E+6	+3.87673E-1
+6.80000E+6	+6.77507E+6	+3.74542E-1
+7.00000E+6	+6.97350E+6	+3.53588E-1
+7.20000E+6	+7.18391E+6	+3.30519E-1
+7.40000E+6	+7.37463E+6	+3.12143E-1
+7.60000E+6	+7.62195E+6	+2.95601E-1
+7.80000E+6	+7.70416E+6	+2.76567E-1
+8.00000E+6	+8.01282E+6	+2.55066E-1
+8.20000E+6	+8.15661E+6	+2.34176E-1
+8.40000E+6	+8.36120E+6	+2.18487E-1
+8.60000E+6	+8.65052E+6	+2.05540E-1
+8.80000E+6	+8.73362E+6	+1.91815E-1
+9.00000E+6	+9.02527E+6	+1.77279E-1
+9.20000E+6	+9.07441E+6	+1.63990E-1
+9.40000E+6	+9.38086E+6	+1.52551E-1
+9.60000E+6	+9.41620E+6	+1.43300E-1
+9.80000E+6	+9.82318E+6	+1.32831E-1
+1.00000E+7	+1.00806E+7	+1.22757E-1
+1.02000E+7	+1.00200E+7	+1.12007E-1
+1.04000E+7	+1.04822E+7	+1.03881E-1
+1.06000E+7	+1.06534E+7	+9.71329E-2
+1.08000E+7	+1.08382E+7	+9.02033E-2
+1.10000E+7	+1.10783E+7	+8.34296E-2
+1.12000E+7	+1.08696E+7	+7.63672E-2
+1.14000E+7	+1.16414E+7	+7.15204E-2
+1.16000E+7	+1.15473E+7	+6.73556E-2
+1.18000E+7	+1.17832E+7	+6.31035E-2
+1.20000E+7	+1.15473E+7	+5.95264E-2
+1.22000E+7	+1.24688E+7	+5.71625E-2
+1.24000E+7	+1.22850E+7	+5.59536E-2
+1.26000E+7	+1.26582E+7	+5.59225E-2
+1.28000E+7	+1.28205E+7	+5.63098E-2
+1.30000E+7	+1.26263E+7	+5.81468E-2
+1.32000E+7	+1.34288E+7	+6.03815E-2
+1.34000E+7	+1.33690E+7	+6.45142E-2
+1.36000E+7	+1.33690E+7	+6.87206E-2
+1.38000E+7	+1.35870E+7	+7.42741E-2
+1.40000E+7	+1.41777E+7	+7.96316E-2
+1.42000E+7	+1.39147E+7	+8.56315E-2
+1.44000E+7	+1.43130E+7	+9.30793E-2
+1.46000E+7	+1.45349E+7	+1.00851E-1
+1.48000E+7	+1.47059E+7	+1.09767E-1
+1.50000E+7	+1.52594E+7	+1.17520E-1
+1.52000E+7	+1.51822E+7	+1.28783E-1
+1.54000E+7	+1.53846E+7	+1.39298E-1
+1.56000E+7	+1.56250E+7	+1.51092E-1
+1.58000E+7	+1.58730E+7	+1.64045E-1
+1.60000E+7	+1.60772E+7	+1.76120E-1
+1.62000E+7	+1.62866E+7	+1.89952E-1
+1.64000E+7	+1.63399E+7	+2.04622E-1
+1.66000E+7	+1.64474E+7	+2.22339E-1
+1.68000E+7	+1.69396E+7	+2.40295E-1
+1.70000E+7	+1.70648E+7	+2.59454E-1
+1.72000E+7	+1.73010E+7	+2.79505E-1
+1.74000E+7	+1.73611E+7	+3.00438E-1
+1.76000E+7	+1.76263E+7	+3.24927E-1
+1.78000E+7	+1.77725E+7	+3.48710E-1
+1.80000E+7	+1.80505E+7	+3.68904E-1
+1.82000E+7	+1.82149E+7	+3.88851E-1
+1.84000E+7	+1.84843E+7	+4.07401E-1
+1.86000E+7	+1.86567E+7	+4.22699E-1
+1.88000E+7	+1.89036E+7	+4.31398E-1
+1.90000E+7	+1.89274E+7	+4.30678E-1
+1.92000E+7	+1.91571E+7	+4.22455E-1
+1.94000E+7	+1.94679E+7	+4.11633E-1
+1.96000E+7	+1.96850E+7	+3.97133E-1
+1.98000E+7	+1.98807E+7	+3.77531E-1
+2.00000E+7	+2.00669E+7	+3.55256E-1
