+8.99796E-1	+5.45563E-1	+7.31967E-1
+8.52203E-1	+5.10405E-1	+7.16461E-1
+8.18253E-1	+4.79790E-1	+6.73365E-1
+8.37402E-1	+5.05524E-1	+7.07554E-1
+8.25394E-1	+4.87268E-1	+6.83518E-1
+7.78519E-1	+4.56831E-1	+6.41223E-1
+7.45010E-1	+4.20121E-1	+5.88618E-1
+6.91483E-1	+3.80746E-1	+5.32573E-1
+6.18042E-1	+3.32238E-1	+4.64345E-1
+5.57419E-1	+2.88800E-1	+4.01382E-1
+4.98489E-1	+2.49471E-1	+3.46386E-1
+4.40216E-1	+2.13342E-1	+2.93423E-1
+3.99612E-1	+1.87401E-1	+2.56467E-1
+3.97095E-1	+1.81791E-1	+2.47948E-1
+4.21082E-1	+1.95583E-1	+2.68109E-1
+4.64035E-1	+2.23912E-1	+3.09239E-1
+5.00275E-1	+2.53845E-1	+3.51793E-1
+5.88303E-1	+3.03599E-1	+4.23600E-1
+6.48499E-1	+3.54582E-1	+4.95739E-1
+7.08847E-1	+3.97993E-1	+5.56528E-1
+7.77527E-1	+4.47923E-1	+6.26295E-1
+8.19778E-1	+4.93685E-1	+6.91180E-1
+8.88000E-1	+5.31037E-1	+7.44891E-1
+9.26208E-1	+5.62033E-1	+7.88932E-1
+9.52621E-1	+5.85093E-1	+8.20149E-1
+9.71695E-1	+6.01083E-1	+8.44806E-1
+9.74960E-1	+6.08252E-1	+8.52904E-1
+9.85825E-1	+6.09496E-1	+8.54421E-1
+9.81033E-1	+6.01020E-1	+8.39097E-1
+9.61014E-1	+5.85025E-1	+8.15852E-1
+9.22348E-1	+5.60968E-1	+7.84117E-1
+8.62640E-1	+5.17248E-1	+7.22173E-1
+8.16467E-1	+4.82608E-1	+6.74963E-1
+7.05505E-1	+3.90129E-1	+5.43923E-1
+6.72195E-1	+3.62375E-1	+5.06918E-1
+6.37115E-1	+3.35891E-1	+4.69205E-1
+5.92316E-1	+3.06076E-1	+4.26550E-1
+5.27527E-1	+2.59724E-1	+3.59150E-1
+4.47922E-1	+2.05374E-1	+2.82197E-1
+3.58459E-1	+1.50078E-1	+2.02025E-1
+2.93289E-1	+1.01608E-1	+1.29648E-1
+2.55280E-1	+8.11161E-2	+9.71438E-2
+3.16284E-1	+1.07405E-1	+1.38836E-1
+3.69934E-1	+1.56643E-1	+2.12299E-1
+4.52896E-1	+2.09312E-1	+2.88434E-1
+5.54687E-1	+2.67613E-1	+3.71027E-1
+6.05881E-1	+3.16371E-1	+4.41204E-1
+6.55914E-1	+3.62366E-1	+5.06419E-1
+7.13501E-1	+3.92930E-1	+5.49669E-1
+7.34985E-1	+4.16660E-1	+5.81898E-1
+8.27652E-1	+4.85653E-1	+6.80405E-1
+8.36960E-1	+4.99173E-1	+7.00308E-1
+8.73276E-1	+5.37003E-1	+7.53543E-1
+9.21204E-1	+5.63501E-1	+7.91495E-1
+9.35745E-1	+5.67405E-1	+7.95537E-1
