+2.00000E+2	+2.21283E-1	+5.72205E-2	+2.06006E-2
+2.02000E+2	+2.52441E-1	+5.73585E-2	+2.08915E-2
+2.04000E+2	+2.07062E-1	+5.67798E-2	+2.16939E-2
+2.06000E+2	+2.18353E-1	+5.70056E-2	+2.21659E-2
+2.08000E+2	+2.32666E-1	+5.85281E-2	+2.59639E-2
+2.10000E+2	+2.21115E-1	+5.72872E-2	+2.34314E-2
+2.12000E+2	+2.14218E-1	+5.74710E-2	+2.38309E-2
+2.14000E+2	+2.35062E-1	+5.74099E-2	+2.45240E-2
+2.16000E+2	+2.27097E-1	+5.78553E-2	+2.51822E-2
+2.18000E+2	+2.30026E-1	+5.85327E-2	+2.69068E-2
+2.20000E+2	+2.26013E-1	+5.88500E-2	+2.83764E-2
+2.22000E+2	+2.28622E-1	+5.89073E-2	+2.94183E-2
+2.24000E+2	+2.20627E-1	+5.86344E-2	+3.02979E-2
+2.26000E+2	+2.28271E-1	+5.90410E-2	+3.08945E-2
+2.28000E+2	+2.23557E-1	+5.91805E-2	+3.22165E-2
+2.30000E+2	+2.32071E-1	+5.95118E-2	+3.37397E-2
+2.32000E+2	+2.69638E-1	+5.99115E-2	+3.48422E-2
+2.34000E+2	+2.19208E-1	+6.00843E-2	+3.58446E-2
+2.36000E+2	+2.39075E-1	+6.05226E-2	+3.72633E-2
+2.38000E+2	+2.18979E-1	+6.09030E-2	+3.86471E-2
+2.40000E+2	+2.52594E-1	+6.15657E-2	+4.09076E-2
+2.42000E+2	+2.31522E-1	+6.23757E-2	+4.38109E-2
+2.44000E+2	+2.50961E-1	+6.32044E-2	+4.64865E-2
+2.46000E+2	+2.56027E-1	+6.40142E-2	+4.87136E-2
+2.48000E+2	+2.54105E-1	+6.52711E-2	+5.08311E-2
+2.50000E+2	+2.35550E-1	+6.60318E-2	+5.38350E-2
+2.52000E+2	+2.45682E-1	+6.72860E-2	+5.69986E-2
+2.54000E+2	+2.31155E-1	+6.90004E-2	+6.09560E-2
+2.56000E+2	+2.57874E-1	+7.11851E-2	+6.56839E-2
+2.58000E+2	+2.64526E-1	+7.30790E-2	+7.02266E-2
+2.60000E+2	+2.57050E-1	+7.56500E-2	+7.49885E-2
+2.62000E+2	+2.62100E-1	+7.77589E-2	+7.99030E-2
+2.64000E+2	+2.72568E-1	+8.04751E-2	+8.46491E-2
+2.66000E+2	+2.76093E-1	+8.26988E-2	+8.88176E-2
+2.68000E+2	+2.68936E-1	+8.45388E-2	+9.14490E-2
+2.70000E+2	+2.79785E-1	+8.73959E-2	+9.38091E-2
+2.72000E+2	+2.91489E-1	+8.88613E-2	+9.73289E-2
+2.74000E+2	+2.81921E-1	+9.35133E-2	+1.06179E-1
+2.76000E+2	+3.04840E-1	+9.98731E-2	+1.17380E-1
+2.78000E+2	+3.14957E-1	+1.04961E-1	+1.26621E-1
+2.80000E+2	+3.10837E-1	+1.11946E-1	+1.38407E-1
+2.82000E+2	+3.33069E-1	+1.18026E-1	+1.47933E-1
+2.84000E+2	+3.98132E-1	+1.28691E-1	+1.60820E-1
+2.86000E+2	+3.85147E-1	+1.39386E-1	+1.78867E-1
+2.88000E+2	+4.57275E-1	+1.56110E-1	+2.04797E-1
+2.90000E+2	+4.49478E-1	+1.74829E-1	+2.34140E-1
+2.92000E+2	+4.78806E-1	+2.02229E-1	+2.74834E-1
+2.94000E+2	+5.21576E-1	+2.45995E-1	+3.39336E-1
+2.96000E+2	+6.00250E-1	+2.84350E-1	+3.94586E-1
+2.98000E+2	+6.19324E-1	+3.01189E-1	+4.18862E-1
+3.00000E+2	+6.26572E-1	+3.07502E-1	+4.27359E-1
+3.02000E+2	+6.58630E-1	+3.33204E-1	+4.64416E-1
+3.04000E+2	+6.62888E-1	+3.45545E-1	+4.82375E-1
+3.06000E+2	+6.20560E-1	+3.13471E-1	+4.36450E-1
+3.08000E+2	+5.90103E-1	+2.78745E-1	+3.86388E-1
+3.10000E+2	+5.19119E-1	+2.41931E-1	+3.33431E-1
+3.12000E+2	+4.88434E-1	+2.10081E-1	+2.86929E-1
+3.14000E+2	+4.35486E-1	+1.77955E-1	+2.39696E-1
+3.16000E+2	+4.03687E-1	+1.54679E-1	+2.04861E-1
+3.18000E+2	+3.88443E-1	+1.37944E-1	+1.79336E-1
+3.20000E+2	+3.56384E-1	+1.23422E-1	+1.56570E-1
+3.22000E+2	+3.32077E-1	+1.10559E-1	+1.36392E-1
+3.24000E+2	+3.16437E-1	+1.01593E-1	+1.21562E-1
+3.26000E+2	+3.03238E-1	+9.50979E-2	+1.10752E-1
+3.28000E+2	+3.03665E-1	+8.93876E-2	+1.00361E-1
+3.30000E+2	+2.94724E-1	+8.45432E-2	+9.17391E-2
+3.32000E+2	+2.90695E-1	+8.07885E-2	+8.44127E-2
+3.34000E+2	+2.71042E-1	+7.76145E-2	+7.81831E-2
+3.36000E+2	+2.65091E-1	+7.44598E-2	+7.23429E-2
+3.38000E+2	+2.66678E-1	+7.20021E-2	+6.69238E-2
+3.40000E+2	+2.63763E-1	+7.05635E-2	+6.32499E-2
+3.42000E+2	+2.68082E-1	+6.96743E-2	+6.18643E-2
+3.44000E+2	+2.62817E-1	+6.84619E-2	+5.91717E-2
+3.46000E+2	+2.53983E-1	+6.74206E-2	+5.65237E-2
+3.48000E+2	+2.43698E-1	+6.60876E-2	+5.37692E-2
+3.50000E+2	+2.43011E-1	+6.35346E-2	+4.85065E-2
+3.52000E+2	+2.55783E-1	+6.32016E-2	+4.75257E-2
+3.54000E+2	+2.41089E-1	+6.19989E-2	+4.47970E-2
+3.56000E+2	+2.31888E-1	+6.16371E-2	+4.32884E-2
+3.58000E+2	+2.51389E-1	+6.14814E-2	+4.36720E-2
+3.60000E+2	+2.50336E-1	+6.20801E-2	+4.41679E-2
+3.62000E+2	+2.44843E-1	+6.21281E-2	+4.49371E-2
+3.64000E+2	+2.38297E-1	+6.32831E-2	+4.70567E-2
+3.66000E+2	+2.48962E-1	+6.50198E-2	+5.19144E-2
+3.68000E+2	+2.53326E-1	+6.65998E-2	+5.45177E-2
+3.70000E+2	+2.43576E-1	+6.48401E-2	+5.19367E-2
+3.72000E+2	+2.83020E-1	+6.73171E-2	+4.68175E-2
+3.74000E+2	+2.47131E-1	+6.65385E-2	+5.16999E-2
+3.76000E+2	+2.45361E-1	+6.42440E-2	+5.03093E-2
+3.78000E+2	+2.47742E-1	+6.24877E-2	+4.43989E-2
+3.80000E+2	+2.41730E-1	+6.03891E-2	+3.70051E-2
+3.82000E+2	+2.49176E-1	+5.89183E-2	+2.92430E-2
+3.84000E+2	+2.38754E-1	+5.82143E-2	+2.58573E-2
+3.86000E+2	+2.42676E-1	+5.87720E-2	+2.72876E-2
+3.88000E+2	+2.43515E-1	+5.85998E-2	+3.13258E-2
+3.90000E+2	+2.56393E-1	+5.88926E-2	+3.25553E-2
+3.92000E+2	+2.45773E-1	+6.00669E-2	+3.60977E-2
+3.94000E+2	+2.88696E-1	+6.28863E-2	+4.00865E-2
+3.96000E+2	+2.70355E-1	+6.36098E-2	+4.41047E-2
+3.98000E+2	+2.63229E-1	+6.31171E-2	+4.62009E-2
+4.00000E+2	+2.61871E-1	+6.43564E-2	+4.88046E-2
+4.02000E+2	+2.76794E-1	+6.68122E-2	+5.29642E-2
+4.04000E+2	+2.77557E-1	+6.77679E-2	+5.70150E-2
+4.06000E+2	+3.07953E-1	+7.35943E-2	+6.13191E-2
+4.08000E+2	+3.97202E-1	+8.41974E-2	+6.72529E-2
+4.10000E+2	+4.62769E-1	+8.63412E-2	+7.46143E-2
+4.12000E+2	+5.34210E-1	+1.01222E-1	+8.42503E-2
+4.14000E+2	+2.84195E-1	+8.52158E-2	+9.23338E-2
+4.16000E+2	+2.93579E-1	+8.93473E-2	+1.00935E-1
+4.18000E+2	+3.09692E-1	+9.29826E-2	+1.07044E-1
+4.20000E+2	+3.33282E-1	+1.02746E-1	+1.23753E-1
+4.22000E+2	+3.38715E-1	+1.11298E-1	+1.38036E-1
+4.24000E+2	+3.46298E-1	+1.19337E-1	+1.50887E-1
+4.26000E+2	+3.64792E-1	+1.30705E-1	+1.68514E-1
+4.28000E+2	+3.85620E-1	+1.42429E-1	+1.86708E-1
+4.30000E+2	+4.14948E-1	+1.62832E-1	+2.17414E-1
+4.32000E+2	+4.43756E-1	+1.89843E-1	+2.57636E-1
+4.34000E+2	+4.97803E-1	+2.26860E-1	+3.11835E-1
+4.36000E+2	+5.64728E-1	+2.76271E-1	+3.83259E-1
+4.38000E+2	+6.57211E-1	+3.43615E-1	+4.80115E-1
+4.40000E+2	+7.65060E-1	+4.20878E-1	+5.90037E-1
+4.42000E+2	+8.43140E-1	+4.94009E-1	+6.94831E-1
+4.44000E+2	+8.77563E-1	+5.18939E-1	+7.30346E-1
+4.46000E+2	+8.50266E-1	+4.88682E-1	+6.87247E-1
+4.48000E+2	+7.81052E-1	+4.38226E-1	+6.15313E-1
+4.50000E+2	+7.13135E-1	+3.85888E-1	+5.40569E-1
+4.52000E+2	+6.60889E-1	+3.45615E-1	+4.82822E-1
+4.54000E+2	+6.22162E-1	+3.13027E-1	+4.35450E-1
+4.56000E+2	+5.83359E-1	+2.85531E-1	+3.96297E-1
+4.58000E+2	+5.39871E-1	+2.60654E-1	+3.60414E-1
+4.60000E+2	+5.14923E-1	+2.43855E-1	+3.36299E-1
+4.62000E+2	+5.08163E-1	+2.30201E-1	+3.16371E-1
+4.64000E+2	+4.81461E-1	+2.18609E-1	+2.99346E-1
+4.66000E+2	+4.73633E-1	+2.06130E-1	+2.81072E-1
+4.68000E+2	+4.56314E-1	+1.96817E-1	+2.67376E-1
+4.70000E+2	+4.69604E-1	+1.92121E-1	+2.60222E-1
+4.72000E+2	+4.39636E-1	+1.87397E-1	+2.53179E-1
+4.74000E+2	+4.31870E-1	+1.84671E-1	+2.48861E-1
+4.76000E+2	+4.45099E-1	+1.84365E-1	+2.48349E-1
+4.78000E+2	+4.36081E-1	+1.84418E-1	+2.48492E-1
+4.80000E+2	+4.56161E-1	+1.83703E-1	+2.47368E-1
+4.82000E+2	+4.43771E-1	+1.84412E-1	+2.48313E-1
+4.84000E+2	+4.57031E-1	+1.87056E-1	+2.52546E-1
+4.86000E+2	+4.29779E-1	+1.88801E-1	+2.55283E-1
+4.88000E+2	+4.41513E-1	+1.93275E-1	+2.61521E-1
+4.90000E+2	+4.72305E-1	+1.98467E-1	+2.69254E-1
+4.92000E+2	+4.58588E-1	+2.02114E-1	+2.74966E-1
+4.94000E+2	+4.59366E-1	+2.06245E-1	+2.80981E-1
+4.96000E+2	+4.85748E-1	+2.08546E-1	+2.83978E-1
+4.98000E+2	+4.98627E-1	+2.14935E-1	+2.93430E-1
+5.00000E+2	+5.32166E-1	+2.25435E-1	+3.08403E-1
+5.02000E+2	+5.29678E-1	+2.35909E-1	+3.23772E-1
+5.04000E+2	+5.20493E-1	+2.49472E-1	+3.43923E-1
+5.06000E+2	+5.52612E-1	+2.68038E-1	+3.70737E-1
+5.08000E+2	+5.49103E-1	+2.63157E-1	+3.63862E-1
+5.10000E+2	+5.75317E-1	+2.65506E-1	+3.66780E-1
+5.12000E+2	+5.83786E-1	+2.78233E-1	+3.85216E-1
+5.14000E+2	+5.94162E-1	+2.95873E-1	+4.11090E-1
+5.16000E+2	+6.40472E-1	+3.17811E-1	+4.41775E-1
+5.18000E+2	+6.64917E-1	+3.39873E-1	+4.74373E-1
+5.20000E+2	+7.22702E-1	+3.68337E-1	+5.14929E-1
+5.22000E+2	+7.56195E-1	+4.01176E-1	+5.61930E-1
+5.24000E+2	+8.04504E-1	+4.39763E-1	+6.16990E-1
+5.26000E+2	+8.50784E-1	+4.88736E-1	+6.86812E-1
+5.28000E+2	+9.15588E-1	+5.50538E-1	+7.74802E-1
+5.30000E+2	+9.79416E-1	+6.25938E-1	+8.81094E-1
+5.32000E+2	+9.99985E-1	+7.13579E-1	+1.00561E+0
+5.34000E+2	+9.99985E-1	+7.84431E-1	+1.09906E+0
+5.36000E+2	+9.99985E-1	+8.23105E-1	+1.14922E+0
+5.38000E+2	+9.99985E-1	+8.46780E-1	+1.17623E+0
+5.40000E+2	+9.99985E-1	+8.53882E-1	+1.18355E+0
+5.42000E+2	+9.99985E-1	+8.44856E-1	+1.17496E+0
+5.44000E+2	+9.99985E-1	+8.17067E-1	+1.14249E+0
+5.46000E+2	+9.99985E-1	+7.60820E-1	+1.07156E+0
+5.48000E+2	+9.99985E-1	+6.56138E-1	+9.23952E-1
+5.50000E+2	+9.94797E-1	+5.54605E-1	+7.78293E-1
+5.52000E+2	+8.18008E-1	+4.72975E-1	+6.63768E-1
+5.54000E+2	+7.91092E-1	+4.23232E-1	+5.92107E-1
+5.56000E+2	+7.12906E-1	+3.80962E-1	+5.33142E-1
+5.58000E+2	+6.59119E-1	+3.38066E-1	+4.71464E-1
+5.60000E+2	+6.10352E-1	+2.97916E-1	+4.13846E-1
+5.62000E+2	+5.51865E-1	+2.68660E-1	+3.71775E-1
+5.64000E+2	+5.30411E-1	+2.41748E-1	+3.32707E-1
+5.66000E+2	+4.86771E-1	+2.19568E-1	+3.00513E-1
+5.68000E+2	+4.66797E-1	+2.04589E-1	+2.78662E-1
+5.70000E+2	+4.55185E-1	+1.87333E-1	+2.53030E-1
+5.72000E+2	+4.29520E-1	+1.67722E-1	+2.23466E-1
+5.74000E+2	+3.92288E-1	+1.47529E-1	+1.92479E-1
+5.76000E+2	+3.67020E-1	+1.31449E-1	+1.67485E-1
+5.78000E+2	+3.51151E-1	+1.20281E-1	+1.50326E-1
+5.80000E+2	+3.49121E-1	+1.11881E-1	+1.37493E-1
+5.82000E+2	+3.25577E-1	+1.11028E-1	+1.36027E-1
+5.84000E+2	+3.37952E-1	+1.23632E-1	+1.56396E-1
+5.86000E+2	+3.73581E-1	+1.50278E-1	+1.97615E-1
+5.88000E+2	+4.47342E-1	+1.89585E-1	+2.56327E-1
+5.90000E+2	+5.22064E-1	+2.45475E-1	+3.37976E-1
+5.92000E+2	+6.27319E-1	+3.25151E-1	+4.53066E-1
+5.94000E+2	+7.89032E-1	+4.38531E-1	+6.14692E-1
+5.96000E+2	+9.70352E-1	+5.95221E-1	+8.37688E-1
+5.98000E+2	+9.99985E-1	+7.61038E-1	+1.07020E+0
+6.00000E+2	+9.99985E-1	+8.10610E-1	+1.13395E+0
+6.02000E+2	+9.99985E-1	+8.01044E-1	+1.12187E+0
+6.04000E+2	+9.99985E-1	+7.40108E-1	+1.04277E+0
+6.06000E+2	+9.99985E-1	+6.50414E-1	+9.16333E-1
+6.08000E+2	+9.36981E-1	+5.65771E-1	+7.96100E-1
+6.10000E+2	+8.63113E-1	+4.99928E-1	+6.98656E-1
+6.12000E+2	+8.00110E-1	+4.56087E-1	+6.39114E-1
+6.14000E+2	+7.48840E-1	+4.17327E-1	+5.85128E-1
+6.16000E+2	+6.97983E-1	+3.79817E-1	+5.31557E-1
+6.18000E+2	+6.71570E-1	+3.50447E-1	+4.89549E-1
+6.20000E+2	+6.50192E-1	+3.30587E-1	+4.61080E-1
+6.22000E+2	+6.07437E-1	+3.11147E-1	+4.33107E-1
+6.24000E+2	+5.79056E-1	+2.92868E-1	+4.06728E-1
+6.26000E+2	+5.56763E-1	+2.79080E-1	+3.86771E-1
+6.28000E+2	+5.52917E-1	+2.65925E-1	+3.67870E-1
+6.30000E+2	+5.33966E-1	+2.55795E-1	+3.53155E-1
+6.32000E+2	+5.21088E-1	+2.47383E-1	+3.41169E-1
+6.34000E+2	+5.18021E-1	+2.37993E-1	+3.27525E-1
+6.36000E+2	+5.02441E-1	+2.28997E-1	+3.14151E-1
+6.38000E+2	+4.90616E-1	+2.20772E-1	+3.01842E-1
+6.40000E+2	+4.83871E-1	+2.13909E-1	+2.92016E-1
+6.42000E+2	+4.75616E-1	+2.07532E-1	+2.82459E-1
+6.44000E+2	+4.60648E-1	+2.01287E-1	+2.73436E-1
+6.46000E+2	+4.45099E-1	+1.94909E-1	+2.63549E-1
+6.48000E+2	+4.52118E-1	+1.90537E-1	+2.57640E-1
